,Width##LENGTH##INCHES,Height##LENGTH##INCHES,Designation##OTHER##,Type Comments##OTHER##,. . Lights Wide##OTHER##,. . Top Sash Lights High##OTHER##,. . Bottom Sash Lights High##OTHER##,XPanelTransOffset##LENGTH##INCHES,. . Transom Lights High##OTHER##,Fractional Lights Wide##OTHER##,Fractional Lights High##OTHER##
"17-1/2"" x 47-1/2""A",17.5,47.5,100SHST1610/1630,Fibrex single-hung window,2,2,2,12,1,2,2
"17-1/2"" x 53-1/2""A",17.5,53.5,100SHST1610/1636,Fibrex single-hung window,2,2,2,12,1,2,2
"17-1/2"" x 59-1/2""A",17.5,59.5,100SHST1610/1640,Fibrex single-hung window,2,2,2,12,1,2,2
"17-1/2"" x 65-1/2""A",17.5,65.5,100SHST1610/1646,Fibrex single-hung window,2,2,2,12,1,2,2
"17-1/2"" x 71-1/2""A",17.5,71.5,100SHST1610/1650,Fibrex single-hung window,2,2,2,12,1,2,2
"17-1/2"" x 77-1/2""A",17.5,77.5,100SHST1610/1656,Fibrex single-hung window,2,2,2,12,1,2,2
"17-1/2"" x 83-1/2""A",17.5,83.5,100SHST1610/1660,Fibrex single-hung window,2,2,2,12,1,2,2
"23-1/2"" x 47-1/2""A",23.5,47.5,100SHST2010/2030,Fibrex single-hung window,2,2,2,12,1,2,2
"23-1/2"" x 53-1/2""A",23.5,53.5,100SHST2010/2036,Fibrex single-hung window,2,2,2,12,1,2,2
"23-1/2"" x 59-1/2""A",23.5,59.5,100SHST2010/2040,Fibrex single-hung window,2,2,2,12,1,2,2
"23-1/2"" x 65-1/2""A",23.5,65.5,100SHST2010/2046,Fibrex single-hung window,2,2,2,12,1,2,2
"23-1/2"" x 71-1/2""A",23.5,71.5,100SHST2010/2050,Fibrex single-hung window,2,2,2,12,1,2,2
"23-1/2"" x 77-1/2""A",23.5,77.5,100SHST2010/2056,Fibrex single-hung window,2,2,2,12,1,2,2
"23-1/2"" x 83-1/2""A",23.5,83.5,100SHST2010/2060,Fibrex single-hung window,2,2,2,12,1,2,2
"29-1/2"" x 47-1/2""A",29.5,47.5,100SHST2610/2630,Fibrex single-hung window,3,2,2,12,1,3,2
"29-1/2"" x 53-1/2""A",29.5,53.5,100SHST2610/2636,Fibrex single-hung window,3,2,2,12,1,3,2
"29-1/2"" x 59-1/2""A",29.5,59.5,100SHST2610/2640,Fibrex single-hung window,3,2,2,12,1,3,2
"29-1/2"" x 65-1/2""A",29.5,65.5,100SHST2610/2646,Fibrex single-hung window,3,2,2,12,1,3,2
"29-1/2"" x 71-1/2""A",29.5,71.5,100SHST2610/2650,Fibrex single-hung window,3,2,2,12,1,3,2
"29-1/2"" x 77-1/2""A",29.5,77.5,100SHST2610/2656,Fibrex single-hung window,3,2,2,12,1,3,2
"29-1/2"" x 83-1/2""A",29.5,83.5,100SHST2610/2660,Fibrex single-hung window,3,2,2,12,1,3,2
"35-1/2"" x 47-1/2""A",35.5,47.5,100SHST3010/3030,Fibrex single-hung window,3,2,2,12,1,3,2
"35-1/2"" x 53-1/2""A",35.5,53.5,100SHST3010/3036,Fibrex single-hung window,3,2,2,12,1,3,2
"35-1/2"" x 59-1/2""A",35.5,59.5,100SHST3010/3040,Fibrex single-hung window,3,2,2,12,1,3,2
"35-1/2"" x 65-1/2""A",35.5,65.5,100SHST3010/3046,Fibrex single-hung window,3,2,2,12,1,3,2
"35-1/2"" x 71-1/2""A",35.5,71.5,100SHST3010/3050,Fibrex single-hung window,3,2,2,12,1,3,2
"35-1/2"" x 77-1/2""A",35.5,77.5,100SHST3010/3056,Fibrex single-hung window,3,2,2,12,1,3,2
"35-1/2"" x 83-1/2""A",35.5,83.5,100SHST3010/3060,Fibrex single-hung window,3,2,2,12,1,3,2
"41-1/2"" x 47-1/2""A",41.5,47.5,100SHST3610/3630,Fibrex single-hung window,4,2,2,12,1,4,2
"41-1/2"" x 53-1/2""A",41.5,53.5,100SHST3610/3636,Fibrex single-hung window,4,2,2,12,1,4,2
"41-1/2"" x 59-1/2""A",41.5,59.5,100SHST3610/3640,Fibrex single-hung window,4,2,2,12,1,4,2
"41-1/2"" x 65-1/2""A",41.5,65.5,100SHST3610/3646,Fibrex single-hung window,4,2,2,12,1,4,2
"41-1/2"" x 71-1/2""A",41.5,71.5,100SHST3610/3650,Fibrex single-hung window,4,2,2,12,1,4,2
"41-1/2"" x 77-1/2""A",41.5,77.5,100SHST3610/3656,Fibrex single-hung window,4,2,2,12,1,4,2
"41-1/2"" x 83-1/2""A",41.5,83.5,100SHST3610/3660,Fibrex single-hung window,4,2,2,12,1,4,2
"47-1/2"" x 47-1/2""A",47.5,47.5,100SHST4010/4030,Fibrex single-hung window,4,2,2,12,1,4,2
"47-1/2"" x 53-1/2""A",47.5,53.5,100SHST4010/4036,Fibrex single-hung window,4,2,2,12,1,4,2
"47-1/2"" x 59-1/2""A",47.5,59.5,100SHST4010/4040,Fibrex single-hung window,4,2,2,12,1,4,2
"47-1/2"" x 65-1/2""A",47.5,65.5,100SHST4010/4046,Fibrex single-hung window,4,2,2,12,1,4,2
"47-1/2"" x 71-1/2""A",47.5,71.5,100SHST4010/4050,Fibrex single-hung window,4,2,2,12,1,4,2
"47-1/2"" x 77-1/2""A",47.5,77.5,100SHST4010/4056,Fibrex single-hung window,4,2,2,12,1,4,2
"47-1/2"" x 83-1/2""A",47.5,83.5,100SHST4010/4060,Fibrex single-hung window,4,2,2,12,1,4,2
"17-1/2"" x 53-1/2""B",17.5,53.5,100SHST1616/1630,Fibrex single-hung window,2,2,2,18,2,2,2
"17-1/2"" x 59-1/2""B",17.5,59.5,100SHST1616/1636,Fibrex single-hung window,2,2,2,18,2,2,2
"17-1/2"" x 65-1/2""B",17.5,65.5,100SHST1616/1640,Fibrex single-hung window,2,2,2,18,2,2,2
"17-1/2"" x 71-1/2""B",17.5,71.5,100SHST1616/1646,Fibrex single-hung window,2,2,2,18,2,2,2
"17-1/2"" x 77-1/2""B",17.5,77.5,100SHST1616/1650,Fibrex single-hung window,2,2,2,18,2,2,2
"17-1/2"" x 83-1/2""B",17.5,83.5,100SHST1616/1656,Fibrex single-hung window,2,2,2,18,2,2,2
"17-1/2"" x 88-1/2""B",17.5,89.5,100SHST1616/1660,Fibrex single-hung window,2,2,2,18,2,2,2
"23-1/2"" x 53-1/2""B",23.5,53.5,100SHST2016/2030,Fibrex single-hung window,2,2,2,18,2,2,2
"23-1/2"" x 59-1/2""B",23.5,59.5,100SHST2016/2036,Fibrex single-hung window,2,2,2,18,2,2,2
"23-1/2"" x 65-1/2""B",23.5,65.5,100SHST2016/2040,Fibrex single-hung window,2,2,2,18,2,2,2
"23-1/2"" x 71-1/2""B",23.5,71.5,100SHST2016/2046,Fibrex single-hung window,2,2,2,18,2,2,2
"23-1/2"" x 77-1/2""B",23.5,77.5,100SHST2016/2050,Fibrex single-hung window,2,2,2,18,2,2,2
"23-1/2"" x 83-1/2""B",23.5,83.5,100SHST2016/2056,Fibrex single-hung window,2,2,2,18,2,2,2
"23-1/2"" x 89-1/2""B",23.5,89.5,100SHST2016/2060,Fibrex single-hung window,2,2,2,18,2,2,2
"29-1/2"" x 53-1/2""B",29.5,53.5,100SHST2616/2630,Fibrex single-hung window,3,2,2,18,2,3,2
"29-1/2"" x 59-1/2""B",29.5,59.5,100SHST2616/2636,Fibrex single-hung window,3,2,2,18,2,3,2
"29-1/2"" x 65-1/2""B",29.5,65.5,100SHST2616/2640,Fibrex single-hung window,3,2,2,18,2,3,2
"29-1/2"" x 71-1/2""B",29.5,71.5,100SHST2616/2646,Fibrex single-hung window,3,2,2,18,2,3,2
"29-1/2"" x 77-1/2""B",29.5,77.5,100SHST2616/2650,Fibrex single-hung window,3,2,2,18,2,3,2
"29-1/2"" x 83-1/2""B",29.5,83.5,100SHST2616/2656,Fibrex single-hung window,3,2,2,18,2,3,2
"29-1/2"" x 89-1/2""B",29.5,89.5,100SHST2616/2660,Fibrex single-hung window,3,2,2,18,2,3,2
"35-1/2"" x 53-1/2""B",35.5,53.5,100SHST3016/3030,Fibrex single-hung window,3,2,2,18,2,3,2
"35-1/2"" x 59-1/2""B",35.5,59.5,100SHST3016/3036,Fibrex single-hung window,3,2,2,18,2,3,2
"35-1/2"" x 65-1/2""B",35.5,65.5,100SHST3016/3040,Fibrex single-hung window,3,2,2,18,2,3,2
"35-1/2"" x 71-1/2""B",35.5,71.5,100SHST3016/3046,Fibrex single-hung window,3,2,2,18,2,3,2
"35-1/2"" x 77-1/2""B",35.5,77.5,100SHST3016/3050,Fibrex single-hung window,3,2,2,18,2,3,2
"35-1/2"" x 83-1/2""B",35.5,83.5,100SHST3016/3056,Fibrex single-hung window,3,2,2,18,2,3,2
"35-1/2"" x 89-1/2""B",35.5,89.5,100SHST3016/3060,Fibrex single-hung window,3,2,2,18,2,3,2
"41-1/2"" x 53-1/2""B",41.5,53.5,100SHST3616/3630,Fibrex single-hung window,4,2,2,18,2,4,2
"41-1/2"" x 59-1/2""B",41.5,59.5,100SHST3616/3636,Fibrex single-hung window,4,2,2,18,2,4,2
"41-1/2"" x 65-1/2""B",41.5,65.5,100SHST3616/3640,Fibrex single-hung window,4,2,2,18,2,4,2
"41-1/2"" x 71-1/2""B",41.5,71.5,100SHST3616/3646,Fibrex single-hung window,4,2,2,18,2,4,2
"41-1/2"" x 77-1/2""B",41.5,77.5,100SHST3616/3650,Fibrex single-hung window,4,2,2,18,2,4,2
"41-1/2"" x 83-1/2""B",41.5,83.5,100SHST3616/3656,Fibrex single-hung window,4,2,2,18,2,4,2
"41-1/2"" x 89-1/2""B",41.5,89.5,100SHST3616/3660,Fibrex single-hung window,4,2,2,18,2,4,2
"47-1/2"" x 53-1/2""B",47.5,53.5,100SHST4016/4030,Fibrex single-hung window,4,2,2,18,2,4,2
"47-1/2"" x 59-1/2""B",47.5,59.5,100SHST4016/4036,Fibrex single-hung window,4,2,2,18,2,4,2
"47-1/2"" x 65-1/2""B",47.5,65.5,100SHST4016/4040,Fibrex single-hung window,4,2,2,18,2,4,2
"47-1/2"" x 71-1/2""B",47.5,71.5,100SHST4016/4046,Fibrex single-hung window,4,2,2,18,2,4,2
"47-1/2"" x 77-1/2""B",47.5,77.5,100SHST4016/4050,Fibrex single-hung window,4,2,2,18,2,4,2
"47-1/2"" x 83-1/2""B",47.5,83.5,100SHST4016/4056,Fibrex single-hung window,4,2,2,18,2,4,2
"47-1/2"" x 89-1/2""B",47.5,89.5,100SHST4016/4060,Fibrex single-hung window,4,2,2,18,2,4,2
"17-1/2"" x 59-1/2""C",17.5,59.5,100SHST1620/1630,Fibrex single-hung window,2,2,2,24,2,2,2
"17-1/2"" x 65-1/2""C",17.5,65.5,100SHST1620/1636,Fibrex single-hung window,2,2,2,24,2,2,2
"17-1/2"" x 71-1/2""C",17.5,71.5,100SHST1620/1640,Fibrex single-hung window,2,2,2,24,2,2,2
"17-1/2"" x 77-1/2""C",17.5,77.5,100SHST1620/1646,Fibrex single-hung window,2,2,2,24,2,2,2
"17-1/2"" x 83-1/2""C",17.5,83.5,100SHST1620/1650,Fibrex single-hung window,2,2,2,24,2,2,2
"17-1/2"" x 89-1/2""C",17.5,89.5,100SHST1620/1656,Fibrex single-hung window,2,2,2,24,2,2,2
"17-1/2"" x 95-1/2""C",17.5,95.5,100SHST1620/1660,Fibrex single-hung window,2,2,2,24,2,2,2
"23-1/2"" x 59-1/2""C",23.5,59.5,100SHST2020/2030,Fibrex single-hung window,2,2,2,24,2,2,2
"23-1/2"" x 65-1/2""C",23.5,65.5,100SHST2020/2036,Fibrex single-hung window,2,2,2,24,2,2,2
"23-1/2"" x 71-1/2""C",23.5,71.5,100SHST2020/2040,Fibrex single-hung window,2,2,2,24,2,2,2
"23-1/2"" x 77-1/2""C",23.5,77.5,100SHST2020/2046,Fibrex single-hung window,2,2,2,24,2,2,2
"23-1/2"" x 83-1/2""C",23.5,83.5,100SHST2020/2050,Fibrex single-hung window,2,2,2,24,2,2,2
"23-1/2"" x 89-1/2""C",23.5,89.5,100SHST2020/2056,Fibrex single-hung window,2,2,2,24,2,2,2
"23-1/2"" x 95-1/2""C",23.5,95.5,100SHST2020/2060,Fibrex single-hung window,2,2,2,24,2,2,2
"29-1/2"" x 59-1/2""C",29.5,59.5,100SHST2620/2630,Fibrex single-hung window,3,2,2,24,2,3,2
"29-1/2"" x 65-1/2""C",29.5,65.5,100SHST2620/2636,Fibrex single-hung window,3,2,2,24,2,3,2
"29-1/2"" x 71-1/2""C",29.5,71.5,100SHST2620/2640,Fibrex single-hung window,3,2,2,24,2,3,2
"29-1/2"" x 77-1/2""C",29.5,77.5,100SHST2620/2646,Fibrex single-hung window,3,2,2,24,2,3,2
"29-1/2"" x 83-1/2""C",29.5,83.5,100SHST2620/2650,Fibrex single-hung window,3,2,2,24,2,3,2
"29-1/2"" x 89-1/2""C",29.5,89.5,100SHST2620/2656,Fibrex single-hung window,3,2,2,24,2,3,2
"29-1/2"" x 95-1/2""C",29.5,95.5,100SHST2620/2660,Fibrex single-hung window,3,2,2,24,2,3,2
"35-1/2"" x 59-1/2""C",35.5,59.5,100SHST3020/3030,Fibrex single-hung window,3,2,2,24,2,3,2
"35-1/2"" x 65-1/2""C",35.5,65.5,100SHST3020/3036,Fibrex single-hung window,3,2,2,24,2,3,2
"35-1/2"" x 71-1/2""C",35.5,71.5,100SHST3020/3040,Fibrex single-hung window,3,2,2,24,2,3,2
"35-1/2"" x 77-1/2""C",35.5,77.5,100SHST3020/3046,Fibrex single-hung window,3,2,2,24,2,3,2
"35-1/2"" x 83-1/2""C",35.5,83.5,100SHST3020/3050,Fibrex single-hung window,3,2,2,24,2,3,2
"35-1/2"" x 89-1/2""C",35.5,89.5,100SHST3020/3056,Fibrex single-hung window,3,2,2,24,2,3,2
"35-1/2"" x 95-1/2""C",35.5,95.5,100SHST3020/3060,Fibrex single-hung window,3,2,2,24,2,3,2
"41-1/2"" x 59-1/2""C",41.5,59.5,100SHST3620/3630,Fibrex single-hung window,4,2,2,24,2,4,2
"41-1/2"" x 65-1/2""C",41.5,65.5,100SHST3620/3636,Fibrex single-hung window,4,2,2,24,2,4,2
"41-1/2"" x 71-1/2""C",41.5,71.5,100SHST3620/3640,Fibrex single-hung window,4,2,2,24,2,4,2
"41-1/2"" x 77-1/2""C",41.5,77.5,100SHST3620/3646,Fibrex single-hung window,4,2,2,24,2,4,2
"41-1/2"" x 83-1/2""C",41.5,83.5,100SHST3620/3650,Fibrex single-hung window,4,2,2,24,2,4,2
"41-1/2"" x 89-1/2""C",41.5,89.5,100SHST3620/3656,Fibrex single-hung window,4,2,2,24,2,4,2
"41-1/2"" x 95-1/2""C",41.5,95.5,100SHST3620/3660,Fibrex single-hung window,4,2,2,24,2,4,2
"47-1/2"" x 59-1/2""C",47.5,59.5,100SHST4020/4030,Fibrex single-hung window,4,2,2,24,2,4,2
"47-1/2"" x 65-1/2""C",47.5,65.5,100SHST4020/4036,Fibrex single-hung window,4,2,2,24,2,4,2
"47-1/2"" x 71-1/2""C",47.5,71.5,100SHST4020/4040,Fibrex single-hung window,4,2,2,24,2,4,2
"47-1/2"" x 77-1/2""C",47.5,77.5,100SHST4020/4046,Fibrex single-hung window,4,2,2,24,2,4,2
"47-1/2"" x 83-1/2""C",47.5,83.5,100SHST4020/4050,Fibrex single-hung window,4,2,2,24,2,4,2
"47-1/2"" x 89-1/2""C",47.5,89.5,100SHST4020/4056,Fibrex single-hung window,4,2,2,24,2,4,2
"47-1/2"" x 95-1/2""C",47.5,95.5,100SHST4020/4060,Fibrex single-hung window,4,2,2,24,2,4,2
