,Width##LENGTH##INCHES,Height##LENGTH##INCHES,Designation##OTHER##,Type Comments##OTHER##,. . Lights Wide##OTHER##,. . Lights High##OTHER##,Fractional Lights Wide##OTHER##,Fractional Lights High##OTHER##
"35-1/2"" x 11-1/2""",35.5,11.5,100TD1610-2,Fibrex fixed transom window,2,1,2,1
"35-1/2"" x 17-1/2""",35.5,17.5,100TD1616-2,Fibrex fixed transom window,2,2,2,2
"35-1/2"" x 23-1/2""",35.5,23.5,100TD1620-2,Fibrex fixed transom window,2,2,2,2
"41-1/2"" x 11-1/2""",41.5,11.5,100TD1910-2,Fibrex fixed transom window,2,1,2,1
"41-1/2"" x 17-1/2""",41.5,17.5,100TD1916-2,Fibrex fixed transom window,2,2,2,2
"41-1/2"" x 23-1/2""",41.5,23.5,100TD1920-2,Fibrex fixed transom window,2,2,2,2
"47-1/2"" x 11-1/2""",47.5,11.5,100TD2010-2,Fibrex fixed transom window,2,1,2,1
"47-1/2"" x 17-1/2""",47.5,17.5,100TD2016-2,Fibrex fixed transom window,2,2,2,2
"47-1/2"" x 23-1/2""",47.5,23.5,100TD2020-2,Fibrex fixed transom window,2,2,2,2
"53-1/2"" x 11-1/2""",53.5,11.5,100TD2310-2,Fibrex fixed transom window,3,1,3,1
"53-1/2"" x 17-1/2""",53.5,17.5,100TD2316-2,Fibrex fixed transom window,3,2,3,2
"53-1/2"" x 23-1/2""",53.5,23.5,100TD2320-2,Fibrex fixed transom window,3,2,3,2
"59-1/2"" x 11-1/2""",59.5,11.5,100TD2610-2,Fibrex fixed transom window,3,1,3,1
"59-1/2"" x 17-1/2""",59.5,17.5,100TD2616-2,Fibrex fixed transom window,3,2,3,2
"59-1/2"" x 23-1/2""",59.5,23.5,100TD2620-2,Fibrex fixed transom window,3,2,3,2
"65-1/2"" x 11-1/2""",65.5,11.5,100TD2910-2,Fibrex fixed transom window,3,1,3,1
"65-1/2"" x 17-1/2""",65.5,17.5,100TD2916-2,Fibrex fixed transom window,3,2,3,2
"65-1/2"" x 23-1/2""",65.5,23.5,100TD2920-2,Fibrex fixed transom window,3,2,3,2
"71-1/2"" x 11-1/2""",71.5,11.5,100TD3010-2,Fibrex fixed transom window,3,1,3,1
"71-1/2"" x 17-1/2""",71.5,17.5,100TD3016-2,Fibrex fixed transom window,3,2,3,2
"71-1/2"" x 23-1/2""",71.5,23.5,100TD3020-2,Fibrex fixed transom window,3,2,3,2
"83-1/2"" x 11-1/2""",83.5,11.5,100TD3610-2,Fibrex fixed transom window,4,1,4,1
"83-1/2"" x 17-1/2""",83.5,17.5,100TD3616-2,Fibrex fixed transom window,4,2,4,2
"83-1/2"" x 23-1/2""",83.5,23.5,100TD3620-2,Fibrex fixed transom window,4,2,4,2
"95-1/2"" x 11-1/2""",95.5,11.5,100TD4010-2,Fibrex fixed transom window,4,1,4,1
"95-1/2"" x 17-1/2""",95.5,17.5,100TD4016-2,Fibrex fixed transom window,4,2,4,2
"95-1/2"" x 23-1/2""",95.5,23.5,100TD4020-2,Fibrex fixed transom window,4,2,4,2
