<?xml version="1.0" encoding="UTF-8" standalone="no"?>
<svg
   id="root"
   version="1.1"
   width="863.59998mm"
   height="558.79999mm"
   viewBox="0 0 863.59998 558.79999"
   sodipodi:docname="A101 - SITE PLAN.svg"
   inkscape:version="1.3 (0e150ed6c4, 2023-07-21)"
   xmlns:inkscape="http://www.inkscape.org/namespaces/inkscape"
   xmlns:sodipodi="http://sodipodi.sourceforge.net/DTD/sodipodi-0.dtd"
   xmlns:xlink="http://www.w3.org/1999/xlink"
   xmlns="http://www.w3.org/2000/svg"
   xmlns:svg="http://www.w3.org/2000/svg">
  <defs
     id="defs11" />
  <sodipodi:namedview
     id="namedview11"
     pagecolor="#505050"
     bordercolor="#ffffff"
     borderopacity="1"
     inkscape:showpageshadow="0"
     inkscape:pageopacity="0"
     inkscape:pagecheckerboard="1"
     inkscape:deskcolor="#d1d1d1"
     inkscape:document-units="mm"
     showgrid="false"
     inkscape:zoom="0.25086694"
     inkscape:cx="1710.0699"
     inkscape:cy="966.6479"
     inkscape:window-width="1920"
     inkscape:window-height="1017"
     inkscape:window-x="1912"
     inkscape:window-y="-8"
     inkscape:window-maximized="1"
     inkscape:current-layer="root" />
  <g
     data-type="titleblock"
     id="g1"
     sodipodi:insensitive="true">
    <image
       xlink:href="titleblocks%5C22x34.svg"
       x="0"
       y="0"
       width="863.59998"
       height="558.79999"
       id="image1" />
  </g>
  <g
     data-type="drawing"
     data-id="3140714"
     data-drawing="0LC1gDzBfC4vvBweE1IdQO"
     id="g3"
     transform="translate(90.315619,223.37415)">
    <image
       data-type="foreground"
       xlink:href="..%5Cdrawings%5CSITE%20PLAN_LL.svg"
       x="-16.69895015064485"
       y="30.03373222710435"
       width="348.60630830128986"
       height="162.6151875457912"
       id="image2" />
    <image
       data-type="view-title"
       xlink:href="assets%5Cview-title.svg"
       x="-5.8596845"
       y="392.25513"
       width="125"
       height="10"
       id="image3" />
  </g>
  <g
     data-type="drawing"
     data-id="3140716"
     data-drawing="2A2e9ssAX0rguUGf3IR4GG"
     id="g5"
     transform="translate(320.8276,207.47274)">
    <image
       data-type="foreground"
       xlink:href="..%5Cdrawings%5CSITE%20PLAN_LR.svg"
       x="100.70993"
       y="30.028749"
       width="358.05942"
       height="178.52158"
       id="image4" />
    <image
       data-type="view-title"
       xlink:href="assets%5Cview-title.svg"
       x="-76.855858"
       y="415.05771"
       width="125"
       height="10"
       id="image5" />
  </g>
  <g
     data-type="drawing"
     data-id="3140717"
     data-drawing="0m$QZi6VXAfgEeBRCFcMEq"
     id="g7"
     transform="translate(11.703871,-35.221985)">
    <image
       data-type="foreground"
       xlink:href="..%5Cdrawings%5CSITE%20PLAN_UL.svg"
       x="30.00001"
       y="60.666801"
       width="499.47922"
       height="230.42461"
       id="image6" />
    <image
       data-type="view-title"
       xlink:href="assets%5Cview-title.svg"
       x="113.61764"
       y="604.05676"
       width="125"
       height="10"
       id="image7" />
  </g>
  <g
     data-type="drawing"
     data-id="3140718"
     data-drawing="1RUPNT2RHBivQt3qpG26hM"
     id="g9"
     transform="translate(503.9543,-6.0588999)">
    <image
       data-type="foreground"
       xlink:href="..%5Cdrawings%5CSITE%20PLAN_UR.svg"
       x="29.999996"
       y="44.40419"
       width="255.20839"
       height="213.52097"
       id="image8" />
    <image
       data-type="view-title"
       xlink:href="assets%5Cview-title.svg"
       x="-109.21723"
       y="566.91455"
       width="125"
       height="10"
       id="image9" />
  </g>
  <g
     data-type="drawing"
     data-id="3140719"
     data-drawing="0dMuadD7LC2hFbndHjQwTi"
     id="g11"
     transform="translate(116.95595,33.76657)">
    <image
       data-type="foreground"
       xlink:href="..%5Cdrawings%5CSITE%20PLAN_OVERALL.svg"
       x="30.00001569302369"
       y="30.0501364184502"
       width="569.7916746139526"
       height="357.72889916309987"
       id="image10" />
    <image
       data-type="view-title"
       xlink:href="assets%5Cview-title.svg"
       x="-32.50001569302369"
       y="390.4060045815498"
       width="125"
       height="10"
       id="image11" />
  </g>
  <g
     data-type="drawing"
     data-id="3141496"
     data-drawing="1JrmmPARf5HPYhaO3c53NF"
     id="g13"
     transform="translate(145.34238,372.25769)">
    <image
       data-type="foreground"
       xlink:href="..%5Cdrawings%5CELEVATION%20-%20EAST%20-%20OVERALL.svg"
       x="29.999983"
       y="29.999996"
       width="521.16351"
       height="129.78259"
       id="image12" />
    <image
       data-type="view-title"
       xlink:href="assets%5Cview-title.svg"
       x="42.47913"
       y="111.83303"
       width="125"
       height="10"
       id="image13" />
  </g>
</svg>
