<svg xmlns="http://www.w3.org/2000/svg" xmlns:inkscape="http://www.inkscape.org/namespaces/inkscape" xmlns:ns3="http://www.w3.org/1999/xlink" xmlns:sodipodi="http://sodipodi.sourceforge.net/DTD/sodipodi-0.dtd" id="root" version="1.1" width="863.59998mm" height="558.79999mm" viewBox="0 0 863.59998 558.79999" sodipodi:docname="A750 - ADA DETAILS.svg" inkscape:version="1.3 (0e150ed6c4, 2023-07-21)">
  <defs id="defs15" />
  <sodipodi:namedview id="namedview15" pagecolor="#505050" bordercolor="#ffffff" borderopacity="1" inkscape:showpageshadow="0" inkscape:pageopacity="0" inkscape:pagecheckerboard="1" inkscape:deskcolor="#d1d1d1" inkscape:document-units="mm" showgrid="false" inkscape:zoom="0.54974875" inkscape:cx="2359.2596" inkscape:cy="1314.2367" inkscape:window-width="1920" inkscape:window-height="1017" inkscape:window-x="1912" inkscape:window-y="-8" inkscape:window-maximized="1" inkscape:current-layer="root" />
  <g data-type="titleblock" id="g1" sodipodi:insensitive="true">
    <image ns3:href="titleblocks%5C22x34.svg" x="0" y="0" width="863.59998" height="558.79999" id="image1" />
  </g>
  </svg>