<?xml version="1.0" encoding="utf-8" ?>
<svg xmlns="http://www.w3.org/2000/svg" xmlns:ev="http://www.w3.org/2001/xml-events" xmlns:ifc="http://www.ifcopenshell.org/ns" xmlns:xlink="http://www.w3.org/1999/xlink" baseProfile="full" data-scale="1/2&quot;=1'-0&quot;" height="4929.168065388997mm" id="root" version="1.1" viewBox="0 0 2637.1049149831138 4929.168065388997" width="2637.1049149831138mm">
  <defs/>
  <line class="GlobalId-3KiRF3APb4rvFFs3P46$kw IfcAnnotation PredefinedType-LEADERS" x1="14342.2744140625" x2="14343.9521484375" y1="6719.9365234375" y2="6722.76318359375"/>
  <line class="GlobalId-3KiRF3APb4rvFFs3P46$kw IfcAnnotation PredefinedType-LEADERS" x1="14343.9521484375" x2="14342.314453125" y1="6722.76318359375" y2="6723.2236328125"/>
  <line class="GlobalId-3KiRF3APb4rvFFs3P46$kw IfcAnnotation PredefinedType-LEADERS" x1="14342.314453125" x2="14342.2744140625" y1="6723.2236328125" y2="6719.9365234375"/>
  <line class="GlobalId-3KiRF3APb4rvFFs3P46$kw IfcAnnotation PredefinedType-LEADERS" x1="14342.2744140625" x2="14361.275390625" y1="6719.9365234375" y2="6787.5166015625"/>
  <line class="GlobalId-3KiRF3APb4rvFFs3P46$kw IfcAnnotation PredefinedType-LEADERS" x1="14361.275390625" x2="14364.2255859375" y1="6787.5166015625" y2="6787.5166015625"/>
  <line class="GlobalId-3KiRF3APb4rvFFs3P46$kw IfcAnnotation PredefinedType-LEADERS" x1="14756.4765625" x2="14759.857421875" y1="6875.5556640625" y2="6875.5556640625"/>
  <line class="GlobalId-3KiRF3APb4rvFFs3P46$kw IfcAnnotation PredefinedType-LEADERS" x1="14759.857421875" x2="14774.65625" y1="6875.5556640625" y2="6884.09716796875"/>
  <line class="GlobalId-3KiRF3APb4rvFFs3P46$kw IfcAnnotation PredefinedType-LEADERS" x1="14774.65625" x2="14771.4794921875" y1="6884.09716796875" y2="6883.24609375"/>
  <line class="GlobalId-3KiRF3APb4rvFFs3P46$kw IfcAnnotation PredefinedType-LEADERS" x1="14771.4794921875" x2="14772.330078125" y1="6883.24609375" y2="6881.7724609375"/>
  <line class="GlobalId-3KiRF3APb4rvFFs3P46$kw IfcAnnotation PredefinedType-LEADERS" x1="14772.330078125" x2="14774.65625" y1="6881.7724609375" y2="6884.09716796875"/>
  <line class="GlobalId-3KiRF3APb4rvFFs3P46$kw IfcAnnotation PredefinedType-LEADERS" x1="13826.78515625" x2="13831.8359375" y1="6540.71337890625" y2="6540.71337890625"/>
  <line class="GlobalId-3KiRF3APb4rvFFs3P46$kw IfcAnnotation PredefinedType-LEADERS" x1="13831.8359375" x2="13834.724609375" y1="6540.71337890625" y2="6556.11572265625"/>
  <line class="GlobalId-3KiRF3APb4rvFFs3P46$kw IfcAnnotation PredefinedType-LEADERS" x1="13834.724609375" x2="13834.9755859375" y1="6556.11572265625" y2="6552.8388671875"/>
  <line class="GlobalId-3KiRF3APb4rvFFs3P46$kw IfcAnnotation PredefinedType-LEADERS" x1="13834.9755859375" x2="13833.3037109375" y1="6552.8388671875" y2="6553.15234375"/>
  <line class="GlobalId-3KiRF3APb4rvFFs3P46$kw IfcAnnotation PredefinedType-LEADERS" x1="13833.3037109375" x2="13834.724609375" y1="6553.15234375" y2="6556.11572265625"/>
  <line class="GlobalId-3KiRF3APb4rvFFs3P46$kw IfcAnnotation PredefinedType-LEADERS" x1="13827.66015625" x2="13830.4853515625" y1="6584.48681640625" y2="6582.80908203125"/>
  <line class="GlobalId-3KiRF3APb4rvFFs3P46$kw IfcAnnotation PredefinedType-LEADERS" x1="13830.4853515625" x2="13828.8779296875" y1="6582.80908203125" y2="6585.67431640625"/>
  <line class="GlobalId-3KiRF3APb4rvFFs3P46$kw IfcAnnotation PredefinedType-LEADERS" x1="13828.8779296875" x2="13827.66015625" y1="6585.67431640625" y2="6584.48681640625"/>
  <line class="GlobalId-3KiRF3APb4rvFFs3P46$kw IfcAnnotation PredefinedType-LEADERS" x1="13867.076171875" x2="13866.962890625" y1="7863.57275390625" y2="7860.287109375"/>
  <line class="GlobalId-3KiRF3APb4rvFFs3P46$kw IfcAnnotation PredefinedType-LEADERS" x1="13866.962890625" x2="13865.41796875" y1="7860.287109375" y2="7863.1884765625"/>
  <line class="GlobalId-3KiRF3APb4rvFFs3P46$kw IfcAnnotation PredefinedType-LEADERS" x1="13865.41796875" x2="13867.076171875" y1="7863.1884765625" y2="7863.57275390625"/>
  <line class="GlobalId-3KiRF3APb4rvFFs3P46$kw IfcAnnotation PredefinedType-LEADERS" x1="14624.052734375" x2="14622.427734375" y1="6555.9287109375" y2="6553.07177734375"/>
  <line class="GlobalId-3KiRF3APb4rvFFs3P46$kw IfcAnnotation PredefinedType-LEADERS" x1="14622.427734375" x2="14621.2177734375" y1="6553.07177734375" y2="6554.26611328125"/>
  <line class="GlobalId-3KiRF3APb4rvFFs3P46$kw IfcAnnotation PredefinedType-LEADERS" x1="14621.2177734375" x2="14624.052734375" y1="6554.26611328125" y2="6555.9287109375"/>
  <line class="GlobalId-3KiRF3APb4rvFFs3P46$kw IfcAnnotation PredefinedType-LEADERS" x1="14624.052734375" x2="14610.083984375" y1="6555.9287109375" y2="6541.7734375"/>
  <line class="GlobalId-3KiRF3APb4rvFFs3P46$kw IfcAnnotation PredefinedType-LEADERS" x1="14610.083984375" x2="14622.75" y1="6541.7734375" y2="6567.23828125"/>
  <line class="GlobalId-3KiRF3APb4rvFFs3P46$kw IfcAnnotation PredefinedType-LEADERS" x1="14622.75" x2="14620.57421875" y1="6567.23828125" y2="6564.7744140625"/>
  <line class="GlobalId-3KiRF3APb4rvFFs3P46$kw IfcAnnotation PredefinedType-LEADERS" x1="14620.57421875" x2="14622.09765625" y1="6564.7744140625" y2="6564.0166015625"/>
  <line class="GlobalId-3KiRF3APb4rvFFs3P46$kw IfcAnnotation PredefinedType-LEADERS" x1="14622.09765625" x2="14622.75" y1="6564.0166015625" y2="6567.23828125"/>
  <line class="GlobalId-3KiRF3APb4rvFFs3P46$kw IfcAnnotation PredefinedType-LEADERS" x1="13831.931640625" x2="13834.833984375" y1="6519.76806640625" y2="6521.3115234375"/>
  <line class="GlobalId-3KiRF3APb4rvFFs3P46$kw IfcAnnotation PredefinedType-LEADERS" x1="13834.833984375" x2="13831.5498046875" y1="6521.3115234375" y2="6521.42529296875"/>
  <line class="GlobalId-3KiRF3APb4rvFFs3P46$kw IfcAnnotation PredefinedType-LEADERS" x1="13831.5498046875" x2="13831.931640625" y1="6521.42529296875" y2="6519.76806640625"/>
  <line class="GlobalId-3KiRF3APb4rvFFs3P46$kw IfcAnnotation PredefinedType-LEADERS" x1="13833.3037109375" x2="13834.724609375" y1="6197.5517578125" y2="6200.5146484375"/>
  <line class="GlobalId-3KiRF3APb4rvFFs3P46$kw IfcAnnotation PredefinedType-LEADERS" x1="13834.724609375" x2="13834.9755859375" y1="6200.5146484375" y2="6197.23779296875"/>
  <line class="GlobalId-3KiRF3APb4rvFFs3P46$kw IfcAnnotation PredefinedType-LEADERS" x1="13834.9755859375" x2="13833.3037109375" y1="6197.23779296875" y2="6197.5517578125"/>
  <line class="GlobalId-3KiRF3APb4rvFFs3P46$kw IfcAnnotation PredefinedType-LEADERS" x1="13696.283203125" x2="13691.6630859375" y1="7834.68896484375" y2="7834.6904296875"/>
  <line class="GlobalId-3KiRF3APb4rvFFs3P46$kw IfcAnnotation PredefinedType-LEADERS" x1="13691.6630859375" x2="13647.3447265625" y1="7834.6904296875" y2="7863.29541015625"/>
  <line class="GlobalId-3KiRF3APb4rvFFs3P46$kw IfcAnnotation PredefinedType-LEADERS" x1="13647.3447265625" x2="13649.55078125" y1="7863.29541015625" y2="7860.859375"/>
  <line class="GlobalId-3KiRF3APb4rvFFs3P46$kw IfcAnnotation PredefinedType-LEADERS" x1="13649.55078125" x2="13650.4736328125" y1="7860.859375" y2="7862.28857421875"/>
  <line class="GlobalId-3KiRF3APb4rvFFs3P46$kw IfcAnnotation PredefinedType-LEADERS" x1="13650.4736328125" x2="13647.3447265625" y1="7862.28857421875" y2="7863.29541015625"/>
  <line class="GlobalId-3KiRF3APb4rvFFs3P46$kw IfcAnnotation PredefinedType-LEADERS" x1="14170.365234375" x2="14167.56640625" y1="6161.3154296875" y2="6163.041015625"/>
  <line class="GlobalId-3KiRF3APb4rvFFs3P46$kw IfcAnnotation PredefinedType-LEADERS" x1="14167.56640625" x2="14169.1279296875" y1="6163.041015625" y2="6160.1474609375"/>
  <line class="GlobalId-3KiRF3APb4rvFFs3P46$kw IfcAnnotation PredefinedType-LEADERS" x1="14169.1279296875" x2="14170.365234375" y1="6160.1474609375" y2="6161.3154296875"/>
  <line class="GlobalId-3KiRF3APb4rvFFs3P46$kw IfcAnnotation PredefinedType-LEADERS" x1="13670.1484375" x2="13676.1962890625" y1="6514.65625" y2="6514.65625"/>
  <line class="GlobalId-3KiRF3APb4rvFFs3P46$kw IfcAnnotation PredefinedType-LEADERS" x1="13676.1962890625" x2="13716.5458984375" y1="6514.65625" y2="6565.5126953125"/>
  <line class="GlobalId-3KiRF3APb4rvFFs3P46$kw IfcAnnotation PredefinedType-LEADERS" x1="13716.5458984375" x2="13715.23828125" y1="6565.5126953125" y2="6562.49658203125"/>
  <line class="GlobalId-3KiRF3APb4rvFFs3P46$kw IfcAnnotation PredefinedType-LEADERS" x1="13715.23828125" x2="13713.9052734375" y1="6562.49658203125" y2="6563.55419921875"/>
  <line class="GlobalId-3KiRF3APb4rvFFs3P46$kw IfcAnnotation PredefinedType-LEADERS" x1="13713.9052734375" x2="13716.5458984375" y1="6563.55419921875" y2="6565.5126953125"/>
  <line class="GlobalId-3KiRF3APb4rvFFs3P46$kw IfcAnnotation PredefinedType-LEADERS" x1="13687.6513671875" x2="13684.51953125" y1="7862.26025390625" y2="7863.2587890625"/>
  <line class="GlobalId-3KiRF3APb4rvFFs3P46$kw IfcAnnotation PredefinedType-LEADERS" x1="13684.51953125" x2="13686.7333984375" y1="7863.2587890625" y2="7860.82861328125"/>
  <line class="GlobalId-3KiRF3APb4rvFFs3P46$kw IfcAnnotation PredefinedType-LEADERS" x1="13686.7333984375" x2="13687.6513671875" y1="7860.82861328125" y2="7862.26025390625"/>
  <line class="GlobalId-3KiRF3APb4rvFFs3P46$kw IfcAnnotation PredefinedType-LEADERS" x1="14322.9404296875" x2="14326.3232421875" y1="6371.2568359375" y2="6371.2568359375"/>
  <line class="GlobalId-3KiRF3APb4rvFFs3P46$kw IfcAnnotation PredefinedType-LEADERS" x1="14326.3232421875" x2="14337.0166015625" y1="6371.2568359375" y2="6339.6640625"/>
  <line class="GlobalId-3KiRF3APb4rvFFs3P46$kw IfcAnnotation PredefinedType-LEADERS" x1="14337.0166015625" x2="14335.1923828125" y1="6339.6640625" y2="6342.3984375"/>
  <line class="GlobalId-3KiRF3APb4rvFFs3P46$kw IfcAnnotation PredefinedType-LEADERS" x1="14335.1923828125" x2="14336.8037109375" y1="6342.3984375" y2="6342.94384765625"/>
  <line class="GlobalId-3KiRF3APb4rvFFs3P46$kw IfcAnnotation PredefinedType-LEADERS" x1="14336.8037109375" x2="14337.0166015625" y1="6342.94384765625" y2="6339.6640625"/>
  <line class="GlobalId-3KiRF3APb4rvFFs3P46$kw IfcAnnotation PredefinedType-LEADERS" x1="13984.9501953125" x2="13988.3310546875" y1="6878.2021484375" y2="6878.2021484375"/>
  <line class="GlobalId-3KiRF3APb4rvFFs3P46$kw IfcAnnotation PredefinedType-LEADERS" x1="13988.3310546875" x2="14006.80859375" y1="6878.2021484375" y2="6909.01708984375"/>
  <line class="GlobalId-3KiRF3APb4rvFFs3P46$kw IfcAnnotation PredefinedType-LEADERS" x1="14006.80859375" x2="14005.904296875" y1="6909.01708984375" y2="6905.8564453125"/>
  <line class="GlobalId-3KiRF3APb4rvFFs3P46$kw IfcAnnotation PredefinedType-LEADERS" x1="14005.904296875" x2="14004.4462890625" y1="6905.8564453125" y2="6906.7314453125"/>
  <line class="GlobalId-3KiRF3APb4rvFFs3P46$kw IfcAnnotation PredefinedType-LEADERS" x1="14004.4462890625" x2="14006.80859375" y1="6906.7314453125" y2="6909.01708984375"/>
  <line class="GlobalId-3KiRF3APb4rvFFs3P46$kw IfcAnnotation PredefinedType-LEADERS" x1="13663.412109375" x2="13660.3427734375" y1="7862.09130859375" y2="7863.2685546875"/>
  <line class="GlobalId-3KiRF3APb4rvFFs3P46$kw IfcAnnotation PredefinedType-LEADERS" x1="13660.3427734375" x2="13662.412109375" y1="7863.2685546875" y2="7860.71435546875"/>
  <line class="GlobalId-3KiRF3APb4rvFFs3P46$kw IfcAnnotation PredefinedType-LEADERS" x1="13662.412109375" x2="13663.412109375" y1="7860.71435546875" y2="7862.09130859375"/>
  <line class="GlobalId-3KiRF3APb4rvFFs3P46$kw IfcAnnotation PredefinedType-LEADERS" x1="14642.1767578125" x2="14645.5576171875" y1="6886.66943359375" y2="6886.66943359375"/>
  <line class="GlobalId-3KiRF3APb4rvFFs3P46$kw IfcAnnotation PredefinedType-LEADERS" x1="14645.5576171875" x2="14661.4169921875" y1="6886.66943359375" y2="6911.89111328125"/>
  <line class="GlobalId-3KiRF3APb4rvFFs3P46$kw IfcAnnotation PredefinedType-LEADERS" x1="14661.4169921875" x2="14660.4453125" y1="6911.89111328125" y2="6908.75"/>
  <line class="GlobalId-3KiRF3APb4rvFFs3P46$kw IfcAnnotation PredefinedType-LEADERS" x1="14660.4453125" x2="14659.005859375" y1="6908.75" y2="6909.6552734375"/>
  <line class="GlobalId-3KiRF3APb4rvFFs3P46$kw IfcAnnotation PredefinedType-LEADERS" x1="14659.005859375" x2="14661.4169921875" y1="6909.6552734375" y2="6911.89111328125"/>
  <line class="GlobalId-3KiRF3APb4rvFFs3P46$kw IfcAnnotation PredefinedType-LEADERS" x1="14336.0498046875" x2="14335.4208984375" y1="7051.00146484375" y2="7054.22802734375"/>
  <line class="GlobalId-3KiRF3APb4rvFFs3P46$kw IfcAnnotation PredefinedType-LEADERS" x1="14335.4208984375" x2="14337.1181640625" y1="7054.22802734375" y2="7054.1103515625"/>
  <line class="GlobalId-3KiRF3APb4rvFFs3P46$kw IfcAnnotation PredefinedType-LEADERS" x1="14337.1181640625" x2="14336.0498046875" y1="7054.1103515625" y2="7051.00146484375"/>
  <line class="GlobalId-3KiRF3APb4rvFFs3P46$kw IfcAnnotation PredefinedType-LEADERS" x1="14336.0498046875" x2="14341.2861328125" y1="7051.00146484375" y2="7126.45751953125"/>
  <line class="GlobalId-3KiRF3APb4rvFFs3P46$kw IfcAnnotation PredefinedType-LEADERS" x1="14341.2861328125" x2="14337.9033203125" y1="7126.45751953125" y2="7126.45751953125"/>
  <line class="GlobalId-3KiRF3APb4rvFFs3P46$kw IfcAnnotation PredefinedType-LEADERS" x1="14321.056640625" x2="14324.439453125" y1="6296.64892578125" y2="6296.64892578125"/>
  <line class="GlobalId-3KiRF3APb4rvFFs3P46$kw IfcAnnotation PredefinedType-LEADERS" x1="14324.439453125" x2="14337.7109375" y1="6296.64892578125" y2="6305.8564453125"/>
  <line class="GlobalId-3KiRF3APb4rvFFs3P46$kw IfcAnnotation PredefinedType-LEADERS" x1="14337.7109375" x2="14335.5869140625" y1="6305.8564453125" y2="6303.34765625"/>
  <line class="GlobalId-3KiRF3APb4rvFFs3P46$kw IfcAnnotation PredefinedType-LEADERS" x1="14335.5869140625" x2="14334.6171875" y1="6303.34765625" y2="6304.7451171875"/>
  <line class="GlobalId-3KiRF3APb4rvFFs3P46$kw IfcAnnotation PredefinedType-LEADERS" x1="14334.6171875" x2="14337.7109375" y1="6304.7451171875" y2="6305.8564453125"/>
  <line class="GlobalId-3KiRF3APb4rvFFs3P46$kw IfcAnnotation PredefinedType-LEADERS" x1="13951.9921875" x2="13955.375" y1="6515.57177734375" y2="6515.57177734375"/>
  <line class="GlobalId-3KiRF3APb4rvFFs3P46$kw IfcAnnotation PredefinedType-LEADERS" x1="13955.375" x2="13979.6962890625" y1="6515.57177734375" y2="6530.34228515625"/>
  <line class="GlobalId-3KiRF3APb4rvFFs3P46$kw IfcAnnotation PredefinedType-LEADERS" x1="13979.6962890625" x2="13977.4248046875" y1="6530.34228515625" y2="6527.9677734375"/>
  <line class="GlobalId-3KiRF3APb4rvFFs3P46$kw IfcAnnotation PredefinedType-LEADERS" x1="13977.4248046875" x2="13976.541015625" y1="6527.9677734375" y2="6529.421875"/>
  <line class="GlobalId-3KiRF3APb4rvFFs3P46$kw IfcAnnotation PredefinedType-LEADERS" x1="13976.541015625" x2="13979.6962890625" y1="6529.421875" y2="6530.34228515625"/>
  <line class="GlobalId-3KiRF3APb4rvFFs3P46$kw IfcAnnotation PredefinedType-LEADERS" x1="14128.3740234375" x2="14131.755859375" y1="6218.9970703125" y2="6218.9970703125"/>
  <line class="GlobalId-3KiRF3APb4rvFFs3P46$kw IfcAnnotation PredefinedType-LEADERS" x1="14131.755859375" x2="14150.232421875" y1="6218.9970703125" y2="6201.66796875"/>
  <line class="GlobalId-3KiRF3APb4rvFFs3P46$kw IfcAnnotation PredefinedType-LEADERS" x1="14150.232421875" x2="14147.333984375" y1="6201.66796875" y2="6203.21923828125"/>
  <line class="GlobalId-3KiRF3APb4rvFFs3P46$kw IfcAnnotation PredefinedType-LEADERS" x1="14147.333984375" x2="14148.498046875" y1="6203.21923828125" y2="6204.46044921875"/>
  <line class="GlobalId-3KiRF3APb4rvFFs3P46$kw IfcAnnotation PredefinedType-LEADERS" x1="14148.498046875" x2="14150.232421875" y1="6204.46044921875" y2="6201.66796875"/>
  <line class="GlobalId-3KiRF3APb4rvFFs3P46$kw IfcAnnotation PredefinedType-LEADERS" x1="13660.8876953125" x2="13657.9375" y1="7803.5751953125" y2="7805.02587890625"/>
  <line class="GlobalId-3KiRF3APb4rvFFs3P46$kw IfcAnnotation PredefinedType-LEADERS" x1="13657.9375" x2="13659.767578125" y1="7805.02587890625" y2="7802.29443359375"/>
  <line class="GlobalId-3KiRF3APb4rvFFs3P46$kw IfcAnnotation PredefinedType-LEADERS" x1="13659.767578125" x2="13660.8876953125" y1="7802.29443359375" y2="7803.5751953125"/>
  <line class="GlobalId-3KiRF3APb4rvFFs3P46$kw IfcAnnotation PredefinedType-LEADERS" x1="14145.6884765625" x2="14143.013671875" y1="6202.095703125" y2="6204.0048828125"/>
  <line class="GlobalId-3KiRF3APb4rvFFs3P46$kw IfcAnnotation PredefinedType-LEADERS" x1="14143.013671875" x2="14144.326171875" y1="6204.0048828125" y2="6205.08740234375"/>
  <line class="GlobalId-3KiRF3APb4rvFFs3P46$kw IfcAnnotation PredefinedType-LEADERS" x1="14144.326171875" x2="14145.6884765625" y1="6205.08740234375" y2="6202.095703125"/>
  <line class="GlobalId-3KiRF3APb4rvFFs3P46$kw IfcAnnotation PredefinedType-LEADERS" x1="14145.6884765625" x2="14131.755859375" y1="6202.095703125" y2="6218.9970703125"/>
  <line class="GlobalId-3KiRF3APb4rvFFs3P46$kw IfcAnnotation PredefinedType-LEADERS" x1="14812.8427734375" x2="14814.7197265625" y1="6868.6474609375" y2="6865.94873046875"/>
  <line class="GlobalId-3KiRF3APb4rvFFs3P46$kw IfcAnnotation PredefinedType-LEADERS" x1="14814.7197265625" x2="14815.818359375" y1="6865.94873046875" y2="6867.24853515625"/>
  <line class="GlobalId-3KiRF3APb4rvFFs3P46$kw IfcAnnotation PredefinedType-LEADERS" x1="14815.818359375" x2="14812.8427734375" y1="6867.24853515625" y2="6868.6474609375"/>
  <line class="GlobalId-3KiRF3APb4rvFFs3P46$kw IfcAnnotation PredefinedType-LEADERS" x1="14812.8427734375" x2="14819.4345703125" y1="6868.6474609375" y2="6863.0791015625"/>
  <line class="GlobalId-3KiRF3APb4rvFFs3P46$kw IfcAnnotation PredefinedType-LEADERS" x1="14819.4345703125" x2="14822.1279296875" y1="6863.0791015625" y2="6863.0791015625"/>
  <line class="GlobalId-3KiRF3APb4rvFFs3P46$kw IfcAnnotation PredefinedType-LEADERS" x1="13661.650390625" x2="13664.8310546875" y1="7819.58544921875" y2="7818.75244140625"/>
  <line class="GlobalId-3KiRF3APb4rvFFs3P46$kw IfcAnnotation PredefinedType-LEADERS" x1="13664.8310546875" x2="13664.8203125" y1="7818.75244140625" y2="7820.4541015625"/>
  <line class="GlobalId-3KiRF3APb4rvFFs3P46$kw IfcAnnotation PredefinedType-LEADERS" x1="13664.8203125" x2="13661.650390625" y1="7820.4541015625" y2="7819.58544921875"/>
  <line class="GlobalId-3KiRF3APb4rvFFs3P46$kw IfcAnnotation PredefinedType-LEADERS" x1="13661.650390625" x2="13696.283203125" y1="7819.58544921875" y2="7819.78271484375"/>
  <line class="GlobalId-3KiRF3APb4rvFFs3P46$kw IfcAnnotation PredefinedType-LEADERS" x1="13799.8486328125" x2="13790.2958984375" y1="6623.98291015625" y2="6623.98291015625"/>
  <line class="GlobalId-3KiRF3APb4rvFFs3P46$kw IfcAnnotation PredefinedType-LEADERS" x1="13790.2958984375" x2="13830.4853515625" y1="6623.98291015625" y2="6582.80908203125"/>
  <line class="GlobalId-3KiRF3APb4rvFFs3P46$kw IfcAnnotation PredefinedType-LEADERS" x1="13866.3349609375" x2="13863.3017578125" y1="7876.1064453125" y2="7876.1064453125"/>
  <line class="GlobalId-3KiRF3APb4rvFFs3P46$kw IfcAnnotation PredefinedType-LEADERS" x1="13863.3017578125" x2="13866.962890625" y1="7876.1064453125" y2="7860.287109375"/>
  <line class="GlobalId-3KiRF3APb4rvFFs3P46$kw IfcAnnotation PredefinedType-LEADERS" x1="13715.0498046875" x2="13716.7099609375" y1="6201.20361328125" y2="6198.36572265625"/>
  <line class="GlobalId-3KiRF3APb4rvFFs3P46$kw IfcAnnotation PredefinedType-LEADERS" x1="13716.7099609375" x2="13717.9052734375" y1="6198.36572265625" y2="6199.576171875"/>
  <line class="GlobalId-3KiRF3APb4rvFFs3P46$kw IfcAnnotation PredefinedType-LEADERS" x1="13717.9052734375" x2="13715.0498046875" y1="6199.576171875" y2="6201.20361328125"/>
  <line class="GlobalId-3KiRF3APb4rvFFs3P46$kw IfcAnnotation PredefinedType-LEADERS" x1="13715.0498046875" x2="13734.9375" y1="6201.20361328125" y2="6181.5390625"/>
  <line class="GlobalId-3KiRF3APb4rvFFs3P46$kw IfcAnnotation PredefinedType-LEADERS" x1="13734.9375" x2="13743.8642578125" y1="6181.5390625" y2="6181.5390625"/>
  <line class="GlobalId-3KiRF3APb4rvFFs3P46$kw IfcAnnotation PredefinedType-LEADERS" x1="13743.8642578125" x2="13744.1943359375" y1="6181.5390625" y2="6181.5390625"/>
  <line class="GlobalId-3KiRF3APb4rvFFs3P46$kw IfcAnnotation PredefinedType-LEADERS" x1="13680.068359375" x2="13682.5146484375" y1="7807.13671875" y2="7809.3330078125"/>
  <line class="GlobalId-3KiRF3APb4rvFFs3P46$kw IfcAnnotation PredefinedType-LEADERS" x1="13682.5146484375" x2="13683.2841796875" y1="7809.3330078125" y2="7807.81591796875"/>
  <line class="GlobalId-3KiRF3APb4rvFFs3P46$kw IfcAnnotation PredefinedType-LEADERS" x1="13683.2841796875" x2="13680.068359375" y1="7807.81591796875" y2="7807.13671875"/>
  <line class="GlobalId-3KiRF3APb4rvFFs3P46$kw IfcAnnotation PredefinedType-LEADERS" x1="13680.068359375" x2="13690.3857421875" y1="7807.13671875" y2="7812.37451171875"/>
  <line class="GlobalId-3KiRF3APb4rvFFs3P46$kw IfcAnnotation PredefinedType-LEADERS" x1="13690.3857421875" x2="13696.283203125" y1="7812.37451171875" y2="7812.37451171875"/>
  <line class="GlobalId-3KiRF3APb4rvFFs3P46$kw IfcAnnotation PredefinedType-LEADERS" x1="13715.0498046875" x2="13716.7099609375" y1="6556.8037109375" y2="6553.966796875"/>
  <line class="GlobalId-3KiRF3APb4rvFFs3P46$kw IfcAnnotation PredefinedType-LEADERS" x1="13716.7099609375" x2="13717.9052734375" y1="6553.966796875" y2="6555.17724609375"/>
  <line class="GlobalId-3KiRF3APb4rvFFs3P46$kw IfcAnnotation PredefinedType-LEADERS" x1="13717.9052734375" x2="13715.0498046875" y1="6555.17724609375" y2="6556.8037109375"/>
  <line class="GlobalId-3KiRF3APb4rvFFs3P46$kw IfcAnnotation PredefinedType-LEADERS" x1="13715.0498046875" x2="13734.9375" y1="6556.8037109375" y2="6537.14013671875"/>
  <line class="GlobalId-3KiRF3APb4rvFFs3P46$kw IfcAnnotation PredefinedType-LEADERS" x1="13734.9375" x2="13743.8642578125" y1="6537.14013671875" y2="6537.14013671875"/>
  <line class="GlobalId-3KiRF3APb4rvFFs3P46$kw IfcAnnotation PredefinedType-LEADERS" x1="13743.8642578125" x2="13744.1943359375" y1="6537.14013671875" y2="6537.14013671875"/>
  <line class="GlobalId-3KiRF3APb4rvFFs3P46$kw IfcAnnotation PredefinedType-LEADERS" x1="13825.6259765625" x2="13827.609375" y1="6519.64208984375" y2="6519.64208984375"/>
  <line class="GlobalId-3KiRF3APb4rvFFs3P46$kw IfcAnnotation PredefinedType-LEADERS" x1="13827.609375" x2="13834.833984375" y1="6519.64208984375" y2="6521.3115234375"/>
  <line class="GlobalId-3KiRF3APb4rvFFs3P46$kw IfcAnnotation PredefinedType-LEADERS" x1="13664.849609375" x2="13667.76171875" y1="7896.3271484375" y2="7894.7998046875"/>
  <line class="GlobalId-3KiRF3APb4rvFFs3P46$kw IfcAnnotation PredefinedType-LEADERS" x1="13667.76171875" x2="13668.134765625" y1="7894.7998046875" y2="7896.46044921875"/>
  <line class="GlobalId-3KiRF3APb4rvFFs3P46$kw IfcAnnotation PredefinedType-LEADERS" x1="13668.134765625" x2="13664.849609375" y1="7896.46044921875" y2="7896.3271484375"/>
  <line class="GlobalId-3KiRF3APb4rvFFs3P46$kw IfcAnnotation PredefinedType-LEADERS" x1="13664.849609375" x2="13687.505859375" y1="7896.3271484375" y2="7891.22900390625"/>
  <line class="GlobalId-3KiRF3APb4rvFFs3P46$kw IfcAnnotation PredefinedType-LEADERS" x1="13687.505859375" x2="13696.283203125" y1="7891.22900390625" y2="7891.22900390625"/>
  <line class="GlobalId-3KiRF3APb4rvFFs3P46$kw IfcAnnotation PredefinedType-LEADERS" x1="13826.78515625" x2="13831.8359375" y1="6185.1123046875" y2="6185.1123046875"/>
  <line class="GlobalId-3KiRF3APb4rvFFs3P46$kw IfcAnnotation PredefinedType-LEADERS" x1="13831.8359375" x2="13834.724609375" y1="6185.1123046875" y2="6200.5146484375"/>
  <line class="GlobalId-3KiRF3APb4rvFFs3P46$kw IfcAnnotation PredefinedType-LEADERS" x1="13671.0859375" x2="13672.9814453125" y1="7863.37548828125" y2="7860.69140625"/>
  <line class="GlobalId-3KiRF3APb4rvFFs3P46$kw IfcAnnotation PredefinedType-LEADERS" x1="13672.9814453125" x2="13674.0703125" y1="7860.69140625" y2="7861.99853515625"/>
  <line class="GlobalId-3KiRF3APb4rvFFs3P46$kw IfcAnnotation PredefinedType-LEADERS" x1="13674.0703125" x2="13671.0859375" y1="7861.99853515625" y2="7863.37548828125"/>
  <line class="GlobalId-3KiRF3APb4rvFFs3P46$kw IfcAnnotation PredefinedType-LEADERS" x1="13671.0859375" x2="13691.6630859375" y1="7863.37548828125" y2="7846.25146484375"/>
  <line class="GlobalId-3KiRF3APb4rvFFs3P46$kw IfcAnnotation PredefinedType-LEADERS" x1="13691.6630859375" x2="13696.283203125" y1="7846.25146484375" y2="7846.25"/>
  <line class="GlobalId-3KiRF3APb4rvFFs3P46$kw IfcAnnotation PredefinedType-LEADERS" x1="13658.1865234375" x2="13660.791015625" y1="7893.73046875" y2="7891.7236328125"/>
  <line class="GlobalId-3KiRF3APb4rvFFs3P46$kw IfcAnnotation PredefinedType-LEADERS" x1="13660.791015625" x2="13661.4443359375" y1="7891.7236328125" y2="7893.29541015625"/>
  <line class="GlobalId-3KiRF3APb4rvFFs3P46$kw IfcAnnotation PredefinedType-LEADERS" x1="13661.4443359375" x2="13658.1865234375" y1="7893.29541015625" y2="7893.73046875"/>
  <line class="GlobalId-3KiRF3APb4rvFFs3P46$kw IfcAnnotation PredefinedType-LEADERS" x1="13658.1865234375" x2="13687.505859375" y1="7893.73046875" y2="7881.5234375"/>
  <line class="GlobalId-3KiRF3APb4rvFFs3P46$kw IfcAnnotation PredefinedType-LEADERS" x1="13687.505859375" x2="13696.283203125" y1="7881.5234375" y2="7881.5234375"/>
  <line class="GlobalId-3KiRF3APb4rvFFs3P46$kw IfcAnnotation PredefinedType-LEADERS" x1="14184.220703125" x2="14180.8388671875" y1="6148.97412109375" y2="6148.97412109375"/>
  <line class="GlobalId-3KiRF3APb4rvFFs3P46$kw IfcAnnotation PredefinedType-LEADERS" x1="14180.8388671875" x2="14167.56640625" y1="6148.97412109375" y2="6163.041015625"/>
  <line class="GlobalId-3KiRF3APb4rvFFs3P46$kw IfcAnnotation PredefinedType-LEADERS" x1="14300.333984375" x2="14303.45703125" y1="6412.6015625" y2="6413.6279296875"/>
  <line class="GlobalId-3KiRF3APb4rvFFs3P46$kw IfcAnnotation PredefinedType-LEADERS" x1="14303.45703125" x2="14302.525390625" y1="6413.6279296875" y2="6415.0517578125"/>
  <line class="GlobalId-3KiRF3APb4rvFFs3P46$kw IfcAnnotation PredefinedType-LEADERS" x1="14302.525390625" x2="14300.333984375" y1="6415.0517578125" y2="6412.6015625"/>
  <line class="GlobalId-3KiRF3APb4rvFFs3P46$kw IfcAnnotation PredefinedType-LEADERS" x1="14300.333984375" x2="14309.326171875" y1="6412.6015625" y2="6418.48388671875"/>
  <line class="GlobalId-3KiRF3APb4rvFFs3P46$kw IfcAnnotation PredefinedType-LEADERS" x1="14309.326171875" x2="14315.2353515625" y1="6418.48388671875" y2="6418.48388671875"/>
  <line class="GlobalId-3KiRF3APb4rvFFs3P46$kw IfcAnnotation PredefinedType-LEADERS" x1="13696.283203125" x2="13692.6943359375" y1="7858.01611328125" y2="7858.01611328125"/>
  <line class="GlobalId-3KiRF3APb4rvFFs3P46$kw IfcAnnotation PredefinedType-LEADERS" x1="13692.6943359375" x2="13684.51953125" y1="7858.01611328125" y2="7863.2587890625"/>
  <line class="GlobalId-3KiRF3APb4rvFFs3P46$kw IfcAnnotation PredefinedType-LEADERS" x1="13696.283203125" x2="13691.6630859375" y1="7840.53076171875" y2="7840.53076171875"/>
  <line class="GlobalId-3KiRF3APb4rvFFs3P46$kw IfcAnnotation PredefinedType-LEADERS" x1="13691.6630859375" x2="13660.3427734375" y1="7840.53076171875" y2="7863.2685546875"/>
  <line class="GlobalId-3KiRF3APb4rvFFs3P46$kw IfcAnnotation PredefinedType-LEADERS" x1="13657.9375" x2="13666.31640625" y1="7805.02587890625" y2="7797.6943359375"/>
  <line class="GlobalId-3KiRF3APb4rvFFs3P46$kw IfcAnnotation PredefinedType-LEADERS" x1="13666.31640625" x2="13669.18359375" y1="7797.6943359375" y2="7797.6943359375"/>
  <line class="GlobalId-3KiRF3APb4rvFFs3P46$kw IfcAnnotation PredefinedType-LEADERS" x1="14350.2998046875" x2="14348.8212890625" y1="7083.06640625" y2="7086.001953125"/>
  <line class="GlobalId-3KiRF3APb4rvFFs3P46$kw IfcAnnotation PredefinedType-LEADERS" x1="14348.8212890625" x2="14350.4873046875" y1="7086.001953125" y2="7086.3486328125"/>
  <line class="GlobalId-3KiRF3APb4rvFFs3P46$kw IfcAnnotation PredefinedType-LEADERS" x1="14350.4873046875" x2="14350.2998046875" y1="7086.3486328125" y2="7083.06640625"/>
  <line class="GlobalId-3KiRF3APb4rvFFs3P46$kw IfcAnnotation PredefinedType-LEADERS" x1="14350.2998046875" x2="14341.2861328125" y1="7083.06640625" y2="7126.45751953125"/>
  <line class="GlobalId-3KiRF3APb4rvFFs3P46$kw IfcAnnotation PredefinedType-LEADERS" x1="14347.1865234375" x2="14346.4462890625" y1="6380.37646484375" y2="6381.9091796875"/>
  <line class="GlobalId-3KiRF3APb4rvFFs3P46$kw IfcAnnotation PredefinedType-LEADERS" x1="14346.4462890625" x2="14349.67578125" y1="6381.9091796875" y2="6382.52294921875"/>
  <line class="GlobalId-3KiRF3APb4rvFFs3P46$kw IfcAnnotation PredefinedType-LEADERS" x1="14349.67578125" x2="14347.1865234375" y1="6382.52294921875" y2="6380.37646484375"/>
  <line class="GlobalId-3KiRF3APb4rvFFs3P46$kw IfcAnnotation PredefinedType-LEADERS" x1="14350.2998046875" x2="14348.474609375" y1="6392.28759765625" y2="6389.5546875"/>
  <line class="GlobalId-3KiRF3APb4rvFFs3P46$kw IfcAnnotation PredefinedType-LEADERS" x1="14348.474609375" x2="14347.3525390625" y1="6389.5546875" y2="6390.83349609375"/>
  <line class="GlobalId-3KiRF3APb4rvFFs3P46$kw IfcAnnotation PredefinedType-LEADERS" x1="14347.3525390625" x2="14350.2998046875" y1="6390.83349609375" y2="6392.28759765625"/>
  <line class="GlobalId-3KiRF3APb4rvFFs3P46$kw IfcAnnotation PredefinedType-LEADERS" x1="14350.2998046875" x2="14326.3232421875" y1="6392.28759765625" y2="6371.2568359375"/>
  <line class="GlobalId-3KiRF3APb4rvFFs3P46$kw IfcAnnotation PredefinedType-LEADERS" x1="14326.3232421875" x2="14349.67578125" y1="6371.2568359375" y2="6382.52294921875"/>
  <line class="GlobalId-3KiRF3APb4rvFFs3P46$kw IfcAnnotation PredefinedType-LEADERS" x1="14351.6162109375" x2="14354.1513671875" y1="6773.9541015625" y2="6776.046875"/>
  <line class="GlobalId-3KiRF3APb4rvFFs3P46$kw IfcAnnotation PredefinedType-LEADERS" x1="14354.1513671875" x2="14352.765625" y1="6776.046875" y2="6777.03369140625"/>
  <line class="GlobalId-3KiRF3APb4rvFFs3P46$kw IfcAnnotation PredefinedType-LEADERS" x1="14352.765625" x2="14351.6162109375" y1="6777.03369140625" y2="6773.9541015625"/>
  <line class="GlobalId-3KiRF3APb4rvFFs3P46$kw IfcAnnotation PredefinedType-LEADERS" x1="14351.6162109375" x2="14361.275390625" y1="6773.9541015625" y2="6787.5166015625"/>
  <line class="GlobalId-3KiRF3APb4rvFFs3P46$kw IfcAnnotation PredefinedType-LEADERS" x1="13976.541015625" x2="13977.4248046875" y1="6173.8212890625" y2="6172.3671875"/>
  <line class="GlobalId-3KiRF3APb4rvFFs3P46$kw IfcAnnotation PredefinedType-LEADERS" x1="13977.4248046875" x2="13979.6962890625" y1="6172.3671875" y2="6174.74267578125"/>
  <line class="GlobalId-3KiRF3APb4rvFFs3P46$kw IfcAnnotation PredefinedType-LEADERS" x1="13979.6962890625" x2="13976.541015625" y1="6174.74267578125" y2="6173.8212890625"/>
  <line class="GlobalId-3KiRF3APb4rvFFs3P46$kw IfcAnnotation PredefinedType-LEADERS" x1="13951.9921875" x2="13955.375" y1="6159.97119140625" y2="6159.97119140625"/>
  <line class="GlobalId-3KiRF3APb4rvFFs3P46$kw IfcAnnotation PredefinedType-LEADERS" x1="13955.375" x2="13979.6962890625" y1="6159.97119140625" y2="6174.74267578125"/>
  <line class="GlobalId-3KiRF3APb4rvFFs3P46$kw IfcAnnotation PredefinedType-LEADERS" x1="14895.283203125" x2="14896.16015625" y1="6559.203125" y2="6560.66015625"/>
  <line class="GlobalId-3KiRF3APb4rvFFs3P46$kw IfcAnnotation PredefinedType-LEADERS" x1="14896.16015625" x2="14898.44140625" y1="6560.66015625" y2="6558.2939453125"/>
  <line class="GlobalId-3KiRF3APb4rvFFs3P46$kw IfcAnnotation PredefinedType-LEADERS" x1="14898.44140625" x2="14895.283203125" y1="6558.2939453125" y2="6559.203125"/>
  <line class="GlobalId-3KiRF3APb4rvFFs3P46$kw IfcAnnotation PredefinedType-LEADERS" x1="14887.3232421875" x2="14890.705078125" y1="6562.95263671875" y2="6562.95263671875"/>
  <line class="GlobalId-3KiRF3APb4rvFFs3P46$kw IfcAnnotation PredefinedType-LEADERS" x1="14890.705078125" x2="14898.44140625" y1="6562.95263671875" y2="6558.2939453125"/>
  <line class="GlobalId-3KiRF3APb4rvFFs3P46$kw IfcAnnotation PredefinedType-LEADERS" x1="14766.396484375" x2="14766.955078125" y1="6558.5341796875" y2="6560.1416015625"/>
  <line class="GlobalId-3KiRF3APb4rvFFs3P46$kw IfcAnnotation PredefinedType-LEADERS" x1="14766.955078125" x2="14769.673828125" y1="6560.1416015625" y2="6558.2939453125"/>
  <line class="GlobalId-3KiRF3APb4rvFFs3P46$kw IfcAnnotation PredefinedType-LEADERS" x1="14769.673828125" x2="14766.396484375" y1="6558.2939453125" y2="6558.5341796875"/>
  <line class="GlobalId-3KiRF3APb4rvFFs3P46$kw IfcAnnotation PredefinedType-LEADERS" x1="14752.9150390625" x2="14756.296875" y1="6562.95263671875" y2="6562.95263671875"/>
  <line class="GlobalId-3KiRF3APb4rvFFs3P46$kw IfcAnnotation PredefinedType-LEADERS" x1="14756.296875" x2="14769.673828125" y1="6562.95263671875" y2="6558.2939453125"/>
  <line class="GlobalId-3KiRF3APb4rvFFs3P46$kw IfcAnnotation PredefinedType-LEADERS" x1="13677.681640625" x2="13680.724609375" y1="7863.53076171875" y2="7862.28857421875"/>
  <line class="GlobalId-3KiRF3APb4rvFFs3P46$kw IfcAnnotation PredefinedType-LEADERS" x1="13680.724609375" x2="13679.6943359375" y1="7862.28857421875" y2="7860.93310546875"/>
  <line class="GlobalId-3KiRF3APb4rvFFs3P46$kw IfcAnnotation PredefinedType-LEADERS" x1="13679.6943359375" x2="13677.681640625" y1="7860.93310546875" y2="7863.53076171875"/>
  <line class="GlobalId-3KiRF3APb4rvFFs3P46$kw IfcAnnotation PredefinedType-LEADERS" x1="13677.681640625" x2="13692.6943359375" y1="7863.53076171875" y2="7852.12841796875"/>
  <line class="GlobalId-3KiRF3APb4rvFFs3P46$kw IfcAnnotation PredefinedType-LEADERS" x1="13692.6943359375" x2="13696.283203125" y1="7852.12841796875" y2="7852.12841796875"/>
  <line class="GlobalId-3KiRF3APb4rvFFs3P46$kw IfcAnnotation PredefinedType-LEADERS" x1="13715.23828125" x2="13713.9052734375" y1="6206.89599609375" y2="6207.953125"/>
  <line class="GlobalId-3KiRF3APb4rvFFs3P46$kw IfcAnnotation PredefinedType-LEADERS" x1="13713.9052734375" x2="13716.5458984375" y1="6207.953125" y2="6209.912109375"/>
  <line class="GlobalId-3KiRF3APb4rvFFs3P46$kw IfcAnnotation PredefinedType-LEADERS" x1="13716.5458984375" x2="13715.23828125" y1="6209.912109375" y2="6206.89599609375"/>
  <line class="GlobalId-3KiRF3APb4rvFFs3P46$kw IfcAnnotation PredefinedType-LEADERS" x1="13670.1484375" x2="13676.1962890625" y1="6159.05517578125" y2="6159.05517578125"/>
  <line class="GlobalId-3KiRF3APb4rvFFs3P46$kw IfcAnnotation PredefinedType-LEADERS" x1="13676.1962890625" x2="13716.5458984375" y1="6159.05517578125" y2="6209.912109375"/>
  <line class="GlobalId-3KiRF3APb4rvFFs3P46$kw IfcAnnotation PredefinedType-LEADERS" x1="13834.9755859375" x2="13833.3037109375" y1="6908.439453125" y2="6908.75244140625"/>
  <line class="GlobalId-3KiRF3APb4rvFFs3P46$kw IfcAnnotation PredefinedType-LEADERS" x1="13833.3037109375" x2="13834.724609375" y1="6908.75244140625" y2="6911.716796875"/>
  <line class="GlobalId-3KiRF3APb4rvFFs3P46$kw IfcAnnotation PredefinedType-LEADERS" x1="13834.724609375" x2="13834.9755859375" y1="6911.716796875" y2="6908.439453125"/>
  <line class="GlobalId-3KiRF3APb4rvFFs3P46$kw IfcAnnotation PredefinedType-LEADERS" x1="13826.78515625" x2="13831.8359375" y1="6896.31298828125" y2="6896.31298828125"/>
  <line class="GlobalId-3KiRF3APb4rvFFs3P46$kw IfcAnnotation PredefinedType-LEADERS" x1="13831.8359375" x2="13834.724609375" y1="6896.31298828125" y2="6911.716796875"/>
  <line class="GlobalId-3KiRF3APb4rvFFs3P46$kw IfcAnnotation PredefinedType-LEADERS" x1="13831.931640625" x2="13831.5498046875" y1="6164.1669921875" y2="6165.8251953125"/>
  <line class="GlobalId-3KiRF3APb4rvFFs3P46$kw IfcAnnotation PredefinedType-LEADERS" x1="13831.5498046875" x2="13834.833984375" y1="6165.8251953125" y2="6165.71044921875"/>
  <line class="GlobalId-3KiRF3APb4rvFFs3P46$kw IfcAnnotation PredefinedType-LEADERS" x1="13834.833984375" x2="13831.931640625" y1="6165.71044921875" y2="6164.1669921875"/>
  <line class="GlobalId-3KiRF3APb4rvFFs3P46$kw IfcAnnotation PredefinedType-LEADERS" x1="13825.6259765625" x2="13827.609375" y1="6164.041015625" y2="6164.041015625"/>
  <line class="GlobalId-3KiRF3APb4rvFFs3P46$kw IfcAnnotation PredefinedType-LEADERS" x1="13827.609375" x2="13834.833984375" y1="6164.041015625" y2="6165.71044921875"/>
  <line class="GlobalId-3KiRF3APb4rvFFs3P46$kw IfcAnnotation PredefinedType-LEADERS" x1="14145.212890625" x2="14146.66796875" y1="6561.26171875" y2="6562.1455078125"/>
  <line class="GlobalId-3KiRF3APb4rvFFs3P46$kw IfcAnnotation PredefinedType-LEADERS" x1="14146.66796875" x2="14147.58984375" y1="6562.1455078125" y2="6558.990234375"/>
  <line class="GlobalId-3KiRF3APb4rvFFs3P46$kw IfcAnnotation PredefinedType-LEADERS" x1="14147.58984375" x2="14145.212890625" y1="6558.990234375" y2="6561.26171875"/>
  <line class="GlobalId-3KiRF3APb4rvFFs3P46$kw IfcAnnotation PredefinedType-LEADERS" x1="14134.7236328125" x2="14138.10546875" y1="6574.5966796875" y2="6574.5966796875"/>
  <line class="GlobalId-3KiRF3APb4rvFFs3P46$kw IfcAnnotation PredefinedType-LEADERS" x1="14138.10546875" x2="14147.58984375" y1="6574.5966796875" y2="6558.990234375"/>
  <line class="GlobalId-3KiRF3APb4rvFFs3P46$kw IfcAnnotation PredefinedType-LEADERS" x1="13767.1484375" x2="13768.8505859375" y1="7876.8857421875" y2="7876.92919921875"/>
  <line class="GlobalId-3KiRF3APb4rvFFs3P46$kw IfcAnnotation PredefinedType-LEADERS" x1="13768.8505859375" x2="13768.0810546875" y1="7876.92919921875" y2="7873.73388671875"/>
  <line class="GlobalId-3KiRF3APb4rvFFs3P46$kw IfcAnnotation PredefinedType-LEADERS" x1="13768.0810546875" x2="13767.1484375" y1="7873.73388671875" y2="7876.8857421875"/>
  <line class="GlobalId-3KiRF3APb4rvFFs3P46$kw IfcAnnotation PredefinedType-LEADERS" x1="13764.2177734375" x2="13767.6728515625" y1="7889.90185546875" y2="7889.90185546875"/>
  <line class="GlobalId-3KiRF3APb4rvFFs3P46$kw IfcAnnotation PredefinedType-LEADERS" x1="13767.6728515625" x2="13768.0810546875" y1="7889.90185546875" y2="7873.73388671875"/>
  <line class="GlobalId-3KiRF3APb4rvFFs3P46$kw IfcAnnotation PredefinedType-LEADERS" x1="14769.970703125" x2="14769.37109375" y1="6862.75244140625" y2="6864.34521484375"/>
  <line class="GlobalId-3KiRF3APb4rvFFs3P46$kw IfcAnnotation PredefinedType-LEADERS" x1="14769.37109375" x2="14772.6435546875" y1="6864.34521484375" y2="6864.6650390625"/>
  <line class="GlobalId-3KiRF3APb4rvFFs3P46$kw IfcAnnotation PredefinedType-LEADERS" x1="14772.6435546875" x2="14769.970703125" y1="6864.6650390625" y2="6862.75244140625"/>
  <line class="GlobalId-3KiRF3APb4rvFFs3P46$kw IfcAnnotation PredefinedType-LEADERS" x1="14757.689453125" x2="14761.1728515625" y1="6860.35693359375" y2="6860.35693359375"/>
  <line class="GlobalId-3KiRF3APb4rvFFs3P46$kw IfcAnnotation PredefinedType-LEADERS" x1="14761.1728515625" x2="14772.6435546875" y1="6860.35693359375" y2="6864.6650390625"/>
  <line class="GlobalId-3KiRF3APb4rvFFs3P46$kw IfcAnnotation PredefinedType-LEADERS" x1="14302.525390625" x2="14303.45703125" y1="6796.052734375" y2="6794.62841796875"/>
  <line class="GlobalId-3KiRF3APb4rvFFs3P46$kw IfcAnnotation PredefinedType-LEADERS" x1="14303.45703125" x2="14300.333984375" y1="6794.62841796875" y2="6793.60205078125"/>
  <line class="GlobalId-3KiRF3APb4rvFFs3P46$kw IfcAnnotation PredefinedType-LEADERS" x1="14300.333984375" x2="14302.525390625" y1="6793.60205078125" y2="6796.052734375"/>
  <line class="GlobalId-3KiRF3APb4rvFFs3P46$kw IfcAnnotation PredefinedType-LEADERS" x1="14315.2353515625" x2="14309.326171875" y1="6799.484375" y2="6799.484375"/>
  <line class="GlobalId-3KiRF3APb4rvFFs3P46$kw IfcAnnotation PredefinedType-LEADERS" x1="14309.326171875" x2="14300.333984375" y1="6799.484375" y2="6793.60205078125"/>
  <line class="GlobalId-3KiRF3APb4rvFFs3P46$kw IfcAnnotation PredefinedType-LEADERS" x1="14606.7021484375" x2="14610.083984375" y1="6541.7734375" y2="6541.7734375"/>
  <line class="GlobalId-3KiRF3APb4rvFFs3P46$kw IfcAnnotation PredefinedType-LEADERS" x1="13704.234375" x2="13705.869140625" y1="6592.05126953125" y2="6592.52001953125"/>
  <line class="GlobalId-3KiRF3APb4rvFFs3P46$kw IfcAnnotation PredefinedType-LEADERS" x1="13705.869140625" x2="13705.92578125" y1="6592.52001953125" y2="6589.2333984375"/>
  <line class="GlobalId-3KiRF3APb4rvFFs3P46$kw IfcAnnotation PredefinedType-LEADERS" x1="13705.92578125" x2="13704.234375" y1="6589.2333984375" y2="6592.05126953125"/>
  <line class="GlobalId-3KiRF3APb4rvFFs3P46$kw IfcAnnotation PredefinedType-LEADERS" x1="13706.2568359375" x2="13698.845703125" y1="6613.9375" y2="6613.9375"/>
  <line class="GlobalId-3KiRF3APb4rvFFs3P46$kw IfcAnnotation PredefinedType-LEADERS" x1="13698.845703125" x2="13705.92578125" y1="6613.9375" y2="6589.2333984375"/>
  <line class="GlobalId-3KiRF3APb4rvFFs3P46$kw IfcAnnotation PredefinedType-LEADERS" x1="14140.8935546875" x2="14141.982421875" y1="6910.88525390625" y2="6909.57666015625"/>
  <line class="GlobalId-3KiRF3APb4rvFFs3P46$kw IfcAnnotation PredefinedType-LEADERS" x1="14141.982421875" x2="14143.880859375" y1="6909.57666015625" y2="6912.26025390625"/>
  <line class="GlobalId-3KiRF3APb4rvFFs3P46$kw IfcAnnotation PredefinedType-LEADERS" x1="14143.880859375" x2="14140.8935546875" y1="6912.26025390625" y2="6910.88525390625"/>
  <line class="GlobalId-3KiRF3APb4rvFFs3P46$kw IfcAnnotation PredefinedType-LEADERS" x1="14132.1123046875" x2="14135.4951171875" y1="6905.29150390625" y2="6905.29150390625"/>
  <line class="GlobalId-3KiRF3APb4rvFFs3P46$kw IfcAnnotation PredefinedType-LEADERS" x1="14135.4951171875" x2="14143.880859375" y1="6905.29150390625" y2="6912.26025390625"/>
</svg>
