<?xml version="1.0" encoding="utf-8" ?>
<svg xmlns="http://www.w3.org/2000/svg" xmlns:ev="http://www.w3.org/2001/xml-events" xmlns:ifc="http://www.ifcopenshell.org/ns" xmlns:xlink="http://www.w3.org/1999/xlink" baseProfile="full" data-scale="3/32&quot;=1'-0&quot;" height="140.22422106564045mm" id="root" version="1.1" viewBox="0 0 180.46875298023224 140.22422106564045" width="180.46875298023224mm">
  <defs/>
  <image height="140.22422106564045" width="180.46875298023224" xlink:href="DEMO PLAN - 1ST FLOOR-underlay.png"/>
</svg>
