<?xml version="1.0" encoding="utf-8" ?>
<svg xmlns="http://www.w3.org/2000/svg" xmlns:ev="http://www.w3.org/2001/xml-events" xmlns:ifc="http://www.ifcopenshell.org/ns" xmlns:xlink="http://www.w3.org/1999/xlink" baseProfile="full" data-scale="1/4&quot;=1'-0&quot;" height="433.3333571751912mm" id="root" version="1.1" viewBox="0 0 433.3333571751912 433.3333571751912" width="433.3333571751912mm">
  <defs/>
  <image height="433.3333571751912" width="433.3333571751912" xlink:href="DEMO ONLY-underlay.png"/>
</svg>
