<?xml version="1.0" encoding="utf-8" ?>
<svg xmlns="http://www.w3.org/2000/svg" xmlns:ev="http://www.w3.org/2001/xml-events" xmlns:ifc="http://www.ifcopenshell.org/ns" xmlns:xlink="http://www.w3.org/1999/xlink" baseProfile="full" data-scale="1/2&quot;=1'-0&quot;" height="141.66669050852457mm" id="root" version="1.1" viewBox="0 0 102.42501723766325 141.66669050852457" width="102.42501723766325mm">
  <defs/>
  <line class="GlobalId-0xC4hdl3T0cfvDgLUS0M8p IfcAnnotation PredefinedType-HIDDENLINE" x1="26.806846618652344" x2="58.555301666259766" y1="58.54112243652344" y2="58.54112243652344"/>
  <line class="GlobalId-0xC4hdl3T0cfvDgLUS0M8p IfcAnnotation PredefinedType-HIDDENLINE" x1="58.555301666259766" x2="26.806846618652344" y1="58.54112243652344" y2="7.7395243644714355"/>
  <line class="GlobalId-0xC4hdl3T0cfvDgLUS0M8p IfcAnnotation PredefinedType-HIDDENLINE" x1="26.806846618652344" x2="58.555301666259766" y1="7.7395243644714355" y2="7.7395243644714355"/>
  <line class="GlobalId-0xC4hdl3T0cfvDgLUS0M8p IfcAnnotation PredefinedType-HIDDENLINE" x1="58.555301666259766" x2="26.806846618652344" y1="7.7395243644714355" y2="58.54112243652344"/>
  <line class="GlobalId-0xC4hdl3T0cfvDgLUS0M8p IfcAnnotation PredefinedType-HIDDENLINE" x1="26.806846618652344" x2="26.806846618652344" y1="58.54112243652344" y2="7.7395243644714355"/>
  <line class="GlobalId-0xC4hdl3T0cfvDgLUS0M8p IfcAnnotation PredefinedType-HIDDENLINE" x1="58.555301666259766" x2="58.555301666259766" y1="58.54112243652344" y2="7.7395243644714355"/>
  <line class="GlobalId-3W2c2ZomX6q8fkKTD97XcI IfcAnnotation PredefinedType-DIMENSION oblique, fill-bg" x1="21.985586166381836" x2="85.3532943725586" y1="117.84901428222656" y2="117.84901428222656"/>
  <text dominant-baseline="baseline" filter="url(#fill-background)" style="font-size: 0;" text-anchor="middle" transform="translate(53.66944122314453, 116.84901428222656) rotate(0.0)">
    <tspan class="DIMENSION" dy="0em" x="0" y="0">5' - 0&quot;</tspan>
  </text>
  <text dominant-baseline="baseline" style="font-size: 0;" text-anchor="middle" transform="translate(53.66944122314453, 116.84901428222656) rotate(0.0)">
    <tspan class="DIMENSION" dy="0em" x="0" y="0">5' - 0&quot;</tspan>
  </text>
  <text dominant-baseline="hanging" filter="url(#fill-background)" style="font-size: 0;" text-anchor="middle" transform="translate(53.66944122314453, 118.84901428222656) rotate(0.0)">
    <tspan class="DIMENSION" dy="0em" x="0" y="0">60&quot; MIN.</tspan>
  </text>
  <text dominant-baseline="hanging" style="font-size: 0;" text-anchor="middle" transform="translate(53.66944122314453, 118.84901428222656) rotate(0.0)">
    <tspan class="DIMENSION" dy="0em" x="0" y="0">60&quot; MIN.</tspan>
  </text>
  <line class="GlobalId-3zRtoU4Yj9dQSPxBi7D2r6 IfcAnnotation PredefinedType-DIMENSION oblique, fill-bg" x1="51.21250915527344" x2="51.21250915527344" y1="95.78829956054688" y2="58.368186950683594"/>
  <text dominant-baseline="baseline" filter="url(#fill-background)" style="font-size: 0;" text-anchor="middle" transform="translate(50.21250915527344, 77.0782470703125) rotate(-90.00000250447816)">
    <tspan class="DIMENSION" dy="0em" x="0" y="0">2' - 11&quot;</tspan>
  </text>
  <text dominant-baseline="baseline" style="font-size: 0;" text-anchor="middle" transform="translate(50.21250915527344, 77.0782470703125) rotate(-90.00000250447816)">
    <tspan class="DIMENSION" dy="0em" x="0" y="0">2' - 11&quot;</tspan>
  </text>
  <text dominant-baseline="hanging" filter="url(#fill-background)" style="font-size: 0;" text-anchor="middle" transform="translate(52.21250915527344, 77.0782470703125) rotate(-90.00000250447816)">
    <tspan class="DIMENSION" dy="0em" x="0" y="0">33&quot; MIN.</tspan>
  </text>
  <text dominant-baseline="hanging" style="font-size: 0;" text-anchor="middle" transform="translate(52.21250915527344, 77.0782470703125) rotate(-90.00000250447816)">
    <tspan class="DIMENSION" dy="0em" x="0" y="0">33&quot; MIN.</tspan>
  </text>
  <line class="GlobalId-2iaysUrNj8B9N3folwdy9o IfcAnnotation PredefinedType-DIMENSION oblique, fill-bg" x1="51.21250915527344" x2="51.21250915527344" y1="58.3680305480957" y2="7.568339824676514"/>
  <text dominant-baseline="baseline" filter="url(#fill-background)" style="font-size: 0;" text-anchor="middle" transform="translate(50.21250915527344, 32.96818542480469) rotate(-90.00000250447816)">
    <tspan class="DIMENSION" dy="0em" x="0" y="0">4' - 0&quot;</tspan>
  </text>
  <text dominant-baseline="baseline" style="font-size: 0;" text-anchor="middle" transform="translate(50.21250915527344, 32.96818542480469) rotate(-90.00000250447816)">
    <tspan class="DIMENSION" dy="0em" x="0" y="0">4' - 0&quot;</tspan>
  </text>
  <text dominant-baseline="hanging" filter="url(#fill-background)" style="font-size: 0;" text-anchor="middle" transform="translate(52.21250915527344, 32.96818542480469) rotate(-90.00000250447816)">
    <tspan class="DIMENSION" dy="0em" x="0" y="0">MIN.</tspan>
  </text>
  <text dominant-baseline="hanging" style="font-size: 0;" text-anchor="middle" transform="translate(52.21250915527344, 32.96818542480469) rotate(-90.00000250447816)">
    <tspan class="DIMENSION" dy="0em" x="0" y="0">MIN.</tspan>
  </text>
</svg>
