<?xml version="1.0" encoding="utf-8" ?>
<svg xmlns="http://www.w3.org/2000/svg" xmlns:ev="http://www.w3.org/2001/xml-events" xmlns:ifc="http://www.ifcopenshell.org/ns" xmlns:xlink="http://www.w3.org/1999/xlink" baseProfile="full" data-scale="1/8&quot;=1'-0&quot;" height="619.7916666666666mm" id="root" version="1.1" viewBox="0 0 619.7916666666667 619.7916666666666" width="619.7916666666667mm">
  <defs/>
</svg>
