<?xml version="1.0" encoding="utf-8" ?>
<svg xmlns="http://www.w3.org/2000/svg" xmlns:ev="http://www.w3.org/2001/xml-events" xmlns:ifc="http://www.ifcopenshell.org/ns" xmlns:xlink="http://www.w3.org/1999/xlink" baseProfile="full" data-scale="3&quot;=1'-0&quot;" height="125.55034589767456mm" id="root" version="1.1" viewBox="0 0 225.00061988830566 125.55034589767456" width="225.00061988830566mm">
  <defs/>
  <path class="GlobalId-37qmlAdIL9HPI1Rqk1j_3D IfcAnnotation PredefinedType-TEXTLEADER" d="M 88.13202381134033 95.47451204061508 L 80.05249500274658 95.47451204061508 L 47.36816883087158 57.928713228553534"/>
  <text dominant-baseline="baseline" style="font-size: 0;" text-anchor="start" transform="translate(88.13202667236328, 95.4745101928711) rotate(-0.0)">
    <tspan class="GlobalId-37qmlAdIL9HPI1Rqk1j_3D IfcAnnotation PredefinedType-TEXTLEADER" dy="0em" x="0" y="0">TOP METAL STUD TRACK (FASTENER 24&quot; O.C.)</tspan>
  </text>
  <path class="GlobalId-0W6nzQjWzFQvUZu4POXiz1 IfcAnnotation PredefinedType-TEXTLEADER" d="M 88.13202381134033 27.187497079372402 L 80.05249500274658 27.187497079372402 L 50.03845691680908 52.86458386480808"/>
  <text dominant-baseline="baseline" style="font-size: 0;" text-anchor="start" transform="translate(88.13202667236328, 27.187496185302734) rotate(-0.0)">
    <tspan class="GlobalId-0W6nzQjWzFQvUZu4POXiz1 IfcAnnotation PredefinedType-TEXTLEADER" dy="0em" x="0" y="0">2X BLOCKING (FIRE TREATED BLOCKING IF CONST. TYPE I OR II)</tspan>
  </text>
  <path class="GlobalId-1nKCxWLqz5Rhu7yZTc3suB IfcAnnotation PredefinedType-TEXTLEADER" d="M 88.13202381134033 112.67557805776596 L 80.05249500274658 112.67557805776596 L 61.49780750274658 122.68462842702866"/>
  <text dominant-baseline="baseline" style="font-size: 0;" text-anchor="start" transform="translate(88.13202667236328, 112.67557525634766) rotate(-0.0)">
    <tspan class="GlobalId-1nKCxWLqz5Rhu7yZTc3suB IfcAnnotation PredefinedType-TEXTLEADER" dy="0em" x="0" y="0">None</tspan>
  </text>
  <path class="GlobalId-0USk6DzHHFrf7TSd9SeYpW IfcAnnotation PredefinedType-SECTIONLEVEL" d="M 225.00335693359375 -13.424843788146973 L -0.0027418136596679688 -13.424843788146973"/>
  <text dominant-baseline="baseline" style="font-size: 0;" text-anchor="start" transform="translate(225.00335693359375, -16.924842834472656) rotate(0.0)">
    <tspan class="SECTIONLEVEL" dy="-1em" x="0" y="0">GARAGE - 2ND FLOOR</tspan>
    <tspan class="SECTIONLEVEL" dy="0em" x="0" y="0">RL +9' - 0&quot;</tspan>
  </text>
  <path class="GlobalId-11$NRRn4j2g9tGS5uQ5sB5 IfcAnnotation PredefinedType-TEXTLEADER" d="M 88.13202381134033 74.02053727209568 L 80.05249500274658 74.02053727209568 L 64.84711170196533 58.508904840797186"/>
  <text dominant-baseline="baseline" style="font-size: 0;" text-anchor="start" transform="translate(88.13202667236328, 74.02053833007812) rotate(-0.0)">
    <tspan class="GlobalId-11$NRRn4j2g9tGS5uQ5sB5 IfcAnnotation PredefinedType-TEXTLEADER" dy="0em" x="0" y="0">CEILING TRACK AS SCHEDULED</tspan>
  </text>
  <path class="GlobalId-32iK2v3OrAJxhLCtqwupxi IfcAnnotation PredefinedType-TEXTLEADER" d="M 88.13202381134033 12.00774377584457 L 80.05249500274658 12.00774377584457 L 50.03845691680908 26.125580728054043"/>
  <text dominant-baseline="baseline" style="font-size: 0;" text-anchor="start" transform="translate(88.13202667236328, 12.007743835449219) rotate(-0.0)">
    <tspan class="GlobalId-32iK2v3OrAJxhLCtqwupxi IfcAnnotation PredefinedType-TEXTLEADER" dy="0em" x="0" y="0">METAL STUD BRACE TO DECK AS NECESSARY</tspan>
  </text>
  <path class="GlobalId-1MTDs4iLvAGPCIBT$tI6L$ IfcAnnotation PredefinedType-TEXTLEADER" d="M 88.13202381134033 82.45364083349705 L 80.05249500274658 82.45364083349705 L 62.99316883087158 60.532959600910544"/>
  <text dominant-baseline="baseline" style="font-size: 0;" text-anchor="start" transform="translate(88.13202667236328, 82.4536361694336) rotate(-0.0)">
    <tspan class="GlobalId-1MTDs4iLvAGPCIBT$tI6L$ IfcAnnotation PredefinedType-TEXTLEADER" dy="0em" x="0" y="0">J BEAD DRYWALL TRIM</tspan>
  </text>
  <path class="GlobalId-2ZTFh1vMTFbwLXdusvOa9K IfcAnnotation PredefinedType-SECTIONLEVEL" d="M -384.5928955078125 672.375244140625 L -609.5989990234375 672.375244140625"/>
  <text dominant-baseline="baseline" style="font-size: 0;" text-anchor="start" transform="translate(-384.5928955078125, 668.875244140625) rotate(0.0)">
    <tspan class="SECTIONLEVEL" dy="-1em" x="0" y="0">1ST FLOOR</tspan>
    <tspan class="SECTIONLEVEL" dy="0em" x="0" y="0">RL +0&quot;</tspan>
  </text>
  <path class="GlobalId-0lhBL6V_n2Df9luK9DBdv5 IfcAnnotation PredefinedType-TEXTLEADER fill-bg" d="M 88.13202381134033 64.62255348823965 L 85.09552478790283 64.62255348823965 L 82.43286609649658 57.45986309275031"/>
  <text dominant-baseline="baseline" filter="url(#fill-background)" style="font-size: 0;" text-anchor="start" transform="translate(88.13202667236328, 64.62255096435547) rotate(-0.0)">
    <tspan class="GlobalId-0lhBL6V_n2Df9luK9DBdv5 IfcAnnotation PredefinedType-TEXTLEADER fill-bg" dy="0em" x="0" y="0">None</tspan>
  </text>
  <text dominant-baseline="baseline" style="font-size: 0;" text-anchor="start" transform="translate(88.13202667236328, 64.62255096435547) rotate(-0.0)">
    <tspan class="GlobalId-0lhBL6V_n2Df9luK9DBdv5 IfcAnnotation PredefinedType-TEXTLEADER fill-bg" dy="0em" x="0" y="0">None</tspan>
  </text>
  <path class="GlobalId-3jktXVR0j78u1UI2FV9mar IfcAnnotation PredefinedType-TEXTLEADER" d="M 88.13202381134033 106.22873967885971 L 80.05249500274658 106.22873967885971 L 47.33002185821533 96.87903589010239"/>
  <text dominant-baseline="baseline" style="font-size: 0;" text-anchor="start" transform="translate(88.13202667236328, 106.2287368774414) rotate(-0.0)">
    <tspan class="GlobalId-3jktXVR0j78u1UI2FV9mar IfcAnnotation PredefinedType-TEXTLEADER" dy="0em" x="0" y="0">METAL STUD - 20 GA. - 24&quot; O.C.</tspan>
  </text>
  <path class="GlobalId-0aESuOu810HAu$kKwSdUq5 IfcAnnotation PredefinedType-TEXTLEADER" d="M 88.13202381134033 43.12315835058689 L 80.05249500274658 43.12315835058689 L 66.73157215118408 55.47300186380744"/>
  <text dominant-baseline="baseline" style="font-size: 0;" text-anchor="start" transform="translate(88.13202667236328, 43.12316131591797) rotate(-0.0)">
    <tspan class="GlobalId-0aESuOu810HAu$kKwSdUq5 IfcAnnotation PredefinedType-TEXTLEADER" dy="0em" x="0" y="0">ACOUSTICAL TILE - AS SCHEDULED</tspan>
  </text>
</svg>
