<?xml version="1.0" encoding="utf-8" ?>
<svg xmlns="http://www.w3.org/2000/svg" xmlns:ev="http://www.w3.org/2001/xml-events" xmlns:ifc="http://www.ifcopenshell.org/ns" xmlns:xlink="http://www.w3.org/1999/xlink" baseProfile="full" data-scale="3&quot;=1'-0&quot;" height="125.55034589767456mm" id="root" version="1.1" viewBox="0 0 225.00061988830566 125.55034589767456" width="225.00061988830566mm">
  <defs/>
  <path class="GlobalId-1iR1qPXQf9TgBoBEZcFbf8 IfcAnnotation PredefinedType-TEXTLEADER" d="M 83.05847644805908 112.00907891988754 L 74.09393787384033 112.00907891988754 L 57.78992176055908 97.7121896147728"/>
  <text dominant-baseline="baseline" style="font-size: 0;" text-anchor="start" transform="translate(83.05847930908203, 112.00907897949219) rotate(-0.0)">
    <tspan class="GlobalId-1iR1qPXQf9TgBoBEZcFbf8 IfcAnnotation PredefinedType-TEXTLEADER" dy="0em" x="0" y="0">METAL STUD - 20 GA. - 24&quot; O.C.</tspan>
  </text>
  <path class="GlobalId-12wBULvZL8Zv$X6EBQILGU IfcAnnotation PredefinedType-SECTIONLEVEL" d="M 5747.78466796875 672.375244140625 L 5522.7783203125 672.375244140625"/>
  <text dominant-baseline="baseline" style="font-size: 0;" text-anchor="start" transform="translate(5747.78466796875, 668.875244140625) rotate(0.0)">
    <tspan class="SECTIONLEVEL" dy="0em" x="0" y="0">RL +0&quot;</tspan>
  </text>
  <path class="GlobalId-2V7rsiS0967RQ61_SAqtIe IfcAnnotation PredefinedType-TEXTLEADER" d="M 83.05847644805908 100.76668924093246 L 74.09393787384033 100.76668924093246 L 60.88745594024658 82.68979443609715"/>
  <text dominant-baseline="baseline" style="font-size: 0;" text-anchor="start" transform="translate(83.05847930908203, 100.76668548583984) rotate(-0.0)">
    <tspan class="GlobalId-2V7rsiS0967RQ61_SAqtIe IfcAnnotation PredefinedType-TEXTLEADER" dy="0em" x="0" y="0">None</tspan>
  </text>
  <path class="GlobalId-1lt3q_C0D9ShYC8yljVj03 IfcAnnotation PredefinedType-SECTIONLEVEL" d="M -100015.84375 672.375244140625 L -112515.84375 672.375244140625"/>
  <text dominant-baseline="baseline" style="font-size: 0;" text-anchor="start" transform="translate(-100015.84375, 668.875244140625) rotate(0.0)">
    <tspan class="SECTIONLEVEL" dy="-1em" x="0" y="0">1ST FLOOR</tspan>
    <tspan class="SECTIONLEVEL" dy="0em" x="0" y="0">RL +0&quot;</tspan>
  </text>
  <path class="GlobalId-1Xu5eq_eP16wfOd11Vkq9R IfcAnnotation PredefinedType-TEXTLEADER" d="M 5929.585576057434 51.81160821020603 L 5920.621037483215 51.81160821020603 L 5907.414555549622 33.73465193808079"/>
  <text dominant-baseline="baseline" style="font-size: 0;" text-anchor="start" transform="translate(5929.58544921875, 51.81161117553711) rotate(-0.0)">
    <tspan class="GlobalId-1Xu5eq_eP16wfOd11Vkq9R IfcAnnotation PredefinedType-TEXTLEADER" dy="0em" x="0" y="0">None</tspan>
  </text>
  <path class="GlobalId-2x8mprb7XD5vgfshK3gKD3 IfcAnnotation PredefinedType-TEXTLEADER" d="M 83.05847644805908 88.40456856787205 L 74.09393787384033 88.40456856787205 L 58.66730213165283 63.67102488083765"/>
  <text dominant-baseline="baseline" style="font-size: 0;" text-anchor="start" transform="translate(83.05847930908203, 88.4045639038086) rotate(-0.0)">
    <tspan class="GlobalId-2x8mprb7XD5vgfshK3gKD3 IfcAnnotation PredefinedType-TEXTLEADER" dy="0em" x="0" y="0">METAL J-RUNNER</tspan>
  </text>
  <path class="GlobalId-3E6WrM7E92xOX0g2xPgV2N IfcAnnotation PredefinedType-TEXTLEADER" d="M 5929.585576057434 63.05393802258186 L 5920.621037483215 63.05393802258186 L 5904.317021369934 48.75704897940159"/>
  <text dominant-baseline="baseline" style="font-size: 0;" text-anchor="start" transform="translate(5929.58544921875, 63.05393600463867) rotate(-0.0)">
    <tspan class="GlobalId-3E6WrM7E92xOX0g2xPgV2N IfcAnnotation PredefinedType-TEXTLEADER" dy="0em" x="0" y="0">METAL STUD - 20 GA. - 24&quot; O.C.</tspan>
  </text>
  <path class="GlobalId-2FOM3VqG96bRFagGvEbnfx IfcAnnotation PredefinedType-SECTIONLEVEL" d="M 225.00335693359375 672.375244140625 L -0.0027418136596679688 672.375244140625"/>
  <text dominant-baseline="baseline" style="font-size: 0;" text-anchor="start" transform="translate(225.00335693359375, 668.875244140625) rotate(0.0)">
    <tspan class="SECTIONLEVEL" dy="0em" x="0" y="0">RL +0&quot;</tspan>
  </text>
  <path class="GlobalId-2UDzkHs5T1nfZrGczz8HTU IfcAnnotation PredefinedType-TEXTLEADER" d="M 83.05847644805908 65.83455433510244 L 74.09393787384033 65.83467354439199 L 67.47925281524658 58.01013317331672"/>
  <text dominant-baseline="baseline" style="font-size: 0;" text-anchor="start" transform="translate(83.05847930908203, 65.83454895019531) rotate(-0.0)">
    <tspan class="GlobalId-2UDzkHs5T1nfZrGczz8HTU IfcAnnotation PredefinedType-TEXTLEADER" dy="0em" x="0" y="0">UNDERSIDE OF FLOOR ASSEMBLY </tspan>
  </text>
  <path class="GlobalId-2J_JGzsAPFRvghMqUH3o98 IfcAnnotation PredefinedType-TEXTLEADER" d="M 83.05847644805908 77.20902813971043 L 74.09393787384033 77.20902813971043 L 60.88745594024658 59.13201203010976"/>
  <text dominant-baseline="baseline" style="font-size: 0;" text-anchor="start" transform="translate(83.05847930908203, 77.20902252197266) rotate(-0.0)">
    <tspan class="GlobalId-2J_JGzsAPFRvghMqUH3o98 IfcAnnotation PredefinedType-TEXTLEADER" dy="0em" x="0" y="0">FIRE RATED SEALANT</tspan>
  </text>
  <path class="GlobalId-21Q1oifTnAMRzQLUxrxSY_ IfcAnnotation PredefinedType-TEXTLEADER" d="M 5929.585576057434 39.44942606985569 L 5920.621037483215 39.44942606985569 L 5905.194401741028 14.715940415859219"/>
  <text dominant-baseline="baseline" style="font-size: 0;" text-anchor="start" transform="translate(5929.58544921875, 39.44942855834961) rotate(-0.0)">
    <tspan class="GlobalId-21Q1oifTnAMRzQLUxrxSY_ IfcAnnotation PredefinedType-TEXTLEADER" dy="0em" x="0" y="0">METAL J-RUNNER</tspan>
  </text>
  <path class="GlobalId-2dm7rkw9zEofdHglxYjoUt IfcAnnotation PredefinedType-TEXTLEADER" d="M 83.05847644805908 118.8545531630516 L 74.09393787384033 118.8545531630516 L 67.47925281524658 111.03013223409653"/>
  <text dominant-baseline="baseline" style="font-size: 0;" text-anchor="start" transform="translate(83.05847930908203, 118.85455322265625) rotate(-0.0)">
    <tspan class="GlobalId-2dm7rkw9zEofdHglxYjoUt IfcAnnotation PredefinedType-TEXTLEADER" dy="0em" x="0" y="0">UNDERSIDE OF FLOOR ASSEMBLY </tspan>
  </text>
  <path class="GlobalId-0BA0s3J1177flmaK4cy8bT IfcAnnotation PredefinedType-SECTIONLEVEL" d="M 225.00335693359375 -13.424843788146973 L -0.0027418136596679688 -13.424843788146973"/>
  <text dominant-baseline="baseline" style="font-size: 0;" text-anchor="start" transform="translate(225.00335693359375, -16.924842834472656) rotate(0.0)">
    <tspan class="SECTIONLEVEL" dy="-1em" x="0" y="0">GARAGE - 2ND FLOOR</tspan>
    <tspan class="SECTIONLEVEL" dy="0em" x="0" y="0">RL +9' - 0&quot;</tspan>
  </text>
</svg>
