<?xml version="1.0" encoding="utf-8" ?>
<svg xmlns="http://www.w3.org/2000/svg" xmlns:ev="http://www.w3.org/2001/xml-events" xmlns:ifc="http://www.ifcopenshell.org/ns" xmlns:xlink="http://www.w3.org/1999/xlink" baseProfile="full" data-scale="3/16&quot;=1'-0&quot;" height="351.5625596046448mm" id="root" version="1.1" viewBox="0 0 281.2500476837158 351.5625596046448" width="281.2500476837158mm">
  <defs/>
  <line class="GlobalId-1kySnS6bj8H98PTXo3ZnQ2 IfcAnnotation PredefinedType-HIDDENLINE" x1="61.327659606933594" x2="97.87454223632812" y1="166.1609649658203" y2="165.6896209716797"/>
  <path class="GlobalId-1k5ISjjcv2tflyE5j5H$ew IfcAnnotation PredefinedType-PLANLEVEL" d="M 108.52373540401459 209.35168862342834 L 119.77576613426208 209.35139060020447"/>
  <text class="PLANLEVEL" dominant-baseline="baseline" text-anchor="start" x="108.52373504638672" y="208.3516845703125">0&quot;</text>
  <path class="GlobalId-01_iVChkr7iOKbwGeoqDin IfcAnnotation PredefinedType-TEXTLEADER" d="M 179.41414713859558 62.62403726577759 L 175.4901945590973 62.62403726577759 L 159.17822122573853 56.54822289943695"/>
  <text dominant-baseline="middle" style="font-size: 0;" text-anchor="start" transform="translate(179.41415405273438, 62.62403869628906) rotate(-0.0)">
    <tspan class="GlobalId-01_iVChkr7iOKbwGeoqDin IfcAnnotation PredefinedType-TEXTLEADER" dy="0em" x="0" y="0">COMPOSITE DECKING</tspan>
  </text>
  <path class="GlobalId-0i9AmJ0FbFHxBAhXaOUw_N IfcAnnotation PredefinedType-TEXTLEADER" d="M 102.55844295024872 279.06331419944763 L 98.63449037075043 279.06331419944763 L 82.32250213623047 253.43352556228638"/>
  <text dominant-baseline="middle" style="font-size: 0;" text-anchor="start" transform="translate(102.55844116210938, 279.0633239746094) rotate(-0.0)">
    <tspan class="GlobalId-0i9AmJ0FbFHxBAhXaOUw_N IfcAnnotation PredefinedType-TEXTLEADER" dy="0em" x="0" y="0">COMPOSITE DECKING</tspan>
  </text>
  <path class="GlobalId-0FyxNHYbr8WPBDTNd4j25R IfcAnnotation PredefinedType-TEXTLEADER" d="M 124.23100471496582 183.84212255477905 L 109.56560969352722 194.97403502464294"/>
  <text dominant-baseline="baseline" style="font-size: 0;" text-anchor="start" transform="translate(124.23100280761719, 183.8421173095703) rotate(-0.0)">
    <tspan class="GlobalId-0FyxNHYbr8WPBDTNd4j25R IfcAnnotation PredefinedType-TEXTLEADER" dy="0em" x="0" y="0">LINEN CLOSET</tspan>
  </text>
  <path class="GlobalId-2ACho$oI92rgiBIU7bETD$ IfcAnnotation PredefinedType-TEXTLEADER" d="M 147.45270609855652 6.188496947288513 L 143.80066990852356 6.188496947288513 L 119.03601288795471 13.422563672065735"/>
  <text dominant-baseline="middle" style="font-size: 0;" text-anchor="start" transform="translate(147.4527130126953, 6.188497066497803) rotate(-0.0)">
    <tspan class="GlobalId-2ACho$oI92rgiBIU7bETD$ IfcAnnotation PredefinedType-TEXTLEADER" dy="0em" x="0" y="0">EXISTING ASPHALT DRIVEWAY</tspan>
  </text>
  <line class="GlobalId-3sZ1esVL92QR9VfX2YL6Oe IfcAnnotation PredefinedType-DIMENSION oblique" x1="12.410611152648926" x2="58.54924011230469" y1="265.114990234375" y2="265.114990234375"/>
  <text dominant-baseline="baseline" style="font-size: 0;" text-anchor="middle" transform="translate(35.47992706298828, 264.114990234375) rotate(0.0)">
    <tspan class="DIMENSION" dy="0em" x="0" y="0">9' - 8&quot;</tspan>
  </text>
  <line class="GlobalId-3sZ1esVL92QR9VfX2YL6Oe IfcAnnotation PredefinedType-DIMENSION oblique" x1="58.54924011230469" x2="77.59904479980469" y1="265.114990234375" y2="265.114990234375"/>
  <text dominant-baseline="baseline" style="font-size: 0;" text-anchor="middle" transform="translate(68.07414245605469, 264.114990234375) rotate(0.0)">
    <tspan class="DIMENSION" dy="0em" x="0" y="0">4' - 0&quot;</tspan>
  </text>
  <line class="GlobalId-3sZ1esVL92QR9VfX2YL6Oe IfcAnnotation PredefinedType-DIMENSION oblique" x1="77.59904479980469" x2="148.3922882080078" y1="265.114990234375" y2="265.114990234375"/>
  <text dominant-baseline="baseline" style="font-size: 0;" text-anchor="middle" transform="translate(112.99566650390625, 264.114990234375) rotate(0.0)">
    <tspan class="DIMENSION" dy="0em" x="0" y="0">14' - 10&quot;</tspan>
  </text>
  <line class="GlobalId-3sZ1esVL92QR9VfX2YL6Oe IfcAnnotation PredefinedType-DIMENSION oblique" x1="148.3922882080078" x2="172.2633514404297" y1="265.114990234375" y2="265.114990234375"/>
  <text dominant-baseline="baseline" style="font-size: 0;" text-anchor="middle" transform="translate(160.32781982421875, 264.114990234375) rotate(0.0)">
    <tspan class="DIMENSION" dy="0em" x="0" y="0">5' - 0&quot;</tspan>
  </text>
  <path class="GlobalId-02gZ7Q4SzCtOeESdZldj8W IfcAnnotation PredefinedType-FALL" d="M 159.79706645011902 238.22948336601257 L 159.79706645011902 230.58930039405823"/>
  <text class="RADIUS" dominant-baseline="middle" text-anchor="middle" x="159.7970733642578" y="240.22947692871094">6°</text>
  <line class="GlobalId-1kCcBI$$LAqvHFo6nIuqu3 IfcAnnotation PredefinedType-DIMENSION oblique" x1="12.410611152648926" x2="77.59888458251953" y1="313.35333251953125" y2="313.35333251953125"/>
  <text dominant-baseline="baseline" style="font-size: 0;" text-anchor="middle" transform="translate(45.00474548339844, 312.35333251953125) rotate(0.0)">
    <tspan class="DIMENSION" dy="0em" x="0" y="0">13' - 8&quot;</tspan>
  </text>
  <path class="GlobalId-3jdiaQxeT6Bw_UsD3LKg1S IfcAnnotation PredefinedType-TEXTLEADER" d="M 49.07723665237426 145.81957459449768 L 53.133541345596306 145.81957459449768 L 80.18482625484467 166.00772738456726"/>
  <text dominant-baseline="middle" style="font-size: 0;" text-anchor="end" transform="translate(49.07723617553711, 145.819580078125) rotate(-0.0)">
    <tspan class="GlobalId-3jdiaQxeT6Bw_UsD3LKg1S IfcAnnotation PredefinedType-TEXTLEADER" dy="0em" x="0" y="0">NEW BEAM</tspan>
  </text>
  <line class="GlobalId-3uwI9QcO98dQUrcIVevv$L IfcAnnotation PredefinedType-DIMENSION oblique" x1="85.2850112915039" x2="85.2850112915039" y1="346.4219970703125" y2="279.7469482421875"/>
  <text dominant-baseline="baseline" style="font-size: 0;" text-anchor="middle" transform="translate(84.2850112915039, 313.08447265625) rotate(-90.00000250447816)">
    <tspan class="DIMENSION" dy="0em" x="0" y="0">14' - 0&quot;</tspan>
  </text>
  <path class="GlobalId-29JYnjLsvA5xRzDxdXdIwu IfcAnnotation PredefinedType-PLANLEVEL" d="M 43.34151148796081 249.04286861419678 L 63.26181590557098 249.0425705909729"/>
  <text class="PLANLEVEL" dominant-baseline="baseline" text-anchor="start" x="43.34151077270508" y="248.04286193847656">-2' - 0&quot;</text>
  <path class="GlobalId-3aHPblWG5Dp8TKDr2quYVW IfcAnnotation PredefinedType-TEXTLEADER" d="M 102.34458148479462 306.97306990623474 L 98.69253039360046 306.97306990623474 L 73.92788827419281 289.9264991283417"/>
  <text dominant-baseline="middle" style="font-size: 0;" text-anchor="start" transform="translate(102.3445816040039, 306.97308349609375) rotate(-0.0)">
    <tspan class="GlobalId-3aHPblWG5Dp8TKDr2quYVW IfcAnnotation PredefinedType-TEXTLEADER" dy="0em" x="0" y="0">ASPHALT DRIVEWAY</tspan>
  </text>
  <line class="GlobalId-21KhBJwbLDWAxEbK$zyRyv IfcAnnotation PredefinedType-DIMENSION oblique" x1="72.83374786376953" x2="95.36263275146484" y1="188.11122131347656" y2="188.11122131347656"/>
  <text dominant-baseline="baseline" style="font-size: 0;" text-anchor="middle" transform="translate(84.09819030761719, 187.11122131347656) rotate(0.0)">
    <tspan class="DIMENSION" dy="0em" x="0" y="0">4' - 9&quot;</tspan>
  </text>
  <path class="GlobalId-24PnEKJr19nPC1ehAtjAS7 IfcAnnotation PredefinedType-FALL" d="M 67.7941083908081 276.5461504459381 L 67.7941083908081 268.90602707862854"/>
  <text class="RADIUS" dominant-baseline="middle" text-anchor="middle" x="67.79410552978516" y="278.546142578125">6°</text>
  <line class="GlobalId-2tOu7Wfxz7bhygyRQky0zJ IfcAnnotation PredefinedType-DIMENSION oblique" x1="61.327545166015625" x2="96.30519104003906" y1="179.06179809570312" y2="179.06179809570312"/>
  <text dominant-baseline="baseline" style="font-size: 0;" text-anchor="middle" transform="translate(78.81636810302734, 178.06179809570312) rotate(0.0)">
    <tspan class="DIMENSION" dy="0em" x="0" y="0">7' - 4&quot;</tspan>
  </text>
  <line class="GlobalId-2tOu7Wfxz7bhygyRQky0zJ IfcAnnotation PredefinedType-DIMENSION oblique" x1="96.30519104003906" x2="115.2952880859375" y1="179.06179809570312" y2="179.06179809570312"/>
  <text dominant-baseline="baseline" style="font-size: 0;" text-anchor="middle" transform="translate(105.80023956298828, 178.06179809570312) rotate(0.0)">
    <tspan class="DIMENSION" dy="0em" x="0" y="0">4' - 0&quot;</tspan>
  </text>
  <line class="GlobalId-1FAjrCuTT7nuYIN$xy$Fx0 IfcAnnotation PredefinedType-DIMENSION oblique" x1="140.62503051757812" x2="140.62503051757812" y1="258.4593505859375" y2="244.17189025878906"/>
  <text dominant-baseline="baseline" style="font-size: 0;" text-anchor="middle" transform="translate(139.62503051757812, 251.31561279296875) rotate(-90.00000250447816)">
    <tspan class="DIMENSION" dy="0em" x="0" y="0">3' - 0&quot;</tspan>
  </text>
  <line class="GlobalId-1FAjrCuTT7nuYIN$xy$Fx0 IfcAnnotation PredefinedType-DIMENSION oblique" x1="140.62503051757812" x2="140.62503051757812" y1="244.17189025878906" y2="238.6188201904297"/>
  <text dominant-baseline="baseline" style="font-size: 0;" text-anchor="middle" transform="translate(139.62503051757812, 241.39535522460938) rotate(-90.00000250447816)">
    <tspan class="DIMENSION" dy="0em" x="0" y="0">1' - 2&quot;</tspan>
  </text>
  <line class="GlobalId-1FAjrCuTT7nuYIN$xy$Fx0 IfcAnnotation PredefinedType-DIMENSION oblique" x1="140.62503051757812" x2="140.62503051757812" y1="238.6188201904297" y2="203.88916015625"/>
  <text dominant-baseline="baseline" style="font-size: 0;" text-anchor="middle" transform="translate(139.62503051757812, 221.25399780273438) rotate(-90.00000250447816)">
    <tspan class="DIMENSION" dy="0em" x="0" y="0">7' - 4&quot;</tspan>
  </text>
  <line class="GlobalId-1qesbWSz53ovBsqr1y7Ecu IfcAnnotation PredefinedType-DIMENSION oblique" x1="106.98860931396484" x2="106.98860931396484" y1="69.33721923828125" y2="51.245750427246094"/>
  <text dominant-baseline="baseline" style="font-size: 0;" text-anchor="middle" transform="translate(105.98860931396484, 60.29148483276367) rotate(-90.00000250447816)">
    <tspan class="DIMENSION" dy="0em" x="0" y="0">3' - 10&quot;</tspan>
  </text>
  <line class="GlobalId-1qesbWSz53ovBsqr1y7Ecu IfcAnnotation PredefinedType-DIMENSION oblique" x1="106.98860931396484" x2="106.98860931396484" y1="51.245750427246094" y2="36.03634262084961"/>
  <text dominant-baseline="baseline" style="font-size: 0;" text-anchor="middle" transform="translate(105.98860931396484, 43.64104461669922) rotate(-90.00000250447816)">
    <tspan class="DIMENSION" dy="0em" x="0" y="0">3' - 2&quot;</tspan>
  </text>
  <line class="GlobalId-1qesbWSz53ovBsqr1y7Ecu IfcAnnotation PredefinedType-DIMENSION oblique" x1="106.98860931396484" x2="106.98860931396484" y1="36.03634262084961" y2="14.603912353515625"/>
  <text dominant-baseline="baseline" style="font-size: 0;" text-anchor="middle" transform="translate(105.98860931396484, 25.320127487182617) rotate(-90.00000250447816)">
    <tspan class="DIMENSION" dy="0em" x="0" y="0">4' - 6&quot;</tspan>
  </text>
  <path class="GlobalId-3gvBl_FWT1Xh4VpL9RSpR5 IfcAnnotation PredefinedType-PLANLEVEL" d="M 132.11944103240967 61.61801517009735 L 143.37145686149597 61.61773204803467"/>
  <text class="PLANLEVEL" dominant-baseline="baseline" text-anchor="start" x="132.11944580078125" y="60.61801528930664">0&quot;</text>
  <line class="GlobalId-1fStHVISHEUxtMw44q92Zg IfcAnnotation PredefinedType-DIMENSION oblique" x1="131.77642822265625" x2="131.77642822265625" y1="260.84063720703125" y2="258.4593505859375"/>
  <text dominant-baseline="baseline" style="font-size: 0;" text-anchor="middle" transform="translate(130.77642822265625, 255.4593505859375) rotate(-90.00000250447816)">
    <tspan class="DIMENSION" dy="0em" x="0" y="0">6&quot;</tspan>
  </text>
  <line class="GlobalId-1f70DETNb3sxpjSIlWHfyU IfcAnnotation PredefinedType-DIMENSION oblique" x1="53.41631317138672" x2="53.41631317138672" y1="201.11083984375" y2="154.6300048828125"/>
  <text dominant-baseline="baseline" style="font-size: 0;" text-anchor="middle" transform="translate(52.41631317138672, 177.87042236328125) rotate(-90.00000250447816)">
    <tspan class="DIMENSION" dy="0em" x="0" y="0">9' - 9&quot;</tspan>
  </text>
  <path class="GlobalId-1pwSA76$LF$9xws7iez99v IfcAnnotation PredefinedType-TEXTLEADER" d="M 89.45728242397308 246.57878279685974 L 85.80523133277893 246.57878279685974 L 80.72038888931274 239.5727038383484"/>
  <text dominant-baseline="middle" style="font-size: 0;" text-anchor="start" transform="translate(89.45728302001953, 246.5787811279297) rotate(-0.0)">
    <tspan class="GlobalId-1pwSA76$LF$9xws7iez99v IfcAnnotation PredefinedType-TEXTLEADER" dy="0em" x="0" y="0">BENCH - COMPOSITE DECKING</tspan>
  </text>
  <path class="GlobalId-3JKjSXMKL30AOSKsW3v2Wi IfcAnnotation PredefinedType-TEXTLEADER" d="M 102.34458148479462 284.44597125053406 L 98.69253039360046 284.44597125053406 L 73.92788827419281 267.3993408679962"/>
  <text dominant-baseline="middle" style="font-size: 0;" text-anchor="start" transform="translate(102.3445816040039, 284.44598388671875) rotate(-0.0)">
    <tspan class="GlobalId-3JKjSXMKL30AOSKsW3v2Wi IfcAnnotation PredefinedType-TEXTLEADER" dy="0em" x="0" y="0">CONCRETE RAMP &amp; LANDING</tspan>
  </text>
  <path class="GlobalId-2V7BWi_sn5MuQFeG4z01mD IfcAnnotation PredefinedType-TEXTLEADER" d="M 102.34458148479462 273.14212918281555 L 98.69253039360046 273.14212918281555 L 95.3534185886383 260.54975390434265"/>
  <text dominant-baseline="middle" style="font-size: 0;" text-anchor="start" transform="translate(102.3445816040039, 273.1421203613281) rotate(-0.0)">
    <tspan class="GlobalId-2V7BWi_sn5MuQFeG4z01mD IfcAnnotation PredefinedType-TEXTLEADER" dy="0em" x="0" y="0">RAMP CURB</tspan>
  </text>
  <path class="GlobalId-2c7KfE9DHAZhLb0Cn_9Nhi IfcAnnotation PredefinedType-PLANLEVEL" d="M 32.639467716217034 254.7214925289154 L 52.5597721338272 254.72119450569153"/>
  <text class="PLANLEVEL" dominant-baseline="baseline" text-anchor="start" x="32.639469146728516" y="253.72149658203125">-3' - 6&quot;</text>
  <path class="GlobalId-1P0ElZfuPF6RIRq7V9yjN0 IfcAnnotation PredefinedType-FALL" d="M 103.76269519329071 252.90676951408386 L 111.40284836292267 252.90676951408386"/>
  <text class="RADIUS" dominant-baseline="middle" text-anchor="middle" x="101.7626953125" y="252.90676879882812">6°</text>
</svg>
