<?xml version="1.0" encoding="utf-8" ?>
<svg xmlns="http://www.w3.org/2000/svg" xmlns:ev="http://www.w3.org/2001/xml-events" xmlns:ifc="http://www.ifcopenshell.org/ns" xmlns:xlink="http://www.w3.org/1999/xlink" baseProfile="full" data-scale="3&quot;=1'-0&quot;" height="283.0749896168709mm" id="root" version="1.1" viewBox="0 0 324.99998807907104 283.0749896168709" width="324.99998807907104mm">
  <defs/>
  <line class="GlobalId-2Tth0e_$n4wOJnYucsQnIi IfcAnnotation PredefinedType-DIMENSION oblique, fill-bg" x1="136.8194580078125" x2="173.32611083984375" y1="254.7119598388672" y2="254.7119598388672"/>
  <text dominant-baseline="baseline" filter="url(#fill-background)" style="font-size: 0;" text-anchor="middle" transform="translate(155.07278442382812, 253.7119598388672) rotate(0.0)">
    <tspan class="DIMENSION" dy="0em" x="0" y="0">UL U415, SYSTEM C</tspan>
  </text>
  <text dominant-baseline="baseline" style="font-size: 0;" text-anchor="middle" transform="translate(155.07278442382812, 253.7119598388672) rotate(0.0)">
    <tspan class="DIMENSION" dy="0em" x="0" y="0">UL U415, SYSTEM C</tspan>
  </text>
  <path class="GlobalId-3RXRwyb9X748T33FmPx$LO IfcAnnotation PredefinedType-TEXTLEADER fill-bg" d="M 242.56286025047302 247.68439665436745 L 233.91112685203552 247.68439665436745 L 134.36278700828552 188.99939194321632"/>
  <text dominant-baseline="middle" filter="url(#fill-background)" style="font-size: 0;" text-anchor="start" transform="translate(242.5628662109375, 247.68438720703125) rotate(-0.0)">
    <tspan class="GlobalId-3RXRwyb9X748T33FmPx$LO IfcAnnotation PredefinedType-TEXTLEADER fill-bg" dy="0em" x="0" y="0">25 GA. RESILIENT CHANNEL - 24&quot; O.C.</tspan>
  </text>
  <text dominant-baseline="middle" style="font-size: 0;" text-anchor="start" transform="translate(242.5628662109375, 247.68438720703125) rotate(-0.0)">
    <tspan class="GlobalId-3RXRwyb9X748T33FmPx$LO IfcAnnotation PredefinedType-TEXTLEADER fill-bg" dy="0em" x="0" y="0">25 GA. RESILIENT CHANNEL - 24&quot; O.C.</tspan>
  </text>
  <line class="GlobalId-23E$lg4fv9yAKAmCtr6zKM IfcAnnotation PredefinedType-DIMENSION oblique, fill-bg" x1="320.2606201171875" x2="320.2606201171875" y1="192.5999755859375" y2="30.674964904785156"/>
  <text dominant-baseline="baseline" filter="url(#fill-background)" style="font-size: 0;" text-anchor="middle" transform="translate(319.2606201171875, 111.63746643066406) rotate(-90.00000250447816)">
    <tspan class="DIMENSION" dy="0em" x="0" y="0">EXISTING FLOOR ASSEMBLY</tspan>
  </text>
  <text dominant-baseline="baseline" style="font-size: 0;" text-anchor="middle" transform="translate(319.2606201171875, 111.63746643066406) rotate(-90.00000250447816)">
    <tspan class="DIMENSION" dy="0em" x="0" y="0">EXISTING FLOOR ASSEMBLY</tspan>
  </text>
  <line class="GlobalId-3dxc3P9pH3$g9NsK2rPiwR IfcAnnotation PredefinedType-DIMENSION" x1="-111800.1796875" x2="-111800.1796875" y1="791.787109375" y2="735.9306640625"/>
  <text dominant-baseline="baseline" style="font-size: 0;" text-anchor="middle" transform="translate(-111801.1796875, 763.85888671875) rotate(-90.00000250447816)">
    <tspan class="DIMENSION" dy="0em" x="0" y="0">8 51/64&quot;</tspan>
  </text>
  <path class="GlobalId-0TgGFcYybFJOmf6fGJy0OB IfcAnnotation PredefinedType-TEXTLEADER fill-bg" d="M -111808.61511826515 786.9818879663944 L -111836.53870224953 786.9818879663944"/>
  <text dominant-baseline="baseline" filter="url(#fill-background)" style="font-size: 0;" text-anchor="start" transform="translate(-111808.6171875, 786.9818725585938) rotate(-0.0)">
    <tspan class="GlobalId-0TgGFcYybFJOmf6fGJy0OB IfcAnnotation PredefinedType-TEXTLEADER fill-bg" dy="0em" x="0" y="0">TEXT</tspan>
  </text>
  <text dominant-baseline="baseline" style="font-size: 0;" text-anchor="start" transform="translate(-111808.6171875, 786.9818725585938) rotate(-0.0)">
    <tspan class="GlobalId-0TgGFcYybFJOmf6fGJy0OB IfcAnnotation PredefinedType-TEXTLEADER fill-bg" dy="0em" x="0" y="0">TEXT</tspan>
  </text>
  <path class="GlobalId-0I_Q1x97L7JgoXwj0PepSB IfcAnnotation PredefinedType-EXISTING" d="M 174.04326796531677 314.4578708708287 L 174.04326796531677 35.43768063187599 L 60.69335341453552 35.437621027231216 L 60.70098280906677 187.8375782072544 L 38.47655653953552 187.8375782072544 L 38.47655653953552 35.43756142258644 L -3.8360655307769775 35.43768063187599 L -3.8360655307769775 30.674971491098407 L 326.2191712856293 30.674971491098407 L 326.211541891098 192.6000489294529 L 205.07201552391052 192.6000489294529 L 205.07201552391052 314.4577814638615 L 174.04326796531677 314.4578708708287"/>
  <path class="GlobalId-3G25b6L_H8UuJ5vgTV0ggg IfcAnnotation PredefinedType-TEXTLEADER fill-bg" d="M 236.74926161766052 104.77719441056252 L 227.78472304344177 104.77719441056252 L 156.93053603172302 96.37657538056374"/>
  <text dominant-baseline="middle" filter="url(#fill-background)" style="font-size: 0;" text-anchor="start" transform="translate(236.749267578125, 104.77719116210938) rotate(-0.0)">
    <tspan class="GlobalId-3G25b6L_H8UuJ5vgTV0ggg IfcAnnotation PredefinedType-TEXTLEADER fill-bg" dy="0em" x="0" y="0">BATT INSULATION - ENTIRE CAVITY</tspan>
  </text>
  <text dominant-baseline="middle" style="font-size: 0;" text-anchor="start" transform="translate(236.749267578125, 104.77719116210938) rotate(-0.0)">
    <tspan class="GlobalId-3G25b6L_H8UuJ5vgTV0ggg IfcAnnotation PredefinedType-TEXTLEADER fill-bg" dy="0em" x="0" y="0">BATT INSULATION - ENTIRE CAVITY</tspan>
  </text>
  <path class="GlobalId-1L26MGziTFoQUmRC0B768N IfcAnnotation PredefinedType-TEXTLEADER fill-bg" d="M 242.30346083641052 256.74048796296125 L 233.91112685203552 256.74048796296125 L 127.85491347312927 192.9817570745945"/>
  <text dominant-baseline="middle" filter="url(#fill-background)" style="font-size: 0;" text-anchor="start" transform="translate(242.303466796875, 256.740478515625) rotate(-0.0)">
    <tspan class="GlobalId-1L26MGziTFoQUmRC0B768N IfcAnnotation PredefinedType-TEXTLEADER fill-bg" dy="0em" x="0" y="0">5/8&quot; GYP. BD @ CEILING</tspan>
  </text>
  <text dominant-baseline="middle" style="font-size: 0;" text-anchor="start" transform="translate(242.303466796875, 256.740478515625) rotate(-0.0)">
    <tspan class="GlobalId-1L26MGziTFoQUmRC0B768N IfcAnnotation PredefinedType-TEXTLEADER fill-bg" dy="0em" x="0" y="0">5/8&quot; GYP. BD @ CEILING</tspan>
  </text>
  <path class="GlobalId-24aJHmp9n5e9i2aD$oPiAl IfcAnnotation PredefinedType-TEXTLEADER fill-bg" d="M 236.74926161766052 53.65691319108009 L 227.78472304344177 53.65691319108009 L 219.78148818016052 32.94239178299904"/>
  <text dominant-baseline="middle" filter="url(#fill-background)" style="font-size: 0;" text-anchor="start" transform="translate(236.749267578125, 53.65691375732422) rotate(-0.0)">
    <tspan class="GlobalId-24aJHmp9n5e9i2aD$oPiAl IfcAnnotation PredefinedType-TEXTLEADER fill-bg" dy="0em" x="0" y="0">EXISTING FLOOR SHEATHING</tspan>
  </text>
  <text dominant-baseline="middle" style="font-size: 0;" text-anchor="start" transform="translate(236.749267578125, 53.65691375732422) rotate(-0.0)">
    <tspan class="GlobalId-24aJHmp9n5e9i2aD$oPiAl IfcAnnotation PredefinedType-TEXTLEADER fill-bg" dy="0em" x="0" y="0">EXISTING FLOOR SHEATHING</tspan>
  </text>
  <path class="GlobalId-05G8DhsDPAEuMjkHzLwulj IfcAnnotation PredefinedType-TEXTLEADER fill-bg" d="M 236.74926161766052 60.4942812025547 L 227.78472304344177 60.4942812025547 L 170.67107558250427 37.052489668130875"/>
  <text dominant-baseline="middle" filter="url(#fill-background)" style="font-size: 0;" text-anchor="start" transform="translate(236.749267578125, 60.49428176879883) rotate(-0.0)">
    <tspan class="GlobalId-05G8DhsDPAEuMjkHzLwulj IfcAnnotation PredefinedType-TEXTLEADER fill-bg" dy="0em" x="0" y="0">FIRE RATED SEALANT</tspan>
  </text>
  <text dominant-baseline="middle" style="font-size: 0;" text-anchor="start" transform="translate(236.749267578125, 60.49428176879883) rotate(-0.0)">
    <tspan class="GlobalId-05G8DhsDPAEuMjkHzLwulj IfcAnnotation PredefinedType-TEXTLEADER fill-bg" dy="0em" x="0" y="0">FIRE RATED SEALANT</tspan>
  </text>
  <path class="GlobalId-0Qd$d2EW92RAhtXQ8dyGqj IfcAnnotation PredefinedType-SECTIONLEVEL" d="M 433.56475830078125 791.7874145507812 L -16.4398250579834 791.7874145507812"/>
  <text dominant-baseline="baseline" style="font-size: 0;" text-anchor="start" transform="translate(433.56475830078125, 788.2874145507812) rotate(0.0)">
    <tspan class="SECTIONLEVEL" dy="-1em" x="0" y="0">My Storey</tspan>
    <tspan class="SECTIONLEVEL" dy="0em" x="0" y="0">RL +0&quot;</tspan>
  </text>
  <path class="GlobalId-2Bl7YZ6c98Iv_MJQUKGAmk IfcAnnotation PredefinedType-TEXTLEADER fill-bg" d="M -5634.8938047885895 180.44153586030006 L -5643.858343362808 180.44159546494484 L -5650.473028421402 172.61711306869984"/>
  <text dominant-baseline="baseline" filter="url(#fill-background)" style="font-size: 0;" text-anchor="start" transform="translate(-5634.89404296875, 180.4415283203125) rotate(-0.0)">
    <tspan class="GlobalId-2Bl7YZ6c98Iv_MJQUKGAmk IfcAnnotation PredefinedType-TEXTLEADER fill-bg" dy="0em" x="0" y="0">UNDERSIDE OF FLOOR ASSEMBLY </tspan>
  </text>
  <text dominant-baseline="baseline" style="font-size: 0;" text-anchor="start" transform="translate(-5634.89404296875, 180.4415283203125) rotate(-0.0)">
    <tspan class="GlobalId-2Bl7YZ6c98Iv_MJQUKGAmk IfcAnnotation PredefinedType-TEXTLEADER fill-bg" dy="0em" x="0" y="0">UNDERSIDE OF FLOOR ASSEMBLY </tspan>
  </text>
  <path class="GlobalId-2fTyviIn1BiRtbonrrIRi1 IfcAnnotation PredefinedType-TEXTLEADER fill-bg" d="M -5634.8938047885895 215.3736723959446 L -5643.858343362808 215.3736723959446 L -5657.064825296402 197.29671612381935"/>
  <text dominant-baseline="baseline" filter="url(#fill-background)" style="font-size: 0;" text-anchor="start" transform="translate(-5634.89404296875, 215.37367248535156) rotate(-0.0)">
    <tspan class="GlobalId-2fTyviIn1BiRtbonrrIRi1 IfcAnnotation PredefinedType-TEXTLEADER fill-bg" dy="0em" x="0" y="0">None</tspan>
  </text>
  <text dominant-baseline="baseline" style="font-size: 0;" text-anchor="start" transform="translate(-5634.89404296875, 215.37367248535156) rotate(-0.0)">
    <tspan class="GlobalId-2fTyviIn1BiRtbonrrIRi1 IfcAnnotation PredefinedType-TEXTLEADER fill-bg" dy="0em" x="0" y="0">None</tspan>
  </text>
  <path class="GlobalId-2CLHlZTHfAffd98dtQ_Xzm IfcAnnotation PredefinedType-TEXTLEADER fill-bg" d="M 236.74926161766052 111.25407166779041 L 227.78472304344177 111.25407166779041 L 171.09832167625427 124.56670947372913"/>
  <text dominant-baseline="middle" filter="url(#fill-background)" style="font-size: 0;" text-anchor="start" transform="translate(236.749267578125, 111.25407409667969) rotate(-0.0)">
    <tspan class="GlobalId-2CLHlZTHfAffd98dtQ_Xzm IfcAnnotation PredefinedType-TEXTLEADER fill-bg" dy="0em" x="0" y="0">1&quot; GYPSUM LINER PANEL</tspan>
  </text>
  <text dominant-baseline="middle" style="font-size: 0;" text-anchor="start" transform="translate(236.749267578125, 111.25407409667969) rotate(-0.0)">
    <tspan class="GlobalId-2CLHlZTHfAffd98dtQ_Xzm IfcAnnotation PredefinedType-TEXTLEADER fill-bg" dy="0em" x="0" y="0">1&quot; GYPSUM LINER PANEL</tspan>
  </text>
  <line class="GlobalId-2AJp2F5pHFNQtl7z4CmQEN IfcAnnotation PredefinedType-DIMENSION oblique, fill-bg" x1="173.32611083984375" x2="205.072021484375" y1="254.69151306152344" y2="254.69151306152344"/>
  <text dominant-baseline="baseline" filter="url(#fill-background)" style="font-size: 0;" text-anchor="middle" transform="translate(189.19906616210938, 253.69151306152344) rotate(0.0)">
    <tspan class="DIMENSION" dy="0em" x="0" y="0">EXISTING WALL</tspan>
  </text>
  <text dominant-baseline="baseline" style="font-size: 0;" text-anchor="middle" transform="translate(189.19906616210938, 253.69151306152344) rotate(0.0)">
    <tspan class="DIMENSION" dy="0em" x="0" y="0">EXISTING WALL</tspan>
  </text>
  <path class="GlobalId-3yOuebKjT0RAx9C3J7i6r4 IfcAnnotation PredefinedType-TEXTLEADER fill-bg" d="M 236.74926161766052 69.65170040726662 L 227.78472304344177 69.65170040726662 L 173.18877577781677 46.905018240213394"/>
  <text dominant-baseline="middle" filter="url(#fill-background)" style="font-size: 0;" text-anchor="start" transform="translate(236.749267578125, 69.65170288085938) rotate(-0.0)">
    <tspan class="GlobalId-3yOuebKjT0RAx9C3J7i6r4 IfcAnnotation PredefinedType-TEXTLEADER fill-bg" dy="0em" x="0" y="0">METAL J-RUNNER</tspan>
  </text>
  <text dominant-baseline="middle" style="font-size: 0;" text-anchor="start" transform="translate(236.749267578125, 69.65170288085938) rotate(-0.0)">
    <tspan class="GlobalId-3yOuebKjT0RAx9C3J7i6r4 IfcAnnotation PredefinedType-TEXTLEADER fill-bg" dy="0em" x="0" y="0">METAL J-RUNNER</tspan>
  </text>
  <path class="GlobalId-0jGWYD_4j5X8WBKfYt20x0 IfcAnnotation PredefinedType-TEXTLEADER fill-bg" d="M 242.30346083641052 265.35246506333357 L 233.91112685203552 265.35246506333357 L 138.68102431297302 226.28567352890968"/>
  <text dominant-baseline="middle" filter="url(#fill-background)" style="font-size: 0;" text-anchor="start" transform="translate(242.303466796875, 265.3524475097656) rotate(-0.0)">
    <tspan class="GlobalId-0jGWYD_4j5X8WBKfYt20x0 IfcAnnotation PredefinedType-TEXTLEADER fill-bg" dy="0em" x="0" y="0">3/4&quot; GYP. PANELS</tspan>
  </text>
  <text dominant-baseline="middle" style="font-size: 0;" text-anchor="start" transform="translate(242.303466796875, 265.3524475097656) rotate(-0.0)">
    <tspan class="GlobalId-0jGWYD_4j5X8WBKfYt20x0 IfcAnnotation PredefinedType-TEXTLEADER fill-bg" dy="0em" x="0" y="0">3/4&quot; GYP. PANELS</tspan>
  </text>
  <path class="GlobalId-1tsPBTJhH2JPIbbHOnEvhs IfcAnnotation PredefinedType-TEXTLEADER fill-bg" d="M 236.56615614891052 143.21169870905578 L 227.60161757469177 143.21169870905578 L 132.53936171531677 167.9240221530199"/>
  <text dominant-baseline="middle" filter="url(#fill-background)" style="font-size: 0;" text-anchor="start" transform="translate(236.566162109375, 143.21168518066406) rotate(-0.0)">
    <tspan class="GlobalId-1tsPBTJhH2JPIbbHOnEvhs IfcAnnotation PredefinedType-TEXTLEADER fill-bg" dy="0em" x="0" y="0">2X BLOCKING</tspan>
  </text>
  <text dominant-baseline="middle" style="font-size: 0;" text-anchor="start" transform="translate(236.566162109375, 143.21168518066406) rotate(-0.0)">
    <tspan class="GlobalId-1tsPBTJhH2JPIbbHOnEvhs IfcAnnotation PredefinedType-TEXTLEADER fill-bg" dy="0em" x="0" y="0">2X BLOCKING</tspan>
  </text>
  <path class="GlobalId-12EZ2xEzL23veuimhyc_td IfcAnnotation PredefinedType-TEXTLEADER fill-bg" d="M -5634.8938047885895 191.81594982743263 L -5643.858343362808 191.81594982743263 L -5657.064825296402 173.7389935553074"/>
  <text dominant-baseline="baseline" filter="url(#fill-background)" style="font-size: 0;" text-anchor="start" transform="translate(-5634.89404296875, 191.81594848632812) rotate(-0.0)">
    <tspan class="GlobalId-12EZ2xEzL23veuimhyc_td IfcAnnotation PredefinedType-TEXTLEADER fill-bg" dy="0em" x="0" y="0">FIRE RATED SEALANT</tspan>
  </text>
  <text dominant-baseline="baseline" style="font-size: 0;" text-anchor="start" transform="translate(-5634.89404296875, 191.81594848632812) rotate(-0.0)">
    <tspan class="GlobalId-12EZ2xEzL23veuimhyc_td IfcAnnotation PredefinedType-TEXTLEADER fill-bg" dy="0em" x="0" y="0">FIRE RATED SEALANT</tspan>
  </text>
  <path class="GlobalId-01Sx6v7AzDKvkn6xFZKqoK IfcAnnotation PredefinedType-SECTIONLEVEL" d="M 106795.5703125 187.8375701904297 L 106570.5625 187.8375701904297"/>
  <text dominant-baseline="baseline" style="font-size: 0;" text-anchor="start" transform="translate(106795.5703125, 184.3375701904297) rotate(0.0)">
    <tspan class="SECTIONLEVEL" dy="0em" x="0" y="0">RL +7' - 11 7/64&quot;</tspan>
  </text>
  <path class="GlobalId-0xTC6p9k50kAHMQ_PIbjEP IfcAnnotation PredefinedType-TEXTLEADER fill-bg" d="M 236.74926161766052 122.47750706970692 L 227.78472304344177 122.47750706970692 L 113.86260390281677 143.38926094584167"/>
  <text dominant-baseline="middle" filter="url(#fill-background)" style="font-size: 0;" text-anchor="start" transform="translate(236.749267578125, 122.47750854492188) rotate(-0.0)">
    <tspan class="GlobalId-0xTC6p9k50kAHMQ_PIbjEP IfcAnnotation PredefinedType-TEXTLEADER fill-bg" dy="0em" x="0" y="0">NON COMBUSTIBLE INSULATION - FILL ENTIRE CAVITY</tspan>
  </text>
  <text dominant-baseline="middle" style="font-size: 0;" text-anchor="start" transform="translate(236.749267578125, 122.47750854492188) rotate(-0.0)">
    <tspan class="GlobalId-0xTC6p9k50kAHMQ_PIbjEP IfcAnnotation PredefinedType-TEXTLEADER fill-bg" dy="0em" x="0" y="0">NON COMBUSTIBLE INSULATION - FILL ENTIRE CAVITY</tspan>
  </text>
  <path class="GlobalId-2zhOBe2dz71uAVjQyiQa0I IfcAnnotation PredefinedType-TEXTLEADER fill-bg" d="M 236.74926161766052 97.96581402420998 L 227.78472304344177 97.96581402420998 L 53.20128798484802 55.92194929718971"/>
  <text dominant-baseline="middle" filter="url(#fill-background)" style="font-size: 0;" text-anchor="start" transform="translate(236.749267578125, 97.96581268310547) rotate(-0.0)">
    <tspan class="GlobalId-2zhOBe2dz71uAVjQyiQa0I IfcAnnotation PredefinedType-TEXTLEADER fill-bg" dy="0em" x="0" y="0">EXISTING WOOD TRUSS</tspan>
  </text>
  <text dominant-baseline="middle" style="font-size: 0;" text-anchor="start" transform="translate(236.749267578125, 97.96581268310547) rotate(-0.0)">
    <tspan class="GlobalId-2zhOBe2dz71uAVjQyiQa0I IfcAnnotation PredefinedType-TEXTLEADER fill-bg" dy="0em" x="0" y="0">EXISTING WOOD TRUSS</tspan>
  </text>
  <path class="GlobalId-2llH4uqJTBeQhD24dC$L0i IfcAnnotation PredefinedType-TEXTLEADER fill-bg" d="M -5634.8938047885895 226.6160024702549 L -5643.858343362808 226.6160024702549 L -5660.1623594760895 212.31911316514015"/>
  <text dominant-baseline="baseline" filter="url(#fill-background)" style="font-size: 0;" text-anchor="start" transform="translate(-5634.89404296875, 226.61599731445312) rotate(-0.0)">
    <tspan class="GlobalId-2llH4uqJTBeQhD24dC$L0i IfcAnnotation PredefinedType-TEXTLEADER fill-bg" dy="0em" x="0" y="0">METAL STUD - 20 GA. - 24&quot; O.C.</tspan>
  </text>
  <text dominant-baseline="baseline" style="font-size: 0;" text-anchor="start" transform="translate(-5634.89404296875, 226.61599731445312) rotate(-0.0)">
    <tspan class="GlobalId-2llH4uqJTBeQhD24dC$L0i IfcAnnotation PredefinedType-TEXTLEADER fill-bg" dy="0em" x="0" y="0">METAL STUD - 20 GA. - 24&quot; O.C.</tspan>
  </text>
  <path class="GlobalId-3YBxWBCNH1S9WaQXPXsK6j IfcAnnotation PredefinedType-TEXTLEADER fill-bg" d="M 236.56615614891052 173.66407051682472 L 227.60161757469177 173.66407051682472 L 193.97124648094177 184.19644966721535"/>
  <text dominant-baseline="middle" filter="url(#fill-background)" style="font-size: 0;" text-anchor="start" transform="translate(236.566162109375, 173.6640625) rotate(-0.0)">
    <tspan class="GlobalId-3YBxWBCNH1S9WaQXPXsK6j IfcAnnotation PredefinedType-TEXTLEADER fill-bg" dy="0em" x="0" y="0">EXISTING WOOD TRUSS</tspan>
  </text>
  <text dominant-baseline="middle" style="font-size: 0;" text-anchor="start" transform="translate(236.566162109375, 173.6640625) rotate(-0.0)">
    <tspan class="GlobalId-3YBxWBCNH1S9WaQXPXsK6j IfcAnnotation PredefinedType-TEXTLEADER fill-bg" dy="0em" x="0" y="0">EXISTING WOOD TRUSS</tspan>
  </text>
  <line class="GlobalId-0VfaT_ctT1FPHm4Ihv2pXU IfcAnnotation PredefinedType-DIMENSION oblique, fill-bg" x1="72.65624237060547" x2="72.65624237060547" y1="194.98130798339844" y2="30.674964904785156"/>
  <text dominant-baseline="baseline" filter="url(#fill-background)" style="font-size: 0;" text-anchor="middle" transform="translate(71.65624237060547, 112.82814025878906) rotate(-90.00000250447816)">
    <tspan class="DIMENSION" dy="0em" x="0" y="0">UL L521 - SYSTEM NO. 3</tspan>
  </text>
  <text dominant-baseline="baseline" style="font-size: 0;" text-anchor="middle" transform="translate(71.65624237060547, 112.82814025878906) rotate(-90.00000250447816)">
    <tspan class="DIMENSION" dy="0em" x="0" y="0">UL L521 - SYSTEM NO. 3</tspan>
  </text>
  <path class="GlobalId-0nNqs6y_r1BvfIsCtAgIbG IfcAnnotation PredefinedType-TEXTLEADER fill-bg" d="M -5634.8938047885895 203.01149025559425 L -5643.858343362808 203.01149025559425 L -5659.284979104996 178.27800646424294"/>
  <text dominant-baseline="baseline" filter="url(#fill-background)" style="font-size: 0;" text-anchor="start" transform="translate(-5634.89404296875, 203.01148986816406) rotate(-0.0)">
    <tspan class="GlobalId-0nNqs6y_r1BvfIsCtAgIbG IfcAnnotation PredefinedType-TEXTLEADER fill-bg" dy="0em" x="0" y="0">METAL J-RUNNER</tspan>
  </text>
  <text dominant-baseline="baseline" style="font-size: 0;" text-anchor="start" transform="translate(-5634.89404296875, 203.01148986816406) rotate(-0.0)">
    <tspan class="GlobalId-0nNqs6y_r1BvfIsCtAgIbG IfcAnnotation PredefinedType-TEXTLEADER fill-bg" dy="0em" x="0" y="0">METAL J-RUNNER</tspan>
  </text>
  <path class="GlobalId-0E89xy12DFUwqCkhgbHso_ IfcAnnotation PredefinedType-TEXTLEADER fill-bg" d="M 236.56615614891052 131.94403689354658 L 227.60161757469177 131.94403689354658 L 165.36101698875427 151.2357358261943"/>
  <text dominant-baseline="middle" filter="url(#fill-background)" style="font-size: 0;" text-anchor="start" transform="translate(236.566162109375, 131.94403076171875) rotate(-0.0)">
    <tspan class="GlobalId-0E89xy12DFUwqCkhgbHso_ IfcAnnotation PredefinedType-TEXTLEADER fill-bg" dy="0em" x="0" y="0">METAL C-H STUDS 25 GUAGE 24&quot; O.C.</tspan>
  </text>
  <text dominant-baseline="middle" style="font-size: 0;" text-anchor="start" transform="translate(236.566162109375, 131.94403076171875) rotate(-0.0)">
    <tspan class="GlobalId-0E89xy12DFUwqCkhgbHso_ IfcAnnotation PredefinedType-TEXTLEADER fill-bg" dy="0em" x="0" y="0">METAL C-H STUDS 25 GUAGE 24&quot; O.C.</tspan>
  </text>
  <path class="GlobalId-1kAueqkFn6zO8V2LJ0vzV$ IfcAnnotation PredefinedType-TEXTLEADER fill-bg" d="M 236.74926161766052 85.20434036850929 L 227.78472304344177 85.20434036850929 L 139.07012343406677 37.02864781022072"/>
  <text dominant-baseline="middle" filter="url(#fill-background)" style="font-size: 0;" text-anchor="start" transform="translate(236.749267578125, 85.20433807373047) rotate(-0.0)">
    <tspan class="GlobalId-1kAueqkFn6zO8V2LJ0vzV$ IfcAnnotation PredefinedType-TEXTLEADER fill-bg" dy="0em" x="0" y="0">FIRE RATED SEALANT</tspan>
  </text>
  <text dominant-baseline="middle" style="font-size: 0;" text-anchor="start" transform="translate(236.749267578125, 85.20433807373047) rotate(-0.0)">
    <tspan class="GlobalId-1kAueqkFn6zO8V2LJ0vzV$ IfcAnnotation PredefinedType-TEXTLEADER fill-bg" dy="0em" x="0" y="0">FIRE RATED SEALANT</tspan>
  </text>
  <path class="GlobalId-3rbW7JnBzCzO$ohmyCHbFl IfcAnnotation PredefinedType-SECTIONLEVEL" d="M -5456.58740234375 791.7874755859375 L -5681.59326171875 791.7874755859375"/>
  <text dominant-baseline="baseline" style="font-size: 0;" text-anchor="start" transform="translate(-5456.58740234375, 788.2874755859375) rotate(0.0)">
    <tspan class="SECTIONLEVEL" dy="0em" x="0" y="0">RL +0&quot;</tspan>
  </text>
  <text dominant-baseline="baseline" style="font-size: 0;" text-anchor="start" transform="translate(-111696.8046875, 791.787353515625) rotate(-0.0)">
    <tspan class="GlobalId-32c8IUABr96uysdwtk_kXD IfcAnnotation PredefinedType-TEXT" dy="0em" x="0" y="0">TEXT</tspan>
  </text>
  <text dominant-baseline="baseline" style="font-size: 0;" text-anchor="start" transform="translate(-111912.59375, 791.7872924804688) rotate(-0.0)">
    <tspan class="GlobalId-2eSPs9lUj55AMIYSkvpfFU IfcAnnotation PredefinedType-TEXT" dy="0em" x="0" y="0">TEXT</tspan>
  </text>
  <text dominant-baseline="baseline" style="font-size: 0;" text-anchor="start" transform="translate(-111749.3828125, 791.787109375) rotate(-0.0)">
    <tspan class="GlobalId-1kioiBT2b7DxCicvDWL55N IfcAnnotation PredefinedType-TEXT" dy="0em" x="0" y="0">TEXT</tspan>
  </text>
</svg>
