<svg xmlns="http://www.w3.org/2000/svg" xmlns:xlink="http://www.w3.org/1999/xlink" xmlns:ifc="http://www.ifcopenshell.org/ns" width="520.833mm" height="520.833mm" viewBox="0 0 520.833 520.833">
    <defs>
        <marker id="arrowend" markerWidth="10" markerHeight="7" refX="10" refY="3.5" orient="auto">
          <polygon points="0 0, 10 3.5, 0 7"/>
        </marker>
        <marker id="arrowstart" markerWidth="10" markerHeight="7" refX="0" refY="3.5" orient="auto">
          <polygon points="10 0, 0 3.5, 10 7"/>
        </marker>
    </defs>
    <g ifc:name="Elevation SECTION - NORTH" class="section" ifc:plane="[[1.000000,0.000000,0.000000,0.000000],[0.000000,0.000000,-1.000000,-56.674740],[0.000000,1.000000,0.000000,0.000004],[0.000000,0.000000,0.000000,1.000000]]" ifc:matrix3="[[10.416667,0.000000,65.269235],[0.000000,10.416667,265.523090],[0.000000,0.000000,1.000000]]">
        <g class="projection">
            <path d="M259.519,217.414 L259.519,217.414"/>
            <path d="M235.741,189.672 L235.739,189.67"/>
            <path d="M235.739,227.515 L235.739,189.67"/>
            <path d="M261.404,219.613 L261.404,265.523"/>
            <path d="M259.519,217.414 L261.404,219.613"/>
            <path d="M259.519,265.523 L259.519,217.414"/>
            <path d="M261.404,265.523 L259.519,265.523"/>
            <path d="M235.739,227.515 L235.739,189.689"/>
            <path d="M235.739,189.689 L235.708,189.726"/>
            <path d="M232.638,227.515 L232.638,212.077"/>
            <path d="M276.139,257.921 L276.139,260.298"/>
            <path d="M267.357,257.921 L267.357,260.298"/>
            <path d="M271.326,257.921 L271.326,260.298"/>
            <path d="M261.437,264.994 L261.437,263.308"/>
            <path d="M277.246,264.994 L277.246,257.921"/>
            <path d="M277.279,264.994 L277.279,257.921"/>
            <path d="M261.404,264.994 L261.437,264.994"/>
            <path d="M277.279,264.994 L277.246,264.994"/>
            <path d="M277.279,264.994 L277.279,264.994"/>
            <path d="M276.948,260.298 L276.948,260.298"/>
            <path d="M263.487,260.298 L276.948,260.298"/>
            <path d="M276.948,260.298 L276.948,257.921"/>
            <path d="M261.437,264.994 L263.661,264.994"/>
            <path d="M265.918,264.994 L277.246,264.994"/>
            <path d="M331.254,205.71 L331.254,219.774"/>
            <path d="M330.776,205.71 L331.254,205.71"/>
            <path d="M331.254,219.774 L331.254,265.523"/>
            <path d="M329.369,219.774 L331.254,219.774"/>
            <path d="M329.369,265.523 L329.369,219.774"/>
            <path d="M331.254,265.523 L329.369,265.523"/>
            <path d="M261.404,219.613 L261.404,219.613"/>
            <path d="M261.404,219.613 L260.993,219.134"/>
            <path d="M259.519,265.523 L249.095,265.523"/>
            <path d="M248.574,265.523 L247.22,265.523"/>
            <path d="M246.699,265.523 L245.1,265.523"/>
            <path d="M331.254,265.523 L331.254,265.523"/>
            <path d="M331.254,205.695 L330.776,205.695"/>
            <path d="M331.254,265.523 L331.254,205.695"/>
            <path d="M235.739,255.998 L235.739,238.006"/>
            <path d="M279.925,265.523 L279.925,265.523"/>
            <path d="M279.925,265.523 L279.925,265.523"/>
            <path d="M279.925,265.523 L279.925,265.523"/>
            <path d="M279.925,257.921 L279.925,265.523"/>
            <path d="M279.925,265.523 L279.925,265.523"/>
            <path d="M279.925,265.523 L279.925,265.523"/>
            <path d="M279.925,243.034 L279.925,243.034"/>
            <path d="M279.925,243.034 L279.925,243.034"/>
            <path d="M298.905,235.431 L298.905,257.921"/>
            <path d="M298.873,257.921 L298.905,257.921"/>
            <path d="M298.873,235.431 L298.905,235.431"/>
            <path d="M224.929,261.356 L224.929,261.356"/>
            <path d="M224.929,265.523 L224.929,265.523"/>
            <path d="M225.449,261.356 L225.449,261.356"/>
            <path d="M224.929,261.356 L224.929,261.356"/>
            <path d="M228.574,265.523 L228.574,265.523"/>
            <path d="M228.574,261.356 L228.574,261.356"/>
            <path d="M229.095,261.356 L229.095,261.356"/>
            <path d="M224.929,261.356 L224.929,261.356"/>
            <path d="M224.929,265.523 L224.929,265.523"/>
            <path d="M224.929,261.356 L224.929,261.356"/>
            <path d="M225.449,261.356 L225.449,261.356"/>
            <path d="M228.574,265.523 L228.574,265.523"/>
            <path d="M229.095,261.356 L229.095,261.356"/>
            <path d="M228.574,261.356 L228.574,261.356"/>
            <path d="M224.929,260.836 L224.929,260.836"/>
            <path d="M224.929,256.148 L229.095,256.148"/>
            <path d="M229.095,256.148 L229.095,257.398"/>
            <path d="M229.095,257.919 L229.095,260.836"/>
            <path d="M224.929,256.148 L224.929,257.398"/>
            <path d="M224.929,257.919 L224.929,260.836"/>
            <path d="M224.929,261.356 L224.929,261.356"/>
            <path d="M224.929,260.836 L224.929,260.836"/>
            <path d="M229.095,260.836 L229.095,260.836"/>
            <path d="M224.929,260.836 L224.929,260.836"/>
            <path d="M224.929,261.356 L224.929,261.356"/>
            <path d="M225.449,265.523 L224.929,265.523"/>
            <path d="M224.929,265.523 L224.929,261.356"/>
            <path d="M225.449,265.523 L225.449,261.356"/>
            <path d="M228.574,265.523 L229.095,265.523"/>
            <path d="M229.095,265.523 L229.095,261.356"/>
            <path d="M228.574,265.523 L228.574,261.356"/>
            <path d="M224.929,260.836 L224.929,261.356"/>
            <path d="M229.095,261.356 L224.929,261.356"/>
            <path d="M229.095,261.356 L229.095,260.836"/>
            <path d="M229.095,260.836 L224.929,260.836"/>
            <path d="M230.97,261.356 L230.97,261.356"/>
            <path d="M230.97,265.523 L230.97,265.523"/>
            <path d="M231.491,261.356 L231.491,261.356"/>
            <path d="M230.97,261.356 L230.97,261.356"/>
            <path d="M234.616,265.523 L234.616,265.523"/>
            <path d="M234.616,261.356 L234.616,261.356"/>
            <path d="M235.137,261.356 L235.137,261.356"/>
            <path d="M230.97,261.356 L230.97,261.356"/>
            <path d="M230.97,265.523 L230.97,265.523"/>
            <path d="M230.97,261.356 L230.97,261.356"/>
            <path d="M231.491,261.356 L231.491,261.356"/>
            <path d="M234.616,265.523 L234.616,265.523"/>
            <path d="M235.137,261.356 L235.137,261.356"/>
            <path d="M234.616,261.356 L234.616,261.356"/>
            <path d="M230.97,260.836 L230.97,260.836"/>
            <path d="M230.97,256.148 L235.137,256.148"/>
            <path d="M235.137,256.148 L235.137,257.398"/>
            <path d="M235.137,257.919 L235.137,260.836"/>
            <path d="M230.97,256.148 L230.97,257.398"/>
            <path d="M230.97,257.919 L230.97,260.836"/>
            <path d="M230.97,261.356 L230.97,261.356"/>
            <path d="M230.97,260.836 L230.97,260.836"/>
            <path d="M235.137,260.836 L235.137,260.836"/>
            <path d="M230.97,260.836 L230.97,260.836"/>
            <path d="M230.97,261.356 L230.97,261.356"/>
            <path d="M231.491,265.523 L230.97,265.523"/>
            <path d="M230.97,265.523 L230.97,261.356"/>
            <path d="M231.491,265.523 L231.491,261.356"/>
            <path d="M234.616,265.523 L235.137,265.523"/>
            <path d="M235.137,265.523 L235.137,261.356"/>
            <path d="M234.616,265.523 L234.616,261.356"/>
            <path d="M230.97,260.836 L230.97,261.356"/>
            <path d="M235.137,261.356 L230.97,261.356"/>
            <path d="M235.137,261.356 L235.137,260.836"/>
            <path d="M235.137,260.836 L230.97,260.836"/>
            <path d="M237.012,261.356 L237.012,261.356"/>
            <path d="M237.012,265.523 L237.012,265.523"/>
            <path d="M237.533,261.356 L237.533,261.356"/>
            <path d="M237.012,261.356 L237.012,261.356"/>
            <path d="M240.658,265.523 L240.658,265.523"/>
            <path d="M240.658,261.356 L240.658,261.356"/>
            <path d="M241.179,261.356 L241.179,261.356"/>
            <path d="M237.012,261.356 L237.012,261.356"/>
            <path d="M237.012,265.523 L237.012,265.523"/>
            <path d="M237.012,261.356 L237.012,261.356"/>
            <path d="M237.533,261.356 L237.533,261.356"/>
            <path d="M240.658,265.523 L240.658,265.523"/>
            <path d="M241.179,261.356 L241.179,261.356"/>
            <path d="M240.658,261.356 L240.658,261.356"/>
            <path d="M237.012,260.836 L237.012,260.836"/>
            <path d="M237.012,256.148 L241.179,256.148"/>
            <path d="M241.179,256.148 L241.179,257.398"/>
            <path d="M241.179,257.919 L241.179,260.836"/>
            <path d="M237.012,256.148 L237.012,257.398"/>
            <path d="M237.012,257.919 L237.012,260.836"/>
            <path d="M237.012,261.356 L237.012,261.356"/>
            <path d="M237.012,260.836 L237.012,260.836"/>
            <path d="M241.179,260.836 L241.179,260.836"/>
            <path d="M237.012,260.836 L237.012,260.836"/>
            <path d="M237.012,261.356 L237.012,261.356"/>
            <path d="M237.533,265.523 L237.012,265.523"/>
            <path d="M237.012,265.523 L237.012,261.356"/>
            <path d="M237.533,265.523 L237.533,261.356"/>
            <path d="M240.658,265.523 L241.179,265.523"/>
            <path d="M241.179,265.523 L241.179,261.356"/>
            <path d="M240.658,265.523 L240.658,261.356"/>
            <path d="M237.012,260.836 L237.012,261.356"/>
            <path d="M241.179,261.356 L237.012,261.356"/>
            <path d="M241.179,261.356 L241.179,260.836"/>
            <path d="M241.179,260.836 L237.012,260.836"/>
            <path d="M243.054,261.356 L243.054,261.356"/>
            <path d="M243.054,265.523 L243.054,265.523"/>
            <path d="M243.574,261.356 L243.574,261.356"/>
            <path d="M243.054,261.356 L243.054,261.356"/>
            <path d="M246.699,265.523 L246.699,265.523"/>
            <path d="M246.699,261.356 L246.699,261.356"/>
            <path d="M247.22,261.356 L247.22,261.356"/>
            <path d="M243.054,261.356 L243.054,261.356"/>
            <path d="M243.054,265.523 L243.054,265.523"/>
            <path d="M243.054,261.356 L243.054,261.356"/>
            <path d="M243.574,261.356 L243.574,261.356"/>
            <path d="M246.699,265.523 L246.699,265.523"/>
            <path d="M247.22,261.356 L247.22,261.356"/>
            <path d="M246.699,261.356 L246.699,261.356"/>
            <path d="M243.054,260.836 L243.054,260.836"/>
            <path d="M243.054,256.148 L247.22,256.148"/>
            <path d="M247.22,256.148 L247.22,257.398"/>
            <path d="M247.22,257.919 L247.22,260.836"/>
            <path d="M243.054,256.148 L243.054,257.398"/>
            <path d="M243.054,257.919 L243.054,260.836"/>
            <path d="M243.054,261.356 L243.054,261.356"/>
            <path d="M243.054,260.836 L243.054,260.836"/>
            <path d="M247.22,260.836 L247.22,260.836"/>
            <path d="M243.054,260.836 L243.054,260.836"/>
            <path d="M243.054,261.356 L243.054,261.356"/>
            <path d="M243.574,265.523 L243.054,265.523"/>
            <path d="M243.054,265.523 L243.054,261.356"/>
            <path d="M243.574,265.523 L243.574,261.356"/>
            <path d="M246.699,265.523 L247.22,265.523"/>
            <path d="M247.22,265.523 L247.22,261.356"/>
            <path d="M246.699,265.523 L246.699,261.356"/>
            <path d="M243.054,260.836 L243.054,261.356"/>
            <path d="M247.22,261.356 L243.054,261.356"/>
            <path d="M247.22,261.356 L247.22,260.836"/>
            <path d="M247.22,260.836 L243.054,260.836"/>
            <path d="M223.054,257.919 L223.574,257.919"/>
            <path d="M223.054,265.523 L223.574,265.523"/>
            <path d="M223.574,265.523 L223.574,257.919"/>
            <path d="M223.054,265.523 L223.054,257.919"/>
            <path d="M249.095,257.919 L248.574,257.919"/>
            <path d="M249.095,265.523 L248.574,265.523"/>
            <path d="M248.574,265.523 L248.574,257.919"/>
            <path d="M249.095,265.523 L249.095,257.919"/>
            <path d="M223.054,257.919 L223.054,257.919"/>
            <path d="M223.054,265.523 L223.054,265.523"/>
            <path d="M223.054,257.919 L223.054,257.919"/>
            <path d="M223.574,257.919 L223.574,257.919"/>
            <path d="M248.574,265.523 L248.574,265.523"/>
            <path d="M249.095,257.919 L249.095,257.919"/>
            <path d="M248.574,257.919 L248.574,257.919"/>
            <path d="M223.054,257.398 L249.095,257.398"/>
            <path d="M223.054,257.919 L249.095,257.919"/>
            <path d="M249.095,257.919 L249.095,257.398"/>
            <path d="M223.054,257.919 L223.054,257.398"/>
            <path d="M280.364,205.695 L280.364,234.273"/>
            <path d="M330.776,198.816 L280.364,198.815"/>
            <path d="M280.364,205.695 L280.364,205.695"/>
            <path d="M280.364,205.695 L280.364,198.815"/>
            <path d="M330.776,198.87 L330.776,198.816"/>
            <path d="M330.776,219.774 L280.364,219.774"/>
            <path d="M330.776,212.895 L330.776,219.774"/>
            <path d="M280.364,219.774 L280.364,212.895"/>
            <path d="M330.776,212.895 L280.364,212.895"/>
            <path d="M280.364,212.895 L280.364,198.87"/>
            <path d="M280.364,198.87 L330.776,198.87"/>
            <path d="M330.776,198.87 L330.776,212.895"/>
            <path d="M260.993,212.255 L235.741,182.793"/>
            <path d="M235.741,189.672 L235.741,182.793"/>
            <path d="M260.993,219.134 L235.741,189.672"/>
            <path d="M260.993,212.255 L260.993,219.134"/>
            <path d="M235.739,189.689 L235.739,189.689"/>
            <path d="M219.66,233.244 L219.66,208.449"/>
            <path d="M211.96,217.296 L211.96,265.523"/>
            <path d="M210.075,219.496 L211.96,217.296"/>
            <path d="M210.075,265.523 L210.075,219.496"/>
            <path d="M211.96,265.523 L210.075,265.523"/>
            <path d="M210.376,212.401 L210.376,219.281"/>
            <path d="M210.376,219.281 L235.708,189.726"/>
            <path d="M235.708,189.726 L235.708,182.847"/>
            <path d="M210.376,212.401 L235.708,182.847"/>
            <path d="M200.021,245.443 L200.021,245.443"/>
            <path d="M210.075,239.392 L200.021,239.392"/>
            <path d="M200.021,245.972 L200.021,245.972"/>
            <path d="M200.021,239.392 L200.021,239.392"/>
            <path d="M210.075,233.34 L200.021,233.34"/>
            <path d="M210.075,239.921 L200.021,239.921"/>
            <path d="M200.021,239.921 L200.021,239.921"/>
            <path d="M210.075,233.87 L200.021,233.87"/>
            <path d="M200.021,233.87 L200.021,233.87"/>
            <path d="M210.075,241.409 L200.021,241.409"/>
            <path d="M200.021,241.409 L200.021,241.409"/>
            <path d="M210.075,235.357 L200.021,235.357"/>
            <path d="M210.075,241.938 L200.021,241.938"/>
            <path d="M200.021,241.938 L200.021,241.938"/>
            <path d="M200.021,235.357 L200.021,235.357"/>
            <path d="M210.075,235.887 L200.021,235.887"/>
            <path d="M200.021,235.887 L200.021,235.887"/>
            <path d="M210.075,243.426 L200.021,243.426"/>
            <path d="M200.021,243.426 L200.021,243.426"/>
            <path d="M210.075,237.375 L200.021,237.375"/>
            <path d="M210.075,243.955 L200.021,243.955"/>
            <path d="M200.021,243.955 L200.021,243.955"/>
            <path d="M200.021,237.375 L200.021,237.375"/>
            <path d="M210.075,245.443 L200.021,245.443"/>
            <path d="M210.075,245.972 L200.021,245.972"/>
            <path d="M210.075,237.904 L200.021,237.904"/>
            <path d="M200.021,237.904 L200.021,237.904"/>
            <path d="M200.021,233.34 L200.021,233.34"/>
            <path d="M200.021,233.87 L200.021,233.34"/>
            <path d="M200.021,233.87 L200.021,233.87"/>
            <path d="M200.021,235.357 L200.021,235.357"/>
            <path d="M200.021,235.357 L200.021,235.357"/>
            <path d="M200.021,235.887 L200.021,235.357"/>
            <path d="M200.021,235.887 L200.021,235.887"/>
            <path d="M200.021,237.375 L200.021,237.375"/>
            <path d="M200.021,237.375 L200.021,237.375"/>
            <path d="M200.021,237.904 L200.021,237.375"/>
            <path d="M200.021,237.904 L200.021,237.904"/>
            <path d="M200.021,239.392 L200.021,239.392"/>
            <path d="M200.021,239.392 L200.021,239.392"/>
            <path d="M200.021,239.921 L200.021,239.392"/>
            <path d="M200.021,239.921 L200.021,239.921"/>
            <path d="M200.021,241.409 L200.021,241.409"/>
            <path d="M200.021,241.409 L200.021,241.409"/>
            <path d="M200.021,241.938 L200.021,241.409"/>
            <path d="M200.021,241.938 L200.021,241.938"/>
            <path d="M200.021,243.426 L200.021,243.426"/>
            <path d="M200.021,243.426 L200.021,243.426"/>
            <path d="M200.021,243.955 L200.021,243.426"/>
            <path d="M200.021,243.955 L200.021,243.955"/>
            <path d="M200.021,245.443 L200.021,245.443"/>
            <path d="M200.021,245.443 L200.021,245.443"/>
            <path d="M200.021,245.972 L200.021,245.443"/>
            <path d="M200.021,245.972 L200.021,245.972"/>
            <path d="M210.075,233.34 L210.075,233.34"/>
            <path d="M210.075,233.87 L210.075,233.34"/>
            <path d="M210.075,235.357 L210.075,235.357"/>
            <path d="M210.075,235.357 L210.075,235.357"/>
            <path d="M210.075,235.887 L210.075,235.357"/>
            <path d="M210.075,237.375 L210.075,237.375"/>
            <path d="M210.075,237.375 L210.075,237.375"/>
            <path d="M210.075,237.904 L210.075,237.375"/>
            <path d="M210.075,239.392 L210.075,239.392"/>
            <path d="M210.075,239.392 L210.075,239.392"/>
            <path d="M210.075,239.921 L210.075,239.392"/>
            <path d="M210.075,241.409 L210.075,241.409"/>
            <path d="M210.075,241.409 L210.075,241.409"/>
            <path d="M210.075,241.938 L210.075,241.409"/>
            <path d="M210.075,243.426 L210.075,243.426"/>
            <path d="M210.075,243.426 L210.075,243.426"/>
            <path d="M210.075,243.955 L210.075,243.426"/>
            <path d="M210.075,245.443 L210.075,245.443"/>
            <path d="M210.075,245.443 L210.075,245.443"/>
            <path d="M210.075,245.972 L210.075,245.443"/>
            <path d="M211.96,253.418 L222.014,253.418"/>
            <path d="M211.96,253.947 L222.014,253.947"/>
            <path d="M211.96,261.486 L222.014,261.486"/>
            <path d="M211.96,262.015 L222.014,262.015"/>
            <path d="M211.96,255.435 L222.014,255.435"/>
            <path d="M211.96,255.964 L222.014,255.964"/>
            <path d="M211.96,249.384 L222.014,249.384"/>
            <path d="M211.96,249.913 L222.014,249.913"/>
            <path d="M211.96,257.452 L222.014,257.452"/>
            <path d="M211.96,257.981 L222.014,257.981"/>
            <path d="M211.96,251.401 L222.014,251.401"/>
            <path d="M211.96,251.93 L222.014,251.93"/>
            <path d="M211.96,259.998 L222.014,259.998"/>
            <path d="M211.96,259.469 L222.014,259.469"/>
            <path d="M222.014,249.384 L222.014,249.913"/>
            <path d="M222.014,249.384 L222.014,249.384"/>
            <path d="M222.014,249.384 L222.014,249.384"/>
            <path d="M222.014,251.401 L222.014,251.93"/>
            <path d="M222.014,251.401 L222.014,251.401"/>
            <path d="M222.014,251.401 L222.014,251.401"/>
            <path d="M222.014,253.418 L222.014,253.947"/>
            <path d="M222.014,253.418 L222.014,253.418"/>
            <path d="M222.014,253.418 L222.014,253.418"/>
            <path d="M222.014,255.435 L222.014,255.964"/>
            <path d="M222.014,255.435 L222.014,255.435"/>
            <path d="M222.014,255.435 L222.014,255.435"/>
            <path d="M222.014,257.452 L222.014,257.981"/>
            <path d="M222.014,257.452 L222.014,257.452"/>
            <path d="M222.014,257.452 L222.014,257.452"/>
            <path d="M222.014,259.469 L222.014,259.998"/>
            <path d="M222.014,259.469 L222.014,259.469"/>
            <path d="M222.014,259.469 L222.014,259.469"/>
            <path d="M222.014,261.486 L222.014,262.015"/>
            <path d="M222.014,261.486 L222.014,261.486"/>
            <path d="M222.014,261.486 L222.014,261.486"/>
            <path d="M243.241,212.077 L243.241,212.077"/>
            <path d="M233.432,211.284 L233.432,227.515"/>
            <path d="M232.638,212.077 L232.638,227.515"/>
            <path d="M223.113,212.077 L232.638,212.077"/>
            <path d="M223.113,233.244 L223.113,212.077"/>
            <path d="M222.319,211.284 L222.319,233.244"/>
            <path d="M233.432,211.284 L222.319,211.284"/>
            <path d="M222.319,211.284 L222.319,211.284"/>
            <path d="M279.641,235.961 L268.528,235.961"/>
            <path d="M268.528,257.921 L268.528,235.961"/>
            <path d="M268.528,257.921 L268.528,257.921"/>
            <path d="M269.322,257.921 L268.528,257.921"/>
            <path d="M269.322,236.754 L269.322,257.921"/>
            <path d="M278.847,236.754 L269.322,236.754"/>
            <path d="M278.847,257.921 L278.847,236.754"/>
            <path d="M278.847,257.921 L278.847,257.921"/>
            <path d="M278.847,257.921 L278.847,257.921"/>
            <path d="M279.641,257.921 L278.847,257.921"/>
            <path d="M279.641,235.961 L279.641,257.921"/>
            <path d="M279.641,235.961 L279.641,235.961"/>
            <path d="M278.847,257.921 L278.847,257.921"/>
            <path d="M278.847,257.921 L278.847,257.921"/>
            <path d="M278.847,257.921 L269.322,257.921"/>
            <path d="M279.925,265.523 L261.404,265.523"/>
            <path d="M261.404,265.523 L261.404,264.994"/>
            <path d="M281.81,257.921 L281.81,226.671"/>
            <path d="M281.81,226.671 L298.873,226.671"/>
            <path d="M298.873,257.921 L298.873,226.671"/>
            <path d="M292.445,257.921 L298.873,257.921"/>
            <path d="M281.81,257.921 L282.391,257.921"/>
            <path d="M292.853,257.921 L294.11,257.921"/>
            <path d="M294.11,257.921 L294.11,226.671"/>
            <path d="M292.853,226.671 L294.11,226.671"/>
            <path d="M292.853,257.921 L292.853,226.671"/>
            <path d="M223.113,212.077 L223.113,212.077"/>
            <path d="M252.766,212.077 L252.766,212.077"/>
            <path d="M253.56,211.284 L253.56,233.244"/>
            <path d="M252.766,212.077 L252.766,233.244"/>
            <path d="M243.241,212.077 L252.766,212.077"/>
            <path d="M243.241,227.515 L243.241,212.077"/>
            <path d="M242.447,211.284 L242.447,227.515"/>
            <path d="M253.56,211.284 L242.447,211.284"/>
            <path d="M253.56,211.284 L253.56,211.284"/>
            <path d="M210.075,231.656 L200.021,231.656"/>
            <path d="M210.075,233.674 L210.075,233.674"/>
            <path d="M200.021,233.34 L200.021,231.656"/>
            <path d="M222.014,233.244 L222.014,233.244"/>
            <path d="M222.014,263.506 L211.96,263.506"/>
            <path d="M210.075,263.506 L200.021,263.506"/>
            <path d="M222.014,265.523 L211.96,265.523"/>
            <path d="M210.075,265.523 L200.021,265.523"/>
            <path d="M200.021,265.523 L200.021,263.506"/>
            <path d="M222.014,265.523 L222.014,263.506"/>
            <path d="M222.014,247.363 L211.96,247.363"/>
            <path d="M210.075,247.363 L200.021,247.363"/>
            <path d="M222.014,249.381 L211.96,249.381"/>
            <path d="M210.075,249.381 L200.021,249.381"/>
            <path d="M200.021,249.381 L200.021,247.363"/>
            <path d="M222.014,249.381 L222.014,247.363"/>
            <path d="M219.693,211.879 L219.66,211.879"/>
            <path d="M219.892,211.284 L219.892,233.244"/>
            <path d="M219.693,211.284 L219.693,211.879"/>
            <path d="M219.693,211.284 L219.693,233.244"/>
            <path d="M219.693,211.284 L219.693,211.284"/>
            <path d="M219.693,211.284 L219.892,211.284"/>
            <path d="M219.693,211.284 L219.693,211.284"/>
            <path d="M229.778,227.515 L229.778,233.244"/>
            <path d="M229.778,233.244 L250.924,233.244"/>
            <path d="M250.924,233.244 L250.924,227.515"/>
            <path d="M229.778,227.515 L250.924,227.515"/>
            <path d="M308.223,259.794 L329.369,259.794"/>
            <path d="M308.223,265.523 L329.369,265.523"/>
            <path d="M329.369,265.523 L329.369,259.794"/>
            <path d="M308.223,265.523 L308.223,259.794"/>
            <path d="M261.404,226.671 L279.925,226.671"/>
            <path d="M279.925,257.921 L279.925,226.671"/>
            <path d="M279.641,257.921 L279.925,257.921"/>
            <path d="M269.322,236.754 L269.322,257.921"/>
            <path d="M261.404,257.921 L269.322,257.921"/>
            <path d="M261.139,238.006 L261.139,233.244"/>
            <path d="M210.339,233.244 L261.139,233.244"/>
            <path d="M210.339,233.244 L210.339,238.006"/>
            <path d="M210.339,238.006 L261.139,238.006"/>
            <path d="M235.706,255.998 L242.056,255.998"/>
            <path d="M235.706,256.527 L237.012,256.527"/>
            <path d="M241.179,256.527 L242.056,256.527"/>
            <path d="M242.056,256.527 L242.056,255.998"/>
            <path d="M235.706,256.527 L235.706,255.998"/>
            <path d="M263.487,263.308 L261.404,263.308"/>
            <path d="M263.487,263.308 L263.487,257.921"/>
            <path d="M265.918,263.308 L263.661,263.308"/>
            <path d="M265.918,265.391 L263.661,265.391"/>
            <path d="M263.661,265.391 L263.661,263.308"/>
            <path d="M265.918,265.391 L265.918,263.308"/>
            <path d="M265.831,262.787 L263.487,262.787"/>
            <path d="M265.831,263.308 L263.487,263.308"/>
            <path d="M263.487,263.308 L263.487,262.787"/>
            <path d="M266.353,262.787 L265.831,262.787"/>
            <path d="M266.848,262.787 L266.353,262.787"/>
            <path d="M267.292,262.787 L266.848,262.787"/>
            <path d="M267.663,262.787 L267.292,262.787"/>
            <path d="M267.943,262.787 L267.663,262.787"/>
            <path d="M268.116,262.787 L267.943,262.787"/>
            <path d="M268.175,262.787 L268.116,262.787"/>
            <path d="M266.353,263.308 L265.918,263.308"/>
            <path d="M266.848,263.308 L266.353,263.308"/>
            <path d="M267.292,263.308 L266.848,263.308"/>
            <path d="M267.663,263.308 L267.292,263.308"/>
            <path d="M267.943,263.308 L267.663,263.308"/>
            <path d="M268.116,263.308 L267.943,263.308"/>
            <path d="M268.175,263.308 L268.116,263.308"/>
            <path d="M268.175,263.308 L268.175,262.787"/>
            <path d="M268.116,262.787 L268.116,262.787"/>
            <path d="M267.943,262.787 L267.943,262.787"/>
            <path d="M267.663,262.787 L267.663,262.787"/>
            <path d="M268.116,263.308 L268.116,263.308"/>
            <path d="M267.943,263.308 L267.943,263.308"/>
            <path d="M267.663,263.308 L267.663,263.308"/>
            <path d="M267.292,263.308 L267.292,263.308"/>
            <path d="M266.848,263.308 L266.848,263.308"/>
            <path d="M266.353,263.308 L266.353,263.308"/>
            <path d="M268.175,262.787 L268.175,262.787"/>
            <path d="M265.831,262.787 L265.831,262.787"/>
            <path d="M265.831,261.224 L265.831,261.224"/>
            <path d="M265.831,261.224 L265.831,261.224"/>
            <path d="M265.831,262.787 L265.831,262.787"/>
            <path d="M265.831,262.787 L265.831,262.787"/>
            <path d="M265.831,261.224 L263.487,261.224"/>
            <path d="M265.831,262.787 L263.487,262.787"/>
            <path d="M263.487,262.787 L263.487,261.224"/>
            <path d="M266.353,261.224 L265.831,261.224"/>
            <path d="M266.848,261.224 L266.353,261.224"/>
            <path d="M267.292,261.224 L266.848,261.224"/>
            <path d="M267.663,261.224 L267.292,261.224"/>
            <path d="M267.943,261.224 L267.663,261.224"/>
            <path d="M268.116,261.224 L267.943,261.224"/>
            <path d="M268.175,261.224 L268.116,261.224"/>
            <path d="M266.353,262.787 L265.831,262.787"/>
            <path d="M266.848,262.787 L266.353,262.787"/>
            <path d="M267.292,262.787 L266.848,262.787"/>
            <path d="M267.663,262.787 L267.292,262.787"/>
            <path d="M267.943,262.787 L267.663,262.787"/>
            <path d="M268.116,262.787 L267.943,262.787"/>
            <path d="M268.175,262.787 L268.116,262.787"/>
            <path d="M268.175,262.787 L268.175,261.224"/>
            <path d="M268.116,261.224 L268.116,261.224"/>
            <path d="M267.943,261.224 L267.943,261.224"/>
            <path d="M267.663,261.224 L267.663,261.224"/>
            <path d="M265.831,261.224 L265.831,261.224"/>
            <path d="M268.116,262.787 L268.116,262.787"/>
            <path d="M267.943,262.787 L267.943,262.787"/>
            <path d="M267.663,262.787 L267.663,262.787"/>
            <path d="M268.175,261.224 L268.175,261.224"/>
            <path d="M265.831,261.224 L265.831,261.224"/>
            <path d="M292.445,257.921 L291.651,257.921"/>
            <path d="M291.651,257.921 L292.445,257.921"/>
            <path d="M292.445,235.961 L292.445,257.921"/>
            <path d="M292.445,257.921 L292.445,257.921"/>
            <path d="M292.445,235.961 L292.445,257.921"/>
            <path d="M283.185,236.754 L283.185,257.921"/>
            <path d="M283.185,236.754 L283.185,257.921"/>
            <path d="M283.185,257.921 L282.391,257.921"/>
            <path d="M283.185,257.921 L283.185,257.921"/>
            <path d="M283.185,257.921 L282.391,257.921"/>
            <path d="M291.651,236.754 L291.651,257.921"/>
            <path d="M291.651,257.921 L291.651,257.921"/>
            <path d="M291.651,257.921 L291.651,236.754"/>
            <path d="M291.651,257.921 L291.651,257.921"/>
            <path d="M291.651,257.921 L291.651,257.921"/>
            <path d="M292.445,235.961 L292.445,235.961"/>
            <path d="M282.391,235.961 L292.445,235.961"/>
            <path d="M282.391,235.961 L292.445,235.961"/>
            <path d="M283.185,236.754 L283.185,236.754"/>
            <path d="M291.651,236.754 L291.651,236.754"/>
            <path d="M291.651,236.754 L283.185,236.754"/>
            <path d="M283.185,236.754 L283.185,236.754"/>
            <path d="M283.185,236.754 L291.651,236.754"/>
            <path d="M282.391,257.921 L282.391,235.961"/>
            <path d="M282.391,235.961 L282.391,235.961"/>
            <path d="M282.391,257.921 L282.391,235.961"/>
            <path d="M282.391,257.921 L282.391,257.921"/>
            <path d="M283.185,236.754 L283.185,236.754"/>
            <path d="M283.185,236.754 L291.651,236.754"/>
            <path d="M283.185,257.921 L291.651,257.921"/>
            <path d="M283.185,257.921 L283.185,257.921"/>
            <path d="M291.651,236.754 L291.651,257.921"/>
            <path d="M283.185,236.754 L283.185,257.921"/>
            <path d="M259.519,255.998 L253.169,255.998"/>
            <path d="M259.519,256.527 L253.169,256.527"/>
            <path d="M253.169,256.527 L253.169,255.998"/>
            <path d="M297.616,261.819 L297.616,261.819"/>
            <path d="M229.095,256.148 L235.706,256.148"/>
            <path d="M242.056,256.148 L243.054,256.148"/>
            <path d="M225.449,265.523 L228.574,265.523"/>
            <path d="M229.095,265.523 L230.97,265.523"/>
            <path d="M231.491,265.523 L234.616,265.523"/>
            <path d="M235.137,265.523 L237.012,265.523"/>
            <path d="M237.533,265.523 L240.658,265.523"/>
            <path d="M241.179,265.523 L243.054,265.523"/>
            <path d="M243.277,260.836 L243.277,260.836"/>
            <path d="M225.047,260.836 L225.047,260.836"/>
            <path d="M223.574,258.961 L224.929,258.961"/>
            <path d="M223.574,265.523 L224.929,265.523"/>
            <path d="M225.047,260.836 L225.047,260.836"/>
            <path d="M243.574,265.523 L245.1,265.523"/>
            <path d="M245.1,265.523 L245.1,261.356"/>
            <path d="M245.1,260.836 L245.1,260.836"/>
            <path d="M243.277,260.836 L243.277,260.836"/>
            <path d="M213.85,256.148 L215.672,256.148"/>
            <path d="M215.672,258.961 L215.672,257.981"/>
            <path d="M215.672,257.452 L215.672,256.148"/>
            <path d="M213.85,258.961 L213.85,257.981"/>
            <path d="M213.85,257.452 L213.85,256.148"/>
            <path d="M213.85,258.961 L223.054,258.961"/>
            <path d="M222.014,265.523 L223.054,265.523"/>
            <path d="M213.85,263.506 L213.85,262.015"/>
            <path d="M213.85,261.486 L213.85,259.998"/>
            <path d="M213.85,259.469 L213.85,258.961"/>
            <path d="M281.81,261.819 L297.616,261.819"/>
            <path d="M281.81,262.348 L297.616,262.348"/>
            <path d="M297.616,262.348 L297.616,261.819"/>
            <path d="M279.925,265.523 L281.81,265.523"/>
            <path d="M281.81,265.523 L281.81,234.273"/>
            <path d="M279.925,234.273 L281.81,234.273"/>
            <path d="M279.925,265.523 L279.925,234.273"/>
            <path d="M281.81,226.671 L281.81,226.671"/>
            <path d="M281.81,257.921 L281.81,257.921"/>
            <path d="M281.81,234.273 L281.81,226.671"/>
            <path d="M329.369,234.273 L298.873,234.273"/>
            <path d="M329.369,265.523 L329.369,265.523"/>
            <path d="M308.223,265.523 L281.81,265.523"/>
            <path d="M358.535,265.523 L329.369,265.523"/>
            <path d="M308.223,265.523 L249.095,265.523"/>
            <path d="M248.574,265.523 L247.22,265.523"/>
            <path d="M246.699,265.523 L243.574,265.523"/>
            <path d="M243.054,265.523 L241.179,265.523"/>
            <path d="M240.658,265.523 L237.533,265.523"/>
            <path d="M237.012,265.523 L235.137,265.523"/>
            <path d="M234.616,265.523 L231.491,265.523"/>
            <path d="M230.97,265.523 L229.095,265.523"/>
            <path d="M228.574,265.523 L225.449,265.523"/>
            <path d="M224.929,265.523 L223.574,265.523"/>
            <path d="M223.054,265.523 L173.72,265.523"/>
            <path d="M358.535,265.523 L331.254,265.523"/>
            <path d="M261.404,265.523 L261.404,265.523"/>
            <path d="M200.021,265.523 L173.72,265.523"/>
            <path d="M235.739,265.523 L235.739,265.523"/>
            <path d="M305.589,265.523 L305.589,265.523"/>
            <path d="M110.074,265.523 L745.962,265.523"/>
            <path d="M133.725,265.523 L110.074,265.523"/>
            <path d="M769.613,265.523 L331.254,265.523"/>
            <path d="M261.404,265.523 L261.404,265.523"/>
            <path d="M200.021,265.523 L133.725,265.523"/>
            <path d="M745.962,265.523 L769.613,265.523"/>
        </g>
    <g id="product-c996cbbc-bb88-4d79-a6fb-9643cf457637-body" class="IfcDoor material-MaterialConstituentSet cut" ifc:name="Door" ifc:guid="39bikykuXDUQRxbaFFHNOt">
            <path d="M282.391,257.921 L282.391,235.961 L292.445,235.961 L292.445,257.921 L291.651,257.921 L291.651,236.754 L283.185,236.754 L283.185,257.921 L282.391,257.921"/>
        </g>
        <g id="product-2b02c926-2c59-4910-b1d1-7553fcb5e27f-body" class="IfcFurniture material-null cut" ifc:name="Furniture" ifc:guid="0h0iacB5b94B7HTLFyjU9$">
            <path d="M229.778,227.515 L229.778,233.244 L250.924,233.244 L250.924,227.515 L229.778,227.515"/>
        </g>
        <g id="product-8664b0a8-720c-4d6a-8fad-58ada77de0f8-body" class="IfcFurniture material-null cut" ifc:name="Furniture" ifc:guid="26PB2eSWnDQe_jMAsdVU3u">
            <path d="M243.1,260.8 L243.1,261.4 L247.2,261.4 L247.2,260.8 Z"/><path d="M237.0,260.8 L237.0,261.4 L241.2,261.4 L241.2,260.8 Z"/><path d="M231.0,260.8 L231.0,261.4 L235.1,261.4 L235.1,260.8 Z"/><path d="M224.9,260.8 L224.9,261.4 L229.1,261.4 L229.1,260.8 Z"/></g>
        <g class="0TsSpPkMzFDfd4i$4H06o$ material-BasicWallEXTWALLHORZSIDING12SHEATHING2X6WOODBATT58GYP IfcWall 0rBu7DU3T9eAz_vYxtG8E9 1Od_KOAhDEFw9W7oBlLngv cut 2JRy19lV1F3R9phfBZ$QKz"><path d="M210.1,219.5 L210.1,265.5 L212.0,265.5 L212.0,217.3 Z"/></g><g class="0TsSpPkMzFDfd4i$4H06o$ material-BasicWallEXTWALLHORZSIDING12SHEATHING2X6WOODBATT58GYP IfcWall 0rBu7DU3T9eAz_vYxtG8E9 1Od_KOAhDEFw9W7oBlLngv cut 2JRy19lV1F3R9phfBZ$QKz"><path d="M259.5,217.4 L259.5,265.5 L261.4,265.5 L261.4,219.6 Z"/></g><g class="0TsSpPkMzFDfd4i$4H06o$ material-BasicWallEXTWALLHORZSIDING12SHEATHING2X6WOODBATT58GYP IfcWall 0rBu7DU3T9eAz_vYxtG8E9 1Od_KOAhDEFw9W7oBlLngv cut 2JRy19lV1F3R9phfBZ$QKz"><path d="M329.4,219.8 L329.4,265.5 L331.3,265.5 L331.3,219.8 Z"/></g><g class="0TsSpPkMzFDfd4i$4H06o$ material-BasicWallEXTWALLHORZSIDING12SHEATHING2X6WOODBATT58GYP IfcWall 0rBu7DU3T9eAz_vYxtG8E9 1Od_KOAhDEFw9W7oBlLngv cut 2JRy19lV1F3R9phfBZ$QKz"><path d="M281.8,234.3 L279.9,234.3 L279.9,265.5 L281.8,265.5 Z"/></g><g class="material-null 3qzXf3CFPDvuI0xhdi7zCD IfcSlab cut"><path d="M261.1,238.0 L261.1,233.2 L210.3,233.2 L210.3,238.0 Z"/></g><g class="material-poche 3Mp_Sz8KjCT8jlWpLmSlXg cut IfcWall"><path d="M292.9,257.9 L294.1,257.9 L294.1,226.7 L292.9,226.7 Z"/></g><g class="1gADBKkprAkO9SAUBVZBE2 material-poche 2WsAnjdQjDpBuC3WN6CERO cut 0ifHsRShfFNeZ5KberzUOa IfcSlab"><path d="M261.0,219.1 L261.0,212.3 L235.7,182.8 L210.4,212.4 L210.4,219.3 L235.7,189.7 Z"/></g><g class="1gADBKkprAkO9SAUBVZBE2 material-poche 2WsAnjdQjDpBuC3WN6CERO cut 0ifHsRShfFNeZ5KberzUOa IfcSlab"><path d="M330.8,212.9 L280.4,212.9 L280.4,219.8 L330.8,219.8 Z"/></g></g>
</svg>