<?xml version="1.0" encoding="utf-8" ?>
<svg xmlns="http://www.w3.org/2000/svg" xmlns:ev="http://www.w3.org/2001/xml-events" xmlns:ifc="http://www.ifcopenshell.org/ns" xmlns:xlink="http://www.w3.org/1999/xlink" baseProfile="full" data-scale="1/4&quot;=1'-0&quot;" height="279.39749644495424mm" id="root" version="1.1" viewBox="0 0 479.1667064030965 279.39749644495424" width="479.1667064030965mm">
  <defs/>
  <path class="GlobalId-3QQqiy9rrDthwJXrbXr8p_ IfcAnnotation PredefinedType-SECTIONLEVEL" d="M 741.3663940429688 125.14666748046875 L -300.3002624511719 125.14666748046875"/>
  <text dominant-baseline="baseline" style="font-size: 0;" text-anchor="start" transform="translate(741.3663940429688, 121.64666748046875) rotate(0.0)">
    <tspan class="SECTIONLEVEL" dy="-1em" x="0" y="0">2ND FLOOR</tspan>
    <tspan class="SECTIONLEVEL" dy="0em" x="0" y="0">RL +10' - 3 1/2&quot;</tspan>
  </text>
  <line class="GlobalId-2U1GMjJdj75RpgadBUvdaO IfcAnnotation PredefinedType-SECTION" x1="334.7857971191406" x2="334.7857971191406" y1="-14.030908584594727" y2="247.60244750976562"/>
  <use transform="rotate(90.00000250447816, 334.7857971191406, -14.030908584594727)" x="334.7857971191406" xlink:href="#section-arrow" y="-14.030908584594727"/>
  <use x="334.7857971191406" xlink:href="#section-tag" y="-14.030908584594727"/>
  <text class="SECTION" dominant-baseline="middle" text-anchor="middle" x="334.7857971191406" y="-16.530908584594727">-</text>
  <text class="SECTION" dominant-baseline="middle" text-anchor="middle" x="334.7857971191406" y="-11.530908584594727">-</text>
  <use transform="rotate(90.00000250447816, 334.7857971191406, 247.60244750976562)" x="334.7857971191406" xlink:href="#section-arrow" y="247.60244750976562"/>
  <use x="334.7857971191406" xlink:href="#section-tag" y="247.60244750976562"/>
  <text class="SECTION" dominant-baseline="middle" text-anchor="middle" x="334.7857971191406" y="245.10244750976562">-</text>
  <text class="SECTION" dominant-baseline="middle" text-anchor="middle" x="334.7857971191406" y="250.10244750976562">-</text>
  <line class="GlobalId-3kq_ZfCSP5YgEB7dYZPoR4 IfcAnnotation PredefinedType-SECTION" x1="85.85262298583984" x2="85.85262298583984" y1="250.95095825195312" y2="-28.438941955566406"/>
  <use transform="rotate(-90.00000250447816, 85.85262298583984, 250.95095825195312)" x="85.85262298583984" xlink:href="#section-arrow" y="250.95095825195312"/>
  <use x="85.85262298583984" xlink:href="#section-tag" y="250.95095825195312"/>
  <text class="SECTION" dominant-baseline="middle" text-anchor="middle" x="85.85262298583984" y="248.45095825195312">-</text>
  <text class="SECTION" dominant-baseline="middle" text-anchor="middle" x="85.85262298583984" y="253.45095825195312">-</text>
  <use transform="rotate(-90.00000250447816, 85.85262298583984, -28.438941955566406)" x="85.85262298583984" xlink:href="#section-arrow" y="-28.438941955566406"/>
  <use x="85.85262298583984" xlink:href="#section-tag" y="-28.438941955566406"/>
  <text class="SECTION" dominant-baseline="middle" text-anchor="middle" x="85.85262298583984" y="-30.938941955566406">-</text>
  <text class="SECTION" dominant-baseline="middle" text-anchor="middle" x="85.85262298583984" y="-25.938941955566406">-</text>
  <line class="GlobalId-0L4vyKemr95hml61Q$$Olr IfcAnnotation PredefinedType-SECTION" x1="367.1536560058594" x2="367.1536560058594" y1="-16.559120178222656" y2="262.8307800292969"/>
  <use transform="rotate(90.00000250447816, 367.1536560058594, -16.559120178222656)" x="367.1536560058594" xlink:href="#section-arrow" y="-16.559120178222656"/>
  <use x="367.1536560058594" xlink:href="#section-tag" y="-16.559120178222656"/>
  <text class="SECTION" dominant-baseline="middle" text-anchor="middle" x="367.1536560058594" y="-19.059120178222656">-</text>
  <text class="SECTION" dominant-baseline="middle" text-anchor="middle" x="367.1536560058594" y="-14.059120178222656">-</text>
  <use transform="rotate(90.00000250447816, 367.1536560058594, 262.8307800292969)" x="367.1536560058594" xlink:href="#section-arrow" y="262.8307800292969"/>
  <use x="367.1536560058594" xlink:href="#section-tag" y="262.8307800292969"/>
  <text class="SECTION" dominant-baseline="middle" text-anchor="middle" x="367.1536560058594" y="260.3307800292969">-</text>
  <text class="SECTION" dominant-baseline="middle" text-anchor="middle" x="367.1536560058594" y="265.3307800292969">-</text>
  <path class="GlobalId-1_rk_Guk93lupe$KA3jYVF IfcAnnotation PredefinedType-SECTIONLEVEL" d="M 741.3663940429688 190.49874877929688 L -300.3002624511719 190.49874877929688"/>
  <text dominant-baseline="baseline" style="font-size: 0;" text-anchor="start" transform="translate(741.3663940429688, 186.99874877929688) rotate(0.0)">
    <tspan class="SECTIONLEVEL" dy="-1em" x="0" y="0">1ST FLOOR</tspan>
    <tspan class="SECTIONLEVEL" dy="0em" x="0" y="0">RL +0&quot;</tspan>
  </text>
</svg>
