<?xml version="1.0" encoding="utf-8" ?>
<svg xmlns="http://www.w3.org/2000/svg" xmlns:ev="http://www.w3.org/2001/xml-events" xmlns:ifc="http://www.ifcopenshell.org/ns" xmlns:xlink="http://www.w3.org/1999/xlink" baseProfile="full" data-scale="1/4&quot;=1'-0&quot;" height="395.9502934198652mm" id="root" version="1.1" viewBox="0 0 493.7500158945719 395.9502934198652" width="493.7500158945719mm">
  <defs/>
  <line class="GlobalId-1Kvd4mGxnCj8kH8I0RptG1 IfcAnnotation PredefinedType-SECTION" x1="112.95416259765625" x2="112.95416259765625" y1="357.1016540527344" y2="69.22283935546875"/>
  <use transform="rotate(-90.00000250447816, 112.95416259765625, 357.1016540527344)" x="112.95416259765625" xlink:href="#section-arrow" y="357.1016540527344"/>
  <use x="112.95416259765625" xlink:href="#section-tag" y="357.1016540527344"/>
  <text class="SECTION" dominant-baseline="middle" text-anchor="middle" x="112.95416259765625" y="354.6016540527344">-</text>
  <text class="SECTION" dominant-baseline="middle" text-anchor="middle" x="112.95416259765625" y="359.6016540527344">-</text>
  <use transform="rotate(-90.00000250447816, 112.95416259765625, 69.22283935546875)" x="112.95416259765625" xlink:href="#section-arrow" y="69.22283935546875"/>
  <use x="112.95416259765625" xlink:href="#section-tag" y="69.22283935546875"/>
  <text class="SECTION" dominant-baseline="middle" text-anchor="middle" x="112.95416259765625" y="66.72283935546875">-</text>
  <text class="SECTION" dominant-baseline="middle" text-anchor="middle" x="112.95416259765625" y="71.72283935546875">-</text>
  <path class="GlobalId-2$9Dffijv6NR9lL5Ybd471 IfcAnnotation PredefinedType-SECTIONLEVEL" d="M 767.7083129882812 215.17306518554688 L -273.9583435058594 215.17306518554688"/>
  <text dominant-baseline="baseline" style="font-size: 0;" text-anchor="start" transform="translate(767.7083129882812, 211.67306518554688) rotate(0.0)">
    <tspan class="SECTIONLEVEL" dy="-1em" x="0" y="0">2ND FLOOR</tspan>
    <tspan class="SECTIONLEVEL" dy="0em" x="0" y="0">RL +10' - 3 1/2&quot;</tspan>
  </text>
  <path class="GlobalId-2sXYWAv3v2xBWZcjoWzooI IfcAnnotation PredefinedType-SECTIONLEVEL" d="M 767.7083129882812 280.525146484375 L -273.9583435058594 280.525146484375"/>
  <text dominant-baseline="baseline" style="font-size: 0;" text-anchor="start" transform="translate(767.7083129882812, 277.025146484375) rotate(0.0)">
    <tspan class="SECTIONLEVEL" dy="-1em" x="0" y="0">1ST FLOOR</tspan>
    <tspan class="SECTIONLEVEL" dy="0em" x="0" y="0">RL +0&quot;</tspan>
  </text>
  <line class="GlobalId-0Q1$BPaJf6VBV6xJ2f1gvi IfcAnnotation PredefinedType-SECTION" x1="145.32203674316406" x2="145.32203674316406" y1="337.62890625" y2="75.99551391601562"/>
  <use transform="rotate(-90.00000250447816, 145.32203674316406, 337.62890625)" x="145.32203674316406" xlink:href="#section-arrow" y="337.62890625"/>
  <use x="145.32203674316406" xlink:href="#section-tag" y="337.62890625"/>
  <text class="SECTION" dominant-baseline="middle" text-anchor="middle" x="145.32203674316406" y="335.12890625">-</text>
  <text class="SECTION" dominant-baseline="middle" text-anchor="middle" x="145.32203674316406" y="340.12890625">-</text>
  <use transform="rotate(-90.00000250447816, 145.32203674316406, 75.99551391601562)" x="145.32203674316406" xlink:href="#section-arrow" y="75.99551391601562"/>
  <use x="145.32203674316406" xlink:href="#section-tag" y="75.99551391601562"/>
  <text class="SECTION" dominant-baseline="middle" text-anchor="middle" x="145.32203674316406" y="73.49551391601562">-</text>
  <text class="SECTION" dominant-baseline="middle" text-anchor="middle" x="145.32203674316406" y="78.49551391601562">-</text>
  <line class="GlobalId-1IGm3BBPfFiQRpRnKg$Km4 IfcAnnotation PredefinedType-SECTION" x1="394.25518798828125" x2="394.25518798828125" y1="57.35187911987305" y2="345.21295166015625"/>
  <use transform="rotate(90.00000250447816, 394.25518798828125, 57.35187911987305)" x="394.25518798828125" xlink:href="#section-arrow" y="57.35187911987305"/>
  <use x="394.25518798828125" xlink:href="#section-tag" y="57.35187911987305"/>
  <text class="SECTION" dominant-baseline="middle" text-anchor="middle" x="394.25518798828125" y="54.85187911987305">-</text>
  <text class="SECTION" dominant-baseline="middle" text-anchor="middle" x="394.25518798828125" y="59.85187911987305">-</text>
  <use transform="rotate(90.00000250447816, 394.25518798828125, 345.21295166015625)" x="394.25518798828125" xlink:href="#section-arrow" y="345.21295166015625"/>
  <use x="394.25518798828125" xlink:href="#section-tag" y="345.21295166015625"/>
  <text class="SECTION" dominant-baseline="middle" text-anchor="middle" x="394.25518798828125" y="342.71295166015625">-</text>
  <text class="SECTION" dominant-baseline="middle" text-anchor="middle" x="394.25518798828125" y="347.71295166015625">-</text>
</svg>
