<svg xmlns="http://www.w3.org/2000/svg" xmlns:xlink="http://www.w3.org/1999/xlink" xmlns:ifc="http://www.ifcopenshell.org/ns" width="525mm" height="259.35mm" viewBox="0 0 525 259.35">
    <defs>
        <marker id="arrowend" markerWidth="10" markerHeight="7" refX="10" refY="3.5" orient="auto">
          <polygon points="0 0, 10 3.5, 0 7"/>
        </marker>
        <marker id="arrowstart" markerWidth="10" markerHeight="7" refX="0" refY="3.5" orient="auto">
          <polygon points="10 0, 0 3.5, 10 7"/>
        </marker>
    </defs>
    <g ifc:name="Elevation SECTION - WEST" class="section" ifc:plane="[[-0.000000,0.000000,1.000000,24.330040],[1.000000,0.000000,0.000000,0.000001],[0.000000,1.000000,-0.000000,-0.000001],[0.000000,0.000000,0.000000,1.000000]]" ifc:matrix3="[[20.833334,0.000000,1976.483786],[0.000000,20.833334,212.225039],[0.000000,0.000000,1.000000]]">
        <g id="product-cba3dd8e-5fb7-47f4-beb4-f2c950e93d3d" class="IfcWindow material-MaterialConstituentSet projection" ifc:name="Window" ifc:guid="3BezsENxT7zBwqyibGwJqz">
            <path d="M72.0585,205.453 L72.0585,205.875"/>
            <path d="M72.0585,168.04 L72.0585,168.461"/>
            <path d="M72.0585,168.461 L72.0585,168.461"/>
            <path d="M72.0585,168.461 L72.0585,168.461"/>
            <path d="M72.0585,168.461 L72.0585,168.461"/>
            <path d="M72.0585,205.453 L72.0585,205.453"/>
            <path d="M72.0585,205.453 L72.0585,205.453"/>
            <path d="M72.0585,205.453 L72.0585,205.453"/>
            <path d="M72.0585,168.461 L72.0585,205.453"/>
            <path d="M72.0585,205.453 L72.0585,205.453"/>
            <path d="M72.0585,168.461 L72.0585,168.461"/>
            <path d="M72.0585,168.04 L72.0585,205.875"/>
            <path d="M72.0585,205.875 L72.0585,205.875"/>
            <path d="M72.0585,205.875 L72.0585,205.875"/>
            <path d="M72.0585,205.875 L72.0585,205.875"/>
            <path d="M72.0585,205.875 L72.0585,205.875"/>
            <path d="M72.0585,168.04 L72.0585,205.875"/>
            <path d="M73.2597,205.875 L72.0585,205.875"/>
            <path d="M73.2597,168.04 L73.2597,205.875"/>
            <path d="M73.2597,168.04 L72.0585,168.04"/>
            <path d="M72.0585,168.04 L72.0585,168.04"/>
            <path d="M72.0585,168.04 L72.0585,168.04"/>
            <path d="M72.0585,168.04 L72.0585,168.04"/>
            <path d="M72.0585,168.04 L72.0585,168.04"/>
            <path d="M73.7783,169.546 L73.7783,168.04"/>
            <path d="M73.7783,205.875 L73.7783,204.368"/>
            <path d="M73.2597,169.546 L73.7783,169.546"/>
            <path d="M73.7783,169.546 L73.7783,169.546"/>
            <path d="M73.7783,204.368 L73.7783,204.368"/>
            <path d="M73.7783,204.368 L73.2597,204.368"/>
            <path d="M73.7783,204.368 L73.2597,204.368"/>
            <path d="M73.7783,204.368 L73.7783,169.546"/>
            <path d="M73.2597,169.546 L73.7783,169.546"/>
            <path d="M73.7783,168.04 L73.7783,169.546"/>
            <path d="M73.7783,204.368 L73.7783,205.875"/>
            <path d="M73.2597,205.875 L73.7783,205.875"/>
            <path d="M73.7783,168.04 L73.2597,168.04"/>
        </g>
    <g id="product-c7193b98-864c-4fae-81f0-776955dd3aa7" class="IfcWindow material-MaterialConstituentSet projection" ifc:name="Window" ifc:guid="376JkOXanFhe7mTsbLtJgd">
            <path d="M175.643,168.461 L175.643,168.04"/>
            <path d="M175.643,205.875 L175.643,205.453"/>
            <path d="M174.442,168.461 L174.442,168.461"/>
            <path d="M175.643,168.461 L175.643,168.461"/>
            <path d="M175.643,168.461 L175.643,168.461"/>
            <path d="M174.442,168.461 L174.442,168.461"/>
            <path d="M175.643,205.453 L175.643,168.461"/>
            <path d="M174.442,168.461 L174.442,168.461"/>
            <path d="M175.643,168.461 L175.643,168.461"/>
            <path d="M174.442,205.453 L174.442,204.368"/>
            <path d="M174.442,169.546 L174.442,168.461"/>
            <path d="M174.442,205.453 L175.643,205.453"/>
            <path d="M175.643,205.453 L175.643,205.453"/>
            <path d="M175.643,205.453 L175.643,205.453"/>
            <path d="M174.442,205.453 L174.442,205.453"/>
            <path d="M174.442,205.875 L175.643,205.875"/>
            <path d="M175.643,205.875 L175.643,205.875"/>
            <path d="M175.643,168.04 L175.643,168.461"/>
            <path d="M175.643,205.453 L175.643,205.875"/>
            <path d="M175.18,205.875 L175.643,205.875"/>
            <path d="M175.18,168.04 L175.643,168.04"/>
            <path d="M175.643,168.04 L175.643,168.04"/>
            <path d="M175.643,168.04 L174.442,168.04"/>
            <path d="M174.442,168.04 L174.442,168.461"/>
            <path d="M174.442,205.453 L174.442,205.875"/>
            <path d="M173.923,204.368 L173.923,205.875"/>
            <path d="M173.923,168.04 L173.923,169.546"/>
            <path d="M173.923,169.546 L174.442,169.546"/>
            <path d="M174.442,169.546 L174.442,169.546"/>
            <path d="M173.923,169.546 L173.923,169.546"/>
            <path d="M174.442,204.368 L174.442,169.546"/>
            <path d="M173.923,169.546 L174.442,169.546"/>
            <path d="M173.923,204.368 L173.923,169.546"/>
            <path d="M173.923,204.368 L173.923,204.368"/>
            <path d="M173.923,204.368 L174.442,204.368"/>
            <path d="M174.442,204.368 L174.442,204.368"/>
            <path d="M174.442,204.368 L173.923,204.368"/>
            <path d="M173.923,205.875 L174.442,205.875"/>
            <path d="M173.923,168.04 L173.923,205.875"/>
            <path d="M174.442,168.04 L173.923,168.04"/>
            <path d="M174.442,169.546 L174.442,169.687"/>
            <path d="M174.442,204.228 L174.442,204.368"/>
            <path d="M174.442,169.687 L174.442,169.687"/>
            <path d="M174.442,169.687 L174.442,169.687"/>
            <path d="M174.442,169.687 L174.442,169.687"/>
            <path d="M174.442,169.687 L174.442,169.687"/>
            <path d="M174.442,204.228 L174.442,169.687"/>
            <path d="M174.442,204.228 L174.442,204.228"/>
            <path d="M174.442,204.228 L174.442,204.228"/>
            <path d="M174.442,204.228 L174.442,204.228"/>
            <path d="M174.442,204.228 L174.442,204.228"/>
            <path d="M175.643,168.461 L175.643,205.453"/>
            <path d="M174.442,168.461 L174.442,205.453"/>
            <path d="M174.442,205.453 L174.442,205.453"/>
            <path d="M174.442,205.453 L175.643,205.453"/>
            <path d="M174.442,205.453 L174.442,205.453"/>
            <path d="M174.442,205.453 L174.442,205.453"/>
            <path d="M174.442,168.461 L174.442,169.546"/>
            <path d="M174.442,204.368 L174.442,205.453"/>
            <path d="M174.442,168.461 L174.442,168.461"/>
            <path d="M174.442,168.461 L174.442,168.461"/>
            <path d="M175.643,168.461 L174.442,168.461"/>
            <path d="M174.442,168.461 L174.442,168.461"/>
            <path d="M174.442,168.461 L174.442,168.461"/>
        </g>
        <g id="product-d56e4a2e-68e1-4448-933b-5475d196f89c" class="IfcWall material-BasicWallEXTWALLHORZSIDING12SHEATHING2X6WOODBATT58GYP projection" ifc:name="Wall" ifc:guid="3LRaekQE54I9CxL7NHblYS">
            <path d="M173.857,212.225 L173.857,212.225"/>
        </g>
        <g id="product-fbfb4f22-0e26-4aa7-8a51-bdb87e4a3be2" class="IfcDoor material-MaterialConstituentSet projection" ifc:name="Door" ifc:guid="3x_qyY3YPAfufHlRX_IZlY">
            <path d="M297.087,173.927 L297.087,173.927"/>
            <path d="M297.087,207.463 L297.087,207.463"/>
            <path d="M284.585,173.927 L284.585,173.927"/>
            <path d="M284.585,207.463 L284.585,207.463"/>
            <path d="M275.813,212.623 L275.813,212.49"/>
            <path d="M299.311,212.623 L299.311,212.49"/>
            <path d="M275.36,171.25 L299.764,171.25"/>
            <path d="M299.764,212.623 L299.764,171.25"/>
            <path d="M300.063,212.623 L300.063,170.95"/>
            <path d="M275.06,170.95 L300.063,170.95"/>
            <path d="M275.06,212.623 L275.06,170.95"/>
            <path d="M275.36,212.623 L275.36,171.25"/>
            <path d="M290.538,207.463 L297.087,207.463"/>
            <path d="M290.538,173.927 L290.538,207.463"/>
            <path d="M297.087,173.927 L290.538,173.927"/>
            <path d="M297.087,173.927 L297.087,207.463"/>
            <path d="M299.666,212.49 L288.62,212.49"/>
            <path d="M299.666,171.347 L299.666,212.49"/>
            <path d="M299.666,171.347 L288.62,171.347"/>
            <path d="M297.087,173.927 L297.087,173.927"/>
            <path d="M299.764,212.126 L299.764,212.126"/>
            <path d="M300.063,212.623 L275.06,212.623"/>
            <path d="M300.063,213.019 L275.06,213.019"/>
            <path d="M275.06,213.019 L275.06,212.623"/>
            <path d="M275.06,213.019 L275.06,213.019"/>
            <path d="M300.063,212.623 L300.063,213.019"/>
            <path d="M275.813,212.623 L275.813,212.49"/>
            <path d="M299.311,212.623 L299.311,212.49"/>
            <path d="M284.585,173.927 L284.585,173.927"/>
            <path d="M284.585,173.927 L284.585,207.463"/>
            <path d="M278.037,207.463 L284.585,207.463"/>
            <path d="M278.037,173.927 L278.037,207.463"/>
            <path d="M278.037,173.927 L284.585,173.927"/>
            <path d="M275.457,171.347 L275.457,212.49"/>
            <path d="M286.503,212.49 L275.457,212.49"/>
            <path d="M275.457,171.347 L286.503,171.347"/>
            <path d="M286.503,171.347 L286.503,212.49"/>
            <path d="M287.562,212.49 L286.503,212.49"/>
            <path d="M286.503,212.49 L286.503,212.49"/>
            <path d="M286.503,212.49 L286.503,212.49"/>
            <path d="M286.503,171.347 L286.503,171.347"/>
            <path d="M287.562,171.347 L286.503,171.347"/>
            <path d="M288.62,171.347 L288.62,212.49"/>
            <path d="M287.562,212.49 L288.62,212.49"/>
            <path d="M287.562,212.49 L287.562,212.49"/>
            <path d="M287.562,171.347 L287.562,171.347"/>
            <path d="M287.562,171.347 L288.62,171.347"/>
            <path d="M293.581,173.927 L293.581,207.463"/>
            <path d="M294.044,173.927 L294.044,207.463"/>
            <path d="M297.087,190.463 L290.538,190.463"/>
            <path d="M297.087,190.926 L290.538,190.926"/>
            <path d="M281.08,173.927 L281.08,207.463"/>
            <path d="M281.543,173.927 L281.543,207.463"/>
            <path d="M284.585,190.463 L278.037,190.463"/>
            <path d="M284.585,190.926 L278.037,190.926"/>
        </g>
        <g id="product-18a64663-08ec-4d83-a756-8f88eae9567a" class="IfcWindow material-MaterialConstituentSet projection" ifc:name="Window" ifc:guid="0OfaPZ2EnDWwTMZuZgwLPw">
            <path d="M303.827,172.597 L303.827,172.597"/>
            <path d="M303.827,207.138 L303.827,207.138"/>
            <path d="M309.793,172.597 L309.793,172.597"/>
            <path d="M309.793,207.138 L309.793,207.138"/>
            <path d="M311.019,208.364 L311.44,208.785"/>
            <path d="M302.602,208.364 L302.18,208.785"/>
            <path d="M302.18,170.95 L302.18,208.785"/>
            <path d="M311.44,208.785 L302.18,208.785"/>
            <path d="M302.18,208.785 L302.18,208.785"/>
            <path d="M311.44,170.95 L311.44,208.785"/>
            <path d="M302.18,170.95 L311.44,170.95"/>
            <path d="M311.44,170.95 L311.44,170.95"/>
            <path d="M303.827,172.597 L309.793,172.597"/>
            <path d="M303.827,172.597 L303.827,172.597"/>
            <path d="M309.793,172.597 L309.793,172.597"/>
            <path d="M309.793,207.138 L309.793,172.597"/>
            <path d="M303.827,207.138 L309.793,207.138"/>
            <path d="M303.827,207.138 L303.827,207.138"/>
            <path d="M309.793,207.138 L309.793,207.138"/>
            <path d="M303.827,172.597 L303.827,207.138"/>
        </g>
        <g id="product-2a2c6708-c019-4476-bc4a-7ac4bfd25a24" class="IfcWindow material-MaterialConstituentSet projection" ifc:name="Window" ifc:guid="0gB6S8m1b4ThnAUiI$qbea">
            <path d="M240.328,172.597 L240.328,172.597"/>
            <path d="M240.328,207.138 L240.328,207.138"/>
            <path d="M246.293,172.597 L246.293,172.597"/>
            <path d="M246.293,207.138 L246.293,207.138"/>
            <path d="M247.519,208.364 L247.941,208.785"/>
            <path d="M239.102,208.364 L238.68,208.785"/>
            <path d="M238.68,170.95 L238.68,208.785"/>
            <path d="M247.941,208.785 L238.68,208.785"/>
            <path d="M238.68,208.785 L238.68,208.785"/>
            <path d="M247.941,170.95 L247.941,208.785"/>
            <path d="M238.68,170.95 L247.941,170.95"/>
            <path d="M247.941,170.95 L247.941,170.95"/>
            <path d="M240.328,172.597 L246.293,172.597"/>
            <path d="M240.328,172.597 L240.328,172.597"/>
            <path d="M246.293,172.597 L246.293,172.597"/>
            <path d="M246.293,207.138 L246.293,172.597"/>
            <path d="M240.328,207.138 L246.293,207.138"/>
            <path d="M240.328,207.138 L240.328,207.138"/>
            <path d="M246.293,207.138 L246.293,207.138"/>
            <path d="M240.328,172.597 L240.328,207.138"/>
        </g>
        <g id="product-dbaa1301-9330-4adf-b6e4-427af65f7d8c" class="IfcWindow material-MaterialConstituentSet projection" ifc:name="Window" ifc:guid="3RgXC1ap1AtxRaGdhsNtsC">
            <path d="M253.028,172.597 L253.028,172.597"/>
            <path d="M253.028,207.138 L253.028,207.138"/>
            <path d="M258.993,172.597 L258.993,172.597"/>
            <path d="M258.993,207.138 L258.993,207.138"/>
            <path d="M260.219,208.364 L260.641,208.785"/>
            <path d="M251.802,208.364 L251.38,208.785"/>
            <path d="M251.38,170.95 L251.38,208.785"/>
            <path d="M260.641,208.785 L251.38,208.785"/>
            <path d="M251.38,208.785 L251.38,208.785"/>
            <path d="M260.641,170.95 L260.641,208.785"/>
            <path d="M251.38,170.95 L260.641,170.95"/>
            <path d="M260.641,170.95 L260.641,170.95"/>
            <path d="M253.028,172.597 L258.993,172.597"/>
            <path d="M253.028,172.597 L253.028,172.597"/>
            <path d="M258.993,172.597 L258.993,172.597"/>
            <path d="M258.993,207.138 L258.993,172.597"/>
            <path d="M253.028,207.138 L258.993,207.138"/>
            <path d="M253.028,207.138 L253.028,207.138"/>
            <path d="M258.993,207.138 L258.993,207.138"/>
            <path d="M253.028,172.597 L253.028,207.138"/>
        </g>
        <g id="product-bf9a9fa8-1795-43ac-a132-4281f3a7b51b" class="IfcWindow material-MaterialConstituentSet projection" ifc:name="Window" ifc:guid="2$cf_e5vL3hA4oGe7pfxKR">
            <path d="M265.727,172.597 L265.727,172.597"/>
            <path d="M265.727,207.138 L265.727,207.138"/>
            <path d="M271.693,172.597 L271.693,172.597"/>
            <path d="M271.693,207.138 L271.693,207.138"/>
            <path d="M272.919,208.364 L273.341,208.785"/>
            <path d="M264.502,208.364 L264.08,208.785"/>
            <path d="M264.08,170.95 L264.08,208.785"/>
            <path d="M273.341,208.785 L264.08,208.785"/>
            <path d="M264.08,208.785 L264.08,208.785"/>
            <path d="M273.341,170.95 L273.341,208.785"/>
            <path d="M264.08,170.95 L273.341,170.95"/>
            <path d="M273.341,170.95 L273.341,170.95"/>
            <path d="M265.727,172.597 L271.693,172.597"/>
            <path d="M265.727,172.597 L265.727,172.597"/>
            <path d="M271.693,172.597 L271.693,172.597"/>
            <path d="M271.693,207.138 L271.693,172.597"/>
            <path d="M265.727,207.138 L271.693,207.138"/>
            <path d="M265.727,207.138 L265.727,207.138"/>
            <path d="M271.693,207.138 L271.693,207.138"/>
            <path d="M265.727,172.597 L265.727,207.138"/>
        </g>
        <g id="product-ab5297d4-ac14-4bc6-a626-adb13c032c2f" class="IfcWindow material-MaterialConstituentSet projection" ifc:name="Window" ifc:guid="2hKfVKh1HBngOchR4y0oml">
            <path d="M316.527,172.597 L316.527,172.597"/>
            <path d="M316.527,207.138 L316.527,207.138"/>
            <path d="M322.493,172.597 L322.493,172.597"/>
            <path d="M322.493,207.138 L322.493,207.138"/>
            <path d="M323.719,208.364 L324.14,208.785"/>
            <path d="M315.302,208.364 L314.88,208.785"/>
            <path d="M314.88,170.95 L314.88,208.785"/>
            <path d="M324.14,208.785 L314.88,208.785"/>
            <path d="M314.88,208.785 L314.88,208.785"/>
            <path d="M324.14,170.95 L324.14,208.785"/>
            <path d="M314.88,170.95 L324.14,170.95"/>
            <path d="M324.14,170.95 L324.14,170.95"/>
            <path d="M316.527,172.597 L322.493,172.597"/>
            <path d="M316.527,172.597 L316.527,172.597"/>
            <path d="M322.493,172.597 L322.493,172.597"/>
            <path d="M322.493,207.138 L322.493,172.597"/>
            <path d="M316.527,207.138 L322.493,207.138"/>
            <path d="M316.527,207.138 L316.527,207.138"/>
            <path d="M322.493,207.138 L322.493,207.138"/>
            <path d="M316.527,172.597 L316.527,207.138"/>
        </g>
        <g id="product-c729ead3-f2f3-4d36-8b6f-25720f8bbbc7" class="IfcWindow material-MaterialConstituentSet projection" ifc:name="Window" ifc:guid="37AUhJylDDDejl9N8FYxl7">
            <path d="M240.328,157.252 L240.328,157.252"/>
            <path d="M240.328,166.392 L240.328,166.392"/>
            <path d="M246.293,157.252 L246.293,157.252"/>
            <path d="M246.293,166.392 L246.293,166.392"/>
            <path d="M247.519,167.618 L247.941,168.04"/>
            <path d="M239.102,167.618 L238.68,168.04"/>
            <path d="M238.68,155.604 L238.68,168.04"/>
            <path d="M247.941,168.04 L238.68,168.04"/>
            <path d="M238.68,168.04 L238.68,168.04"/>
            <path d="M247.941,155.604 L247.941,168.04"/>
            <path d="M238.68,155.604 L247.941,155.604"/>
            <path d="M247.941,155.604 L247.941,155.604"/>
            <path d="M240.328,157.252 L246.293,157.252"/>
            <path d="M246.293,166.392 L246.293,157.252"/>
            <path d="M240.328,166.392 L246.293,166.392"/>
            <path d="M240.328,166.392 L240.328,166.392"/>
            <path d="M246.293,166.392 L246.293,166.392"/>
            <path d="M240.328,157.252 L240.328,166.392"/>
            <path d="M243.509,166.392 L243.509,157.252"/>
            <path d="M243.112,157.252 L243.112,166.392"/>
            <path d="M240.328,161.623 L246.293,161.623"/>
            <path d="M240.328,162.02 L246.293,162.02"/>
            <path d="M240.328,161.623 L240.328,161.623"/>
            <path d="M240.328,162.02 L240.328,162.02"/>
        </g>
        <g id="product-00d05536-3ce1-4f6e-a4a8-389a96a8376d" class="IfcWindow material-MaterialConstituentSet projection" ifc:name="Window" ifc:guid="00q5KsFE5FRgIeE9gMg3Tj">
            <path d="M253.028,157.252 L253.028,157.252"/>
            <path d="M253.028,166.392 L253.028,166.392"/>
            <path d="M258.993,157.252 L258.993,157.252"/>
            <path d="M258.993,166.392 L258.993,166.392"/>
            <path d="M260.219,167.618 L260.641,168.04"/>
            <path d="M251.802,167.618 L251.38,168.04"/>
            <path d="M251.38,155.604 L251.38,168.04"/>
            <path d="M260.641,168.04 L251.38,168.04"/>
            <path d="M251.38,168.04 L251.38,168.04"/>
            <path d="M260.641,155.604 L260.641,168.04"/>
            <path d="M251.38,155.604 L260.641,155.604"/>
            <path d="M260.641,155.604 L260.641,155.604"/>
            <path d="M253.028,157.252 L258.993,157.252"/>
            <path d="M258.993,166.392 L258.993,157.252"/>
            <path d="M253.028,166.392 L258.993,166.392"/>
            <path d="M253.028,166.392 L253.028,166.392"/>
            <path d="M258.993,166.392 L258.993,166.392"/>
            <path d="M253.028,157.252 L253.028,166.392"/>
            <path d="M256.209,166.392 L256.209,157.252"/>
            <path d="M255.812,157.252 L255.812,166.392"/>
            <path d="M253.028,161.623 L258.993,161.623"/>
            <path d="M253.028,162.02 L258.993,162.02"/>
            <path d="M253.028,161.623 L253.028,161.623"/>
            <path d="M253.028,162.02 L253.028,162.02"/>
        </g>
        <g id="product-f78ad7c8-4890-4c27-bd62-7c6797007942" class="IfcWindow material-MaterialConstituentSet projection" ifc:name="Window" ifc:guid="3tYjV8I91C9xrYV6UN07b2">
            <path d="M265.727,157.252 L265.727,157.252"/>
            <path d="M265.727,166.392 L265.727,166.392"/>
            <path d="M271.693,157.252 L271.693,157.252"/>
            <path d="M271.693,166.392 L271.693,166.392"/>
            <path d="M272.919,167.618 L273.341,168.04"/>
            <path d="M264.502,167.618 L264.08,168.04"/>
            <path d="M264.08,155.604 L264.08,168.04"/>
            <path d="M273.341,168.04 L264.08,168.04"/>
            <path d="M264.08,168.04 L264.08,168.04"/>
            <path d="M273.341,155.604 L273.341,168.04"/>
            <path d="M264.08,155.604 L273.341,155.604"/>
            <path d="M273.341,155.604 L273.341,155.604"/>
            <path d="M265.727,157.252 L271.693,157.252"/>
            <path d="M271.693,166.392 L271.693,157.252"/>
            <path d="M265.727,166.392 L271.693,166.392"/>
            <path d="M265.727,166.392 L265.727,166.392"/>
            <path d="M271.693,166.392 L271.693,166.392"/>
            <path d="M265.727,157.252 L265.727,166.392"/>
            <path d="M268.909,166.392 L268.909,157.252"/>
            <path d="M268.512,157.252 L268.512,166.392"/>
            <path d="M265.727,161.623 L271.693,161.623"/>
            <path d="M265.727,162.02 L271.693,162.02"/>
            <path d="M265.727,161.623 L265.727,161.623"/>
            <path d="M265.727,162.02 L265.727,162.02"/>
        </g>
        <g id="product-4bd11e28-b32f-490f-b0c4-6b9f169d6786" class="IfcWindow material-MaterialConstituentSet projection" ifc:name="Window" ifc:guid="1BqHueioz93x34QvyMdMU6">
            <path d="M278.427,157.252 L278.427,157.252"/>
            <path d="M278.427,166.392 L278.427,166.392"/>
            <path d="M284.393,157.252 L284.393,157.252"/>
            <path d="M284.393,166.392 L284.393,166.392"/>
            <path d="M285.619,167.618 L286.04,168.04"/>
            <path d="M277.202,167.618 L276.78,168.04"/>
            <path d="M276.78,155.604 L276.78,168.04"/>
            <path d="M286.04,168.04 L276.78,168.04"/>
            <path d="M276.78,168.04 L276.78,168.04"/>
            <path d="M286.04,155.604 L286.04,168.04"/>
            <path d="M276.78,155.604 L286.04,155.604"/>
            <path d="M286.04,155.604 L286.04,155.604"/>
            <path d="M278.427,157.252 L284.393,157.252"/>
            <path d="M284.393,166.392 L284.393,157.252"/>
            <path d="M278.427,166.392 L284.393,166.392"/>
            <path d="M278.427,166.392 L278.427,166.392"/>
            <path d="M284.393,166.392 L284.393,166.392"/>
            <path d="M278.427,157.252 L278.427,166.392"/>
            <path d="M281.609,166.392 L281.609,157.252"/>
            <path d="M281.212,157.252 L281.212,166.392"/>
            <path d="M278.427,161.623 L284.393,161.623"/>
            <path d="M278.427,162.02 L284.393,162.02"/>
            <path d="M278.427,161.623 L278.427,161.623"/>
            <path d="M278.427,162.02 L278.427,162.02"/>
        </g>
        <g id="product-c51e9f01-6063-4349-bbac-896bb275fbdd" class="IfcWindow material-MaterialConstituentSet projection" ifc:name="Window" ifc:guid="357fy1O6D3IRkiYMkoTVlT">
            <path d="M291.127,157.252 L291.127,157.252"/>
            <path d="M291.127,166.392 L291.127,166.392"/>
            <path d="M297.093,157.252 L297.093,157.252"/>
            <path d="M297.093,166.392 L297.093,166.392"/>
            <path d="M298.319,167.618 L298.74,168.04"/>
            <path d="M289.902,167.618 L289.48,168.04"/>
            <path d="M289.48,155.604 L289.48,168.04"/>
            <path d="M298.74,168.04 L289.48,168.04"/>
            <path d="M289.48,168.04 L289.48,168.04"/>
            <path d="M298.74,155.604 L298.74,168.04"/>
            <path d="M289.48,155.604 L298.74,155.604"/>
            <path d="M298.74,155.604 L298.74,155.604"/>
            <path d="M291.127,157.252 L297.093,157.252"/>
            <path d="M297.093,166.392 L297.093,157.252"/>
            <path d="M291.127,166.392 L297.093,166.392"/>
            <path d="M291.127,166.392 L291.127,166.392"/>
            <path d="M297.093,166.392 L297.093,166.392"/>
            <path d="M291.127,157.252 L291.127,166.392"/>
            <path d="M294.309,166.392 L294.309,157.252"/>
            <path d="M293.912,157.252 L293.912,166.392"/>
            <path d="M291.127,161.623 L297.093,161.623"/>
            <path d="M291.127,162.02 L297.093,162.02"/>
            <path d="M291.127,161.623 L291.127,161.623"/>
            <path d="M291.127,162.02 L291.127,162.02"/>
        </g>
        <g id="product-bff8e744-c891-4216-8d75-776c51988b69" class="IfcWindow material-MaterialConstituentSet projection" ifc:name="Window" ifc:guid="2$_ET4o9525errTsnHc8jf">
            <path d="M303.827,157.252 L303.827,157.252"/>
            <path d="M303.827,166.392 L303.827,166.392"/>
            <path d="M309.793,157.252 L309.793,157.252"/>
            <path d="M309.793,166.392 L309.793,166.392"/>
            <path d="M311.019,167.618 L311.44,168.04"/>
            <path d="M302.601,167.618 L302.18,168.04"/>
            <path d="M302.18,155.604 L302.18,168.04"/>
            <path d="M311.44,168.04 L302.18,168.04"/>
            <path d="M302.18,168.04 L302.18,168.04"/>
            <path d="M311.44,155.604 L311.44,168.04"/>
            <path d="M302.18,155.604 L311.44,155.604"/>
            <path d="M311.44,155.604 L311.44,155.604"/>
            <path d="M303.827,157.252 L309.793,157.252"/>
            <path d="M309.793,166.392 L309.793,157.252"/>
            <path d="M303.827,166.392 L309.793,166.392"/>
            <path d="M303.827,166.392 L303.827,166.392"/>
            <path d="M309.793,166.392 L309.793,166.392"/>
            <path d="M303.827,157.252 L303.827,166.392"/>
            <path d="M307.008,166.392 L307.008,157.252"/>
            <path d="M306.612,157.252 L306.612,166.392"/>
            <path d="M303.827,161.623 L309.793,161.623"/>
            <path d="M303.827,162.02 L309.793,162.02"/>
            <path d="M303.827,161.623 L303.827,161.623"/>
            <path d="M303.827,162.02 L303.827,162.02"/>
        </g>
        <g id="product-a3d94521-7b5d-4b28-9071-75e870f16140" class="IfcWindow material-MaterialConstituentSet projection" ifc:name="Window" ifc:guid="2ZsKKXUrrBA91nTUXmyM50">
            <path d="M316.527,157.252 L316.527,157.252"/>
            <path d="M316.527,166.392 L316.527,166.392"/>
            <path d="M322.493,157.252 L322.493,157.252"/>
            <path d="M322.493,166.392 L322.493,166.392"/>
            <path d="M323.718,167.618 L324.14,168.04"/>
            <path d="M315.301,167.618 L314.88,168.04"/>
            <path d="M314.88,155.604 L314.88,168.04"/>
            <path d="M324.14,168.04 L314.88,168.04"/>
            <path d="M314.88,168.04 L314.88,168.04"/>
            <path d="M324.14,155.604 L324.14,168.04"/>
            <path d="M314.88,155.604 L324.14,155.604"/>
            <path d="M324.14,155.604 L324.14,155.604"/>
            <path d="M316.527,157.252 L322.493,157.252"/>
            <path d="M322.493,166.392 L322.493,157.252"/>
            <path d="M316.527,166.392 L322.493,166.392"/>
            <path d="M316.527,166.392 L316.527,166.392"/>
            <path d="M322.493,166.392 L322.493,166.392"/>
            <path d="M316.527,157.252 L316.527,166.392"/>
            <path d="M319.708,166.392 L319.708,157.252"/>
            <path d="M319.311,157.252 L319.311,166.392"/>
            <path d="M316.527,161.623 L322.493,161.623"/>
            <path d="M316.527,162.02 L322.493,162.02"/>
            <path d="M316.527,161.623 L316.527,161.623"/>
            <path d="M316.527,162.02 L316.527,162.02"/>
        </g>
        <g id="product-67a4e958-0c79-49a2-9211-813f72886b5d" class="IfcDoor material-MaterialConstituentSet projection" ifc:name="Door" ifc:guid="1dfEbO37b9ef8HWJzoY6jT">
            <path d="M327.58,170.95 L328.01,170.95"/>
            <path d="M328.01,213.019 L328.01,170.95"/>
            <path d="M328.01,213.019 L326.607,213.019"/>
            <path d="M326.607,213.019 L326.607,212.225"/>
            <path d="M328.01,212.623 L328.184,212.623"/>
            <path d="M328.01,213.019 L328.184,213.019"/>
            <path d="M328.184,213.019 L328.184,212.623"/>
            <path d="M328.01,212.623 L328.01,213.019"/>
        </g>
        <g id="product-2876c687-6df1-4dda-9fe8-772c45bd925b" class="IfcSlab material-5Fill projection" ifc:name="Slab" ifc:guid="0eTiQ7RV5Dsf$eTon5lP9R">
            <path d="M353.774,145.55 L353.774,148.725"/>
            <path d="M353.774,148.725 L441.086,148.725"/>
            <path d="M441.086,148.725 L441.086,145.55"/>
            <path d="M353.774,145.55 L441.086,145.55"/>
        </g>
        <g id="product-baa014f2-9f61-44b0-bab9-ffd6f3d98232" class="IfcWall material-BasicWallEXTWALLHORZSIDING12SHEATHING2X6WOODBATT58GYP projection" ifc:name="Wall" ifc:guid="2we1Jods54iBgv$zRpsO8o">
            <path d="M352.451,127.621 L356.221,123.85"/>
            <path d="M352.451,212.225 L352.451,127.621"/>
            <path d="M356.221,212.225 L352.451,212.225"/>
            <path d="M356.221,123.85 L356.221,212.225"/>
            <path d="M353.774,212.225 L353.509,212.225"/>
        </g>
        <g id="product-42ed5349-15ae-4f2d-93ce-9c6a17d61433" class="IfcWall material-BasicWallEXTWALLHORZSIDING12SHEATHING2X6WOODBATT58GYP projection" ifc:name="Wall" ifc:guid="12xLD95QvFBPFEd6eNrXGp">
            <path d="M442.409,127.621 L442.409,212.225"/>
            <path d="M438.638,123.85 L442.409,127.621"/>
            <path d="M438.638,212.225 L438.638,123.85"/>
            <path d="M442.409,212.225 L438.638,212.225"/>
        </g>
        <g id="product-97f21bd0-bd54-4f58-a44b-b52572e0865a" class="IfcWindow material-MaterialConstituentSet projection" ifc:name="Window" ifc:guid="2NyXlGlLHFMAHBjILou8PQ">
            <path d="M328.043,155.604 L328.043,168.04"/>
            <path d="M327.58,168.04 L328.043,168.04"/>
            <path d="M327.58,155.604 L328.043,155.604"/>
        </g>
        <g id="product-9a5703ad-eef0-46de-83b7-48afb289c687" class="IfcWall material-BasicWallEXTWALLHORZSIDING12SHEATHING2X6WOODBATT58GYP projection" ifc:name="Wall" ifc:guid="2QLmEjxl16teEtIA_oYSQ7">
            <path d="M397.43,212.225 L397.43,212.225"/>
            <path d="M397.43,209.05 L397.43,148.725"/>
            <path d="M397.43,145.55 L397.43,87.6335"/>
            <path d="M397.43,82.6414 L397.43,82.6415"/>
            <path d="M352.451,168.304 L352.451,127.621"/>
            <path d="M397.43,212.225 L353.509,212.225"/>
        </g>
        <g id="product-496d88a9-04d4-4a3d-8776-a98d22a19341" class="IfcWall material-BasicWallEXTWALLHORZSIDING12SHEATHING2X6WOODBATT58GYP projection" ifc:name="Wall" ifc:guid="19ROYf1DHAFOTsgOqYePD1">
            <path d="M442.409,212.225 L442.409,127.621"/>
            <path d="M442.409,127.621 L442.409,127.621"/>
            <path d="M438.638,123.85 L438.638,123.85"/>
            <path d="M442.409,212.225 L441.086,212.225"/>
        </g>
        <g id="product-279c4adb-c4f2-4096-b33c-01bb4c58cc8a" class="IfcSlab material-poche projection" ifc:name="Slab" ifc:guid="0dd4hRnF90bhCy0RjCMCoA">
            <path d="M453.634,138.846 L453.634,138.317"/>
            <path d="M397.43,82.1123 L453.634,138.317"/>
            <path d="M397.43,82.1123 L397.43,82.6415"/>
            <path d="M397.43,82.6415 L453.634,138.846"/>
        </g>
        <g id="product-7ca30c89-4422-4400-80ae-1fe16890985a" class="IfcVirtualElement material-null projection" ifc:name="Plane" ifc:guid="1yemo9H294082k7_5ea9XQ">
            <path d="M123.851,212.225 L123.851,212.225"/>
            <path d="M397.43,212.225 L397.43,212.225"/>
            <path d="M38.4514,212.225 L73.8443,212.225"/>
            <path d="M173.857,212.225 L173.857,212.225"/>
            <path d="M328.01,212.225 L463.392,212.225"/>
            <path d="M38.4514,212.225 L73.8443,212.225"/>
            <path d="M173.857,212.225 L463.392,212.225"/>
        </g>
        <g id="product-74434a1b-bb0d-4a26-ac86-52af58be07a0" class="IfcSlab material-poche projection" ifc:name="Slab" ifc:guid="1qGqeRkmrA9go6KgzOlWUW">
            <path d="M397.43,82.1123 L345.754,133.788"/>
            <path d="M345.754,134.317 L345.754,133.788"/>
            <path d="M397.43,82.6415 L345.754,134.317"/>
            <path d="M397.43,82.1123 L397.43,82.6415"/>
        </g>
        <g id="product-f7e4e243-fae7-4ae9-be48-8dd1b272bec5" class="IfcSlab material-poche projection" ifc:name="Slab" ifc:guid="3tvE93_kTAwRv8ZT6oShx5">
            <path d="M438.638,128.842 L397.43,87.6334"/>
            <path d="M438.638,123.85 L438.638,128.842"/>
            <path d="M438.638,123.85 L397.43,82.6415"/>
            <path d="M397.43,87.6334 L397.43,82.6415"/>
        </g>
        <g id="product-d62f0fb0-520d-4378-9655-82e87148f30a" class="IfcSlab material-poche projection" ifc:name="Slab" ifc:guid="3MBm_mKWr3U9PLWkXnIFCA">
            <path d="M397.43,82.6415 L356.221,123.851"/>
            <path d="M356.221,128.842 L356.221,123.851"/>
            <path d="M397.43,87.6334 L356.221,128.842"/>
            <path d="M397.43,82.6415 L397.43,87.6334"/>
        </g>
        <g id="product-790a717c-6c44-4e9f-9b5f-24b24d7eff4b" class="IfcWall material-BasicWallEXTWALLHORZSIDING12SHEATHING2X6WOODBATT58GYP projection" ifc:name="Wall" ifc:guid="1v2d5yR4HEdvjV9B9DVlzB">
            <path d="M171.41,168.04 L175.18,168.04"/>
            <path d="M175.18,150.518 L175.18,168.04"/>
            <path d="M171.41,146.119 L175.18,150.518"/>
            <path d="M171.41,168.04 L171.41,146.119"/>
            <path d="M171.41,205.875 L171.41,205.875"/>
            <path d="M171.41,168.04 L171.41,205.875"/>
            <path d="M171.41,168.04 L171.41,168.04"/>
            <path d="M175.18,205.875 L175.18,205.453"/>
            <path d="M175.18,168.461 L175.18,168.04"/>
            <path d="M175.18,205.875 L175.18,212.225"/>
            <path d="M175.18,205.875 L171.41,205.875"/>
            <path d="M171.41,212.225 L171.41,205.875"/>
            <path d="M175.18,212.225 L171.41,212.225"/>
        </g>
        <g id="product-30b4e893-cb78-4deb-9a76-456b7d640504" class="IfcWall material-BasicWallEXTWALLHORZSIDING12SHEATHING2X6WOODBATT58GYP projection" ifc:name="Wall" ifc:guid="0mjEYJotXDwvfsHMjzP0K4">
            <path d="M175.18,212.225 L175.18,205.875"/>
            <path d="M175.18,168.04 L175.18,150.518"/>
            <path d="M175.18,150.518 L123.851,90.6311"/>
            <path d="M123.851,90.6311 L123.851,90.6311"/>
            <path d="M123.851,149.725 L123.851,90.6311"/>
            <path d="M175.18,212.225 L173.857,212.225"/>
        </g>
        <g id="product-9694daf8-4505-4351-87b0-b94738ec7ac6" class="IfcWall material-poche projection" ifc:name="Wall" ifc:guid="2MbDhuHGL3KOUmkKSux7h6">
            <path d="M102.618,149.725 L159.32,149.725"/>
            <path d="M168.391,149.725 L171.409,149.725"/>
            <path d="M171.409,212.225 L171.409,149.725"/>
            <path d="M158.74,167.246 L158.74,212.225"/>
            <path d="M137.71,167.246 L158.74,167.246"/>
            <path d="M137.71,200.767 L137.71,167.246"/>
        </g>
        <g id="product-f17fc23f-4e69-4e8c-bb7d-4e784c6fb9e4" class="IfcWall material-BasicWallEXTWALLHORZSIDING12SHEATHING2X6WOODBATT58GYP projection" ifc:name="Wall" ifc:guid="3nVy8$JcbEZBjzJdXCRxda">
            <path d="M72.5216,150.518 L76.2919,146.119"/>
            <path d="M72.5216,168.04 L72.5216,150.518"/>
            <path d="M73.2597,168.04 L76.2919,168.04"/>
            <path d="M76.2919,146.119 L76.2919,168.04"/>
            <path d="M76.2919,168.04 L76.2919,168.04"/>
            <path d="M76.2919,205.875 L76.2919,168.04"/>
            <path d="M76.2919,205.875 L76.2919,205.875"/>
            <path d="M76.2919,205.875 L76.2919,212.225"/>
            <path d="M76.2919,205.875 L73.2597,205.875"/>
            <path d="M72.5216,212.225 L72.5216,205.875"/>
            <path d="M76.2919,212.225 L72.5216,212.225"/>
        </g>
        <g id="product-d6cfe73d-214b-4c74-8b6f-83357072f86a" class="IfcWall material-poche projection" ifc:name="Wall" ifc:guid="3Mp_Sz8KjCT8jlWpLmSlXg">
            <path d="M76.2919,212.225 L76.2919,163.829"/>
            <path d="M76.2919,153.246 L76.2919,149.725"/>
            <path d="M76.2919,149.725 L79.3097,149.725"/>
            <path d="M88.3808,149.725 L100.104,149.725"/>
            <path d="M100.104,212.225 L100.104,149.725"/>
        </g>
        <g id="product-98aab306-ab9c-4c34-8444-aace75bc5d88" class="IfcWall material-BasicWallEXTWALLHORZSIDING12SHEATHING2X6WOODBATT58GYP projection" ifc:name="Wall" ifc:guid="2OghC6gvnCD8H4givrl5s8">
            <path d="M123.851,149.725 L123.851,90.6311"/>
            <path d="M123.851,90.6311 L123.851,90.6311"/>
            <path d="M72.5216,150.518 L72.5216,150.518"/>
            <path d="M72.5216,150.518 L72.5216,150.518"/>
        </g>
        <g id="product-f41c304c-1bf9-43fb-8876-ff5d4b4969cd" class="IfcSlab material-poche projection" ifc:name="Slab" ifc:guid="3q731C6$b3_uXs$rrBIMdD">
            <path d="M175.18,150.518 L175.18,149.989"/>
            <path d="M123.851,90.1019 L175.18,149.989"/>
            <path d="M123.851,90.1019 L123.851,90.6311"/>
            <path d="M123.851,90.6311 L175.18,150.518"/>
        </g>
        <g id="product-bb0e6844-f131-46ab-918c-3b7488fd14d8" class="IfcSlab material-poche projection" ifc:name="Slab" ifc:guid="2x3cX4yJ56gv6CEtI8$HJO">
            <path d="M123.851,90.6311 L72.5216,150.518"/>
            <path d="M123.851,90.102 L123.851,90.6311"/>
            <path d="M123.851,90.102 L72.5216,149.988"/>
            <path d="M72.5216,150.518 L72.5216,149.988"/>
        </g>
        <g id="product-e90ea708-1333-429e-8be8-502cf99425bc" class="IfcSlab material-poche projection" ifc:name="Slab" ifc:guid="3f3gS84pD2deleK2pvb2My">
            <path d="M171.409,153.246 L123.851,97.7584"/>
            <path d="M123.851,108.342 L123.851,97.7584"/>
            <path d="M171.409,163.829 L123.851,108.342"/>
            <path d="M171.409,153.246 L171.409,163.829"/>
        </g>
        <g id="product-152d3728-afe6-4af5-b923-3eb7485c5e9c" class="IfcSlab material-poche projection" ifc:name="Slab" ifc:guid="0LBJSeh_PAzRaZFhT8N5wS">
            <path d="M123.851,108.342 L76.2918,163.829"/>
            <path d="M123.851,97.7584 L123.851,108.342"/>
            <path d="M123.851,97.7584 L76.2918,153.246"/>
            <path d="M76.2918,163.829 L76.2918,153.246"/>
        </g>
        <g id="product-06443f10-2714-4589-8ba4-ce075f4c6e7e" class="IfcWall material-BasicWallEXTWALLHORZSIDING12SHEATHING2X6WOODBATT58GYP projection" ifc:name="Wall" ifc:guid="06H3yG9nH5YOkapWTVJ6v_">
            <path d="M327.58,212.225 L327.58,105.472"/>
            <path d="M327.58,212.225 L327.58,212.225"/>
        </g>
        <g id="product-d9ffd022-95a1-4a56-adc6-dce7708b29e9" class="IfcSlab material-poche projection" ifc:name="Slab" ifc:guid="3P$z0YbQ5ALgt6tETmYodf">
            <path d="M343.455,37.6723 L254.988,37.6723"/>
            <path d="M343.455,37.6723 L343.455,37.6723"/>
        </g>
        <g id="product-1dd9ccd9-b96f-4f36-99c4-b3f111006cbf" class="IfcWall material-BasicWallEXTWALLHORZSIDING12SHEATHING2X6WOODBATT58GYP projection" ifc:name="Wall" ifc:guid="0TsSpPkMzFDfd4i$4H06o$">
            <path d="M238.68,170.95 L238.68,170.95"/>
            <path d="M238.68,208.785 L238.68,208.785"/>
            <path d="M251.38,170.95 L251.38,170.95"/>
            <path d="M251.38,208.785 L251.38,208.785"/>
            <path d="M264.08,170.95 L264.08,170.95"/>
            <path d="M264.08,208.785 L264.08,208.785"/>
            <path d="M302.18,170.95 L302.18,170.95"/>
            <path d="M302.18,208.785 L302.18,208.785"/>
            <path d="M314.88,170.95 L314.88,170.95"/>
            <path d="M314.88,208.785 L314.88,208.785"/>
            <path d="M247.941,155.604 L247.941,155.604"/>
            <path d="M238.68,155.604 L238.68,155.604"/>
            <path d="M238.68,168.04 L238.68,168.04"/>
            <path d="M247.941,168.04 L247.941,168.04"/>
            <path d="M260.641,155.604 L260.641,155.604"/>
            <path d="M251.38,155.604 L251.38,155.604"/>
            <path d="M251.38,168.04 L251.38,168.04"/>
            <path d="M260.641,168.04 L260.641,168.04"/>
            <path d="M273.341,155.604 L273.341,155.604"/>
            <path d="M264.08,155.604 L264.08,155.604"/>
            <path d="M264.08,168.04 L264.08,168.04"/>
            <path d="M273.341,168.04 L273.341,168.04"/>
            <path d="M286.04,155.604 L286.04,155.604"/>
            <path d="M276.78,155.604 L276.78,155.604"/>
            <path d="M276.78,168.04 L276.78,168.04"/>
            <path d="M286.04,168.04 L286.04,168.04"/>
            <path d="M298.74,155.604 L298.74,155.604"/>
            <path d="M289.48,155.604 L289.48,155.604"/>
            <path d="M289.48,168.04 L289.48,168.04"/>
            <path d="M298.74,168.04 L298.74,168.04"/>
            <path d="M311.44,155.604 L311.44,155.604"/>
            <path d="M302.18,155.604 L302.18,155.604"/>
            <path d="M302.18,168.04 L302.18,168.04"/>
            <path d="M311.44,168.04 L311.44,168.04"/>
            <path d="M324.14,155.604 L324.14,155.604"/>
            <path d="M314.88,155.604 L314.88,155.604"/>
            <path d="M314.88,168.04 L314.88,168.04"/>
            <path d="M324.14,168.04 L324.14,168.04"/>
            <path d="M327.58,212.225 L327.58,105.472"/>
            <path d="M72.5216,150.518 L72.5216,105.472"/>
            <path d="M275.06,212.225 L173.857,212.225"/>
            <path d="M327.58,212.225 L300.063,212.225"/>
        </g>
        <g id="product-7bce97e6-d703-4ee0-85b6-f3f169f9d9b1" class="IfcSlab material-poche projection" ifc:name="Slab" ifc:guid="1xpfVcrmDEu8Msy$5f_Tcn">
            <path d="M56.6466,110.141 L72.5216,110.141"/>
            <path d="M56.6466,77.6397 L56.6466,110.141"/>
        </g>
        <g id="product-ac1f2aa6-56e5-4e8e-88a2-83d379380a06" class="IfcSlab material-poche projection" ifc:name="Slab" ifc:guid="2i7ogcLkLEZeYYWzDvE0e6">
            <path d="M343.455,37.6723 L343.455,104.943"/>
            <path d="M56.6466,37.6723 L187.731,37.6723"/>
            <path d="M254.988,37.6723 L343.455,37.6723"/>
            <path d="M56.6466,104.943 L56.6466,37.6723"/>
            <path d="M343.455,104.943 L136.571,104.943"/>
            <path d="M136.117,104.943 L136.117,104.943"/>
            <path d="M111.13,104.943 L56.6466,104.943"/>
            <path d="M343.455,105.472 L137.024,105.472"/>
            <path d="M136.571,105.472 L136.571,105.472"/>
            <path d="M110.677,105.472 L56.6466,105.472"/>
            <path d="M56.6466,105.472 L56.6466,104.943"/>
            <path d="M343.455,105.472 L343.455,104.943"/>
        </g>
        <g id="product-bba0d26c-ae48-471a-ae10-b2b74026f30a" class="IfcSlab material-poche projection" ifc:name="Slab" ifc:guid="2xeD9ihaX76guGihT09lCA">
            <path d="M72.5216,111.4 L72.5216,105.472"/>
            <path d="M72.5216,111.4 L72.5216,111.4"/>
        </g>
        <g id="product-4a94b664-7367-4009-b0fa-9d2665d0e0e0" class="IfcSlab material-poche projection" ifc:name="Slab" ifc:guid="1AbBPaSsT02R3wdIPbqE3W">
            <path d="M254.988,37.4431 L144.265,37.4431"/>
            <path d="M144.265,37.6723 L144.265,37.4431"/>
            <path d="M254.988,37.6723 L254.988,37.4431"/>
        </g>
        <g id="product-6266c6d1-c5e3-4b69-bbbe-06a0a430ec24" class="IfcDoor material-MaterialConstituentSet projection" ifc:name="Door" ifc:guid="1YPiRHnUDBQRk_1g2aCEma">
            <path d="M351.921,168.304 L351.921,212.225"/>
            <path d="M352.451,168.304 L352.451,212.225"/>
            <path d="M351.921,212.225 L352.451,212.225"/>
            <path d="M351.921,212.225 L351.921,212.225"/>
            <path d="M351.921,169.892 L351.921,169.892"/>
            <path d="M351.921,212.225 L351.921,169.892"/>
            <path d="M351.921,169.892 L351.921,169.892"/>
            <path d="M351.921,212.225 L351.921,212.225"/>
            <path d="M351.921,168.304 L351.921,169.892"/>
            <path d="M351.921,212.225 L351.921,212.225"/>
            <path d="M351.921,168.304 L351.921,168.304"/>
            <path d="M351.921,168.304 L351.921,168.304"/>
            <path d="M352.451,168.304 L351.921,168.304"/>
            <path d="M352.451,169.892 L352.451,169.892"/>
            <path d="M353.509,212.225 L352.451,212.225"/>
            <path d="M353.509,212.225 L353.509,212.225"/>
        </g>
        <g id="product-0246a5aa-edb6-41a7-a01e-346972b91c46" class="IfcDoor material-MaterialConstituentSet projection" ifc:name="Door" ifc:guid="02HgMgxRP1fw0UD6bokHn6">
            <path d="M99.5262,168.304 L99.5262,212.225"/>
            <path d="M97.9387,169.892 L97.9387,212.225"/>
            <path d="M78.8887,169.892 L97.9387,169.892"/>
            <path d="M78.8887,212.225 L78.8887,169.892"/>
            <path d="M77.3012,168.304 L77.3012,212.225"/>
            <path d="M99.5262,168.304 L77.3012,168.304"/>
        </g>
        <g id="product-3dd21622-a8f0-42d0-ad5e-f8f417b63133" class="IfcSlab material-5Fill projection" ifc:name="Slab" ifc:guid="0zqXOYgF12qArU_FGNjZ4p">
            <path d="M353.774,209.05 L353.774,212.225"/>
            <path d="M353.774,212.225 L441.086,212.225"/>
            <path d="M441.086,212.225 L441.086,209.05"/>
            <path d="M353.774,209.05 L441.086,209.05"/>
        </g>
        <g id="product-b6f5ddfe-4cb1-4905-8196-46689a155b42" class="IfcSlab material-5Fill projection" ifc:name="Slab" ifc:guid="2szTt_JB591O6MHcYQ5Lj2">
            <path d="M173.857,215.4 L326.257,215.4"/>
            <path d="M326.257,215.4 L326.257,212.225"/>
            <path d="M173.857,215.4 L173.857,212.225"/>
            <path d="M73.8443,212.225 L73.8443,215.4"/>
            <path d="M73.8443,215.4 L173.857,215.4"/>
            <path d="M173.857,215.4 L173.857,212.225"/>
            <path d="M73.8443,212.225 L173.857,212.225"/>
        </g>
        <g id="product-96d27d2e-20dc-4c7c-bf87-f0378bffa492" class="IfcFurniture material-null projection" ifc:name="Furniture" ifc:guid="2Mqdqk8DnCVB_7y3UB$wII">
            <path d="M102.705,200.767 L102.705,212.225"/>
            <path d="M102.705,212.225 L144.996,212.225"/>
            <path d="M144.996,212.225 L144.996,200.767"/>
            <path d="M102.705,200.767 L144.996,200.767"/>
        </g>
        <g id="product-fd5643db-3605-42aa-b7a2-5f4bfbe4d52f" class="IfcFurniture material-null projection" ifc:name="Furniture" ifc:guid="3zLaFRDWL2ghUYNqlxvDKl">
            <path d="M356.221,204.817 L356.221,205.875"/>
            <path d="M356.221,205.875 L368.921,205.875"/>
            <path d="M368.921,205.875 L368.921,204.817"/>
            <path d="M356.221,204.817 L368.921,204.817"/>
        </g>
        <g id="product-7025846e-fe7a-4700-8034-cfad20102c6b" class="IfcWall material-poche projection" ifc:name="Wall" ifc:guid="1m9OHk$df7080qpwqW42nh">
            <path d="M100.104,212.225 L100.104,149.725"/>
            <path d="M102.618,212.225 L102.618,149.725"/>
            <path d="M102.618,149.725 L100.104,149.725"/>
            <path d="M100.104,169.892 L100.104,168.304"/>
            <path d="M100.104,168.304 L100.104,168.304"/>
        </g>
        <g id="product-5157a280-6313-41c7-b989-cdb6dff6d642" class="IfcDoor material-null projection" ifc:name="Door" ifc:guid="1HLwA0OnD1nxc9pRRVzjP2">
            <path d="M138.88,200.767 L138.88,167.775"/>
            <path d="M140.331,200.767 L140.331,167.775"/>
            <path d="M158.74,167.775 L158.459,167.775"/>
            <path d="M157.93,167.775 L157.93,212.225"/>
            <path d="M138.351,167.246 L138.351,200.767"/>
            <path d="M158.459,167.246 L158.459,212.225"/>
            <path d="M138.351,167.246 L158.459,167.246"/>
            <path d="M138.351,167.246 L138.351,167.246"/>
            <path d="M138.88,167.775 L157.93,167.775"/>
            <path d="M138.88,167.775 L138.88,167.775"/>
        </g>
        <g id="product-c996cbbc-bb88-4d79-a6fb-9643cf457637" class="IfcDoor material-MaterialConstituentSet projection" ifc:name="Door" ifc:guid="39bikykuXDUQRxbaFFHNOt">
            <path d="M100.104,169.892 L100.104,169.892"/>
        </g>
        <g id="product-20f340b9-7ba0-4acb-8a89-cdf964da4295" class="IfcFurniture material-null projection" ifc:name="Furniture" ifc:guid="0Wyq2vUw1Aoug9pVbasaAL">
            <path d="M425.938,204.817 L425.938,205.875"/>
            <path d="M425.938,205.875 L438.638,205.875"/>
            <path d="M438.638,205.875 L438.638,204.817"/>
            <path d="M425.938,204.817 L438.638,204.817"/>
        </g>
        <g id="product-dabf2325-455f-48e0-a26a-cafb83bf7b2d" class="IfcFurniture material-null projection" ifc:name="Furniture" ifc:guid="3QloCbHLz8uA9golk3ltij">
            <path d="M171.409,204.817 L171.409,204.817"/>
            <path d="M171.409,205.875 L171.409,205.875"/>
            <path d="M171.409,205.875 L171.409,204.817"/>
        </g>
        <g id="product-03286d71-bdcf-4c59-b7a4-1e5a029cba0c" class="IfcFurniture material-null projection" ifc:name="Furniture" ifc:guid="03A6rnlSzCMRUa7be2dBeC">
            <path d="M264.08,199.1 L264.08,199.1"/>
        </g>
        <g id="product-618994cc-9fa4-4b07-a558-b2376d333d9b" class="IfcFurniture material-null projection" ifc:name="Furniture" ifc:guid="1XYPJCdwHB1wLOiZTjCpsR">
            <path d="M264.08,193.475 L264.08,193.475"/>
            <path d="M300.063,199.1 L300.063,199.1"/>
            <path d="M302.18,199.1 L302.18,199.1"/>
        </g>
        <g id="product-20f340b9-7ba0-4acb-8a89-cdf964da4295-body" class="IfcFurniture material-null cut" ifc:name="Furniture" ifc:guid="0Wyq2vUw1Aoug9pVbasaAL">
            <path d="M425.938,204.817 L425.938,205.875 L438.638,205.875 L438.638,204.817 L425.938,204.817"/>
        </g>
        <g id="product-fd5643db-3605-42aa-b7a2-5f4bfbe4d52f-body" class="IfcFurniture material-null cut" ifc:name="Furniture" ifc:guid="3zLaFRDWL2ghUYNqlxvDKl">
            <path d="M356.221,204.817 L356.221,205.875 L368.921,205.875 L368.921,204.817 L356.221,204.817"/>
        </g>
        <g id="product-96d27d2e-20dc-4c7c-bf87-f0378bffa492-body" class="IfcFurniture material-null cut" ifc:name="Furniture" ifc:guid="2Mqdqk8DnCVB_7y3UB$wII">
            <path d="M102.705,200.767 L102.705,212.225 L144.996,212.225 L144.996,200.767 L102.705,200.767"/>
        </g>
        <g id="product-c7193b98-864c-4fae-81f0-776955dd3aa7-body" class="IfcWindow material-MaterialConstituentSet cut" ifc:name="Window" ifc:guid="376JkOXanFhe7mTsbLtJgd">
            <path d="M175.027,186.759 L175.027,187.156 L175.101,187.156 L175.101,186.759 L175.027,186.759 M175.498,186.759 L175.498,187.156 L175.572,187.156 L175.572,186.759 L175.498,186.759 M174.442,168.04 L175.643,168.04 L175.643,168.461 L175.643,168.461 L175.643,168.461 L174.442,168.461 L174.442,168.461 L174.442,169.546 L174.442,169.687 L175.643,169.687 L175.643,168.461 L174.442,168.461 L174.442,168.04 L173.923,168.04 L173.923,169.546 L174.442,169.546 M174.442,205.453 L175.643,205.453 L175.643,204.228 L174.442,204.228 L174.442,204.368 L173.923,204.368 L173.923,205.875 L174.442,205.875 L174.442,205.453 L174.442,204.368 M174.442,205.875 L175.643,205.875 L175.643,205.453 L175.643,205.453"/>
            <path d="M175.167,186.759 L175.167,187.156 L175.432,187.156 L175.432,186.759 L175.167,186.759"/>
            <path d="M175.101,169.687 L175.101,204.228 L175.498,204.228 L175.498,169.687 L175.101,169.687"/>
        </g>
        <g id="product-cba3dd8e-5fb7-47f4-beb4-f2c950e93d3d-body" class="IfcWindow material-MaterialConstituentSet cut" ifc:name="Window" ifc:guid="3BezsENxT7zBwqyibGwJqz">
            <path d="M72.6747,187.156 L72.6747,186.759 L72.6003,186.759 L72.6003,187.156 L72.6747,187.156 M72.2034,187.156 L72.2034,186.759 L72.129,186.759 L72.129,187.156 L72.2035,187.156 M73.2597,168.461 L72.0588,168.461 L72.0588,168.461 L73.2597,168.461 L73.2597,169.546 L73.2597,169.687 L72.0588,169.687 L72.0588,168.461 L72.0585,168.461 L72.0585,168.04 L73.2597,168.04 L73.2597,168.461 L73.2597,168.461 M72.0588,205.453 L73.2597,205.453 L73.2597,204.368 L73.2597,204.228 L72.0588,204.228 L72.0587,205.453 L72.0585,205.453 L72.0585,205.875 L73.2597,205.875 L73.2597,205.453 M73.2597,169.546 L73.7783,169.546 L73.7783,168.04 L73.2597,168.04 M73.2597,205.875 L73.7783,205.875 L73.7783,204.368 L73.2597,204.368"/>
            <path d="M72.5342,187.156 L72.5342,186.759 L72.2696,186.759 L72.2696,187.156 L72.5342,187.156"/>
            <path d="M72.6003,204.228 L72.6003,169.687 L72.2034,169.687 L72.2034,204.228 L72.6003,204.228"/>
        </g>
        <g class="material-BasicWallEXTWALLHORZSIDING12SHEATHING2X6WOODBATT58GYP 3tvE93_kTAwRv8ZT6oShx5 0eTiQ7RV5Dsf$eTon5lP9R IfcWall IfcSlab 3q731C6$b3_uXs$rrBIMdD 3f3gS84pD2deleK2pvb2My cut 3MBm_mKWr3U9PLWkXnIFCA 1v2d5yR4HEdvjV9B9DVlzB 2x3cX4yJ56gv6CEtI8$HJO 12xLD95QvFBPFEd6eNrXGp 0zqXOYgF12qArU_FGNjZ4p 0LBJSeh_PAzRaZFhT8N5wS material-5Fill 2szTt_JB591O6MHcYQ5Lj2 2we1Jods54iBgv$zRpsO8o 3nVy8$JcbEZBjzJdXCRxda 1qGqeRkmrA9go6KgzOlWUW material-poche 0dd4hRnF90bhCy0RjCMCoA"><path d="M175.2,150.5 L175.2,150.0 L123.9,90.1 L72.5,150.0 L72.5,150.5 L123.9,90.6 Z"/></g><g class="material-BasicWallEXTWALLHORZSIDING12SHEATHING2X6WOODBATT58GYP 3tvE93_kTAwRv8ZT6oShx5 0eTiQ7RV5Dsf$eTon5lP9R IfcWall IfcSlab 3q731C6$b3_uXs$rrBIMdD 3f3gS84pD2deleK2pvb2My cut 3MBm_mKWr3U9PLWkXnIFCA 1v2d5yR4HEdvjV9B9DVlzB 2x3cX4yJ56gv6CEtI8$HJO 12xLD95QvFBPFEd6eNrXGp 0zqXOYgF12qArU_FGNjZ4p 0LBJSeh_PAzRaZFhT8N5wS material-5Fill 2szTt_JB591O6MHcYQ5Lj2 2we1Jods54iBgv$zRpsO8o 3nVy8$JcbEZBjzJdXCRxda 1qGqeRkmrA9go6KgzOlWUW material-poche 0dd4hRnF90bhCy0RjCMCoA"><path d="M171.4,163.8 L171.4,168.0 L175.2,168.0 L175.2,150.5 L171.4,146.1 L171.4,153.2 L123.9,97.8 L76.3,153.2 L76.3,146.1 L72.5,150.5 L72.5,168.0 L76.3,168.0 L76.3,163.8 L123.9,108.3 Z"/></g><g class="material-BasicWallEXTWALLHORZSIDING12SHEATHING2X6WOODBATT58GYP 3tvE93_kTAwRv8ZT6oShx5 0eTiQ7RV5Dsf$eTon5lP9R IfcWall IfcSlab 3q731C6$b3_uXs$rrBIMdD 3f3gS84pD2deleK2pvb2My cut 3MBm_mKWr3U9PLWkXnIFCA 1v2d5yR4HEdvjV9B9DVlzB 2x3cX4yJ56gv6CEtI8$HJO 12xLD95QvFBPFEd6eNrXGp 0zqXOYgF12qArU_FGNjZ4p 0LBJSeh_PAzRaZFhT8N5wS material-5Fill 2szTt_JB591O6MHcYQ5Lj2 2we1Jods54iBgv$zRpsO8o 3nVy8$JcbEZBjzJdXCRxda 1qGqeRkmrA9go6KgzOlWUW material-poche 0dd4hRnF90bhCy0RjCMCoA"><path d="M73.8,212.2 L73.8,215.4 L173.9,215.4 L173.9,212.2 L175.2,212.2 L175.2,205.9 L171.4,205.9 L171.4,212.2 L76.3,212.2 L76.3,205.9 L72.5,205.9 L72.5,212.2 Z"/></g><g class="material-BasicWallEXTWALLHORZSIDING12SHEATHING2X6WOODBATT58GYP 3tvE93_kTAwRv8ZT6oShx5 0eTiQ7RV5Dsf$eTon5lP9R IfcWall IfcSlab 3q731C6$b3_uXs$rrBIMdD 3f3gS84pD2deleK2pvb2My cut 3MBm_mKWr3U9PLWkXnIFCA 1v2d5yR4HEdvjV9B9DVlzB 2x3cX4yJ56gv6CEtI8$HJO 12xLD95QvFBPFEd6eNrXGp 0zqXOYgF12qArU_FGNjZ4p 0LBJSeh_PAzRaZFhT8N5wS material-5Fill 2szTt_JB591O6MHcYQ5Lj2 2we1Jods54iBgv$zRpsO8o 3nVy8$JcbEZBjzJdXCRxda 1qGqeRkmrA9go6KgzOlWUW material-poche 0dd4hRnF90bhCy0RjCMCoA"><path d="M353.01753653444587,127.06847599165017 L352.5,127.6 L352.5,212.2 L353.8,212.2 L356.2,212.2 L438.6,212.2 L441.1,212.2 L442.4,212.2 L442.4,127.6 L440.41946022727274,125.61946022727271 L453.6,138.8 L453.6,138.3 L397.4,82.1 L345.8,133.8 L345.8,134.3 Z M438.6,128.8 L438.6,145.6 L356.2,145.6 L356.2,128.8 L397.4,87.6 Z M356.2,123.87984496124034 L397.4,82.6 L356.2,123.9 Z M356.2,209.1 L356.2,148.7 L438.6,148.7 L438.6,209.1 Z"/></g></g>
</svg>