<?xml version="1.0" encoding="utf-8" ?>
<svg xmlns="http://www.w3.org/2000/svg" xmlns:ev="http://www.w3.org/2001/xml-events" xmlns:ifc="http://www.ifcopenshell.org/ns" xmlns:xlink="http://www.w3.org/1999/xlink" baseProfile="full" data-scale="1/4&quot;=1'-0&quot;" height="363.5729432106018mm" id="root" version="1.1" viewBox="0 0 435.41669845581055 363.5729432106018" width="435.41669845581055mm">
  <defs/>
  <line class="GlobalId-3jALOmD6nAhP639Z9THWdc IfcAnnotation PredefinedType-SECTION" x1="422.23858642578125" x2="422.23858642578125" y1="28.46319007873535" y2="316.3242492675781"/>
  <use transform="rotate(90.00000250447816, 422.23858642578125, 28.46319007873535)" x="422.23858642578125" xlink:href="#section-arrow" y="28.46319007873535"/>
  <use x="422.23858642578125" xlink:href="#section-tag" y="28.46319007873535"/>
  <text class="SECTION" dominant-baseline="middle" text-anchor="middle" x="422.23858642578125" y="25.96319007873535">-</text>
  <text class="SECTION" dominant-baseline="middle" text-anchor="middle" x="422.23858642578125" y="30.96319007873535">-</text>
  <use transform="rotate(90.00000250447816, 422.23858642578125, 316.3242492675781)" x="422.23858642578125" xlink:href="#section-arrow" y="316.3242492675781"/>
  <use x="422.23858642578125" xlink:href="#section-tag" y="316.3242492675781"/>
  <text class="SECTION" dominant-baseline="middle" text-anchor="middle" x="422.23858642578125" y="313.8242492675781">-</text>
  <text class="SECTION" dominant-baseline="middle" text-anchor="middle" x="422.23858642578125" y="318.8242492675781">-</text>
  <path class="GlobalId-3tqms1PNDApgxXMw7VwWzw IfcAnnotation PredefinedType-SECTIONLEVEL" d="M 795.6917724609375 186.28440856933594 L -245.97494506835938 186.28440856933594"/>
  <text dominant-baseline="baseline" style="font-size: 0;" text-anchor="start" transform="translate(795.6917724609375, 182.78440856933594) rotate(0.0)">
    <tspan class="SECTIONLEVEL" dy="-1em" x="0" y="0">2ND FLOOR</tspan>
    <tspan class="SECTIONLEVEL" dy="0em" x="0" y="0">RL +10' - 3 1/2&quot;</tspan>
  </text>
  <line class="GlobalId-1Bscj5RRH7zAH$C7YjhIR2 IfcAnnotation PredefinedType-SECTION" x1="140.9375457763672" x2="140.9375457763672" y1="328.21295166015625" y2="40.33415222167969"/>
  <use transform="rotate(-90.00000250447816, 140.9375457763672, 328.21295166015625)" x="140.9375457763672" xlink:href="#section-arrow" y="328.21295166015625"/>
  <use x="140.9375457763672" xlink:href="#section-tag" y="328.21295166015625"/>
  <text class="SECTION" dominant-baseline="middle" text-anchor="middle" x="140.9375457763672" y="325.71295166015625">-</text>
  <text class="SECTION" dominant-baseline="middle" text-anchor="middle" x="140.9375457763672" y="330.71295166015625">-</text>
  <use transform="rotate(-90.00000250447816, 140.9375457763672, 40.33415222167969)" x="140.9375457763672" xlink:href="#section-arrow" y="40.33415222167969"/>
  <use x="140.9375457763672" xlink:href="#section-tag" y="40.33415222167969"/>
  <text class="SECTION" dominant-baseline="middle" text-anchor="middle" x="140.9375457763672" y="37.83415222167969">-</text>
  <text class="SECTION" dominant-baseline="middle" text-anchor="middle" x="140.9375457763672" y="42.83415222167969">-</text>
  <path class="GlobalId-1W2ygjQ9nBtfVz0mRSpRLj IfcAnnotation PredefinedType-SECTIONLEVEL" d="M 795.6917724609375 251.636474609375 L -245.97494506835938 251.636474609375"/>
  <text dominant-baseline="baseline" style="font-size: 0;" text-anchor="start" transform="translate(795.6917724609375, 248.136474609375) rotate(0.0)">
    <tspan class="SECTIONLEVEL" dy="-1em" x="0" y="0">1ST FLOOR</tspan>
    <tspan class="SECTIONLEVEL" dy="0em" x="0" y="0">RL +0&quot;</tspan>
  </text>
  <line class="GlobalId-0kA1HXqOnBBf1XEeTag7Ae IfcAnnotation PredefinedType-SECTION" x1="173.305419921875" x2="173.305419921875" y1="308.74017333984375" y2="47.10683059692383"/>
  <use transform="rotate(-90.00000250447816, 173.305419921875, 308.74017333984375)" x="173.305419921875" xlink:href="#section-arrow" y="308.74017333984375"/>
  <use x="173.305419921875" xlink:href="#section-tag" y="308.74017333984375"/>
  <text class="SECTION" dominant-baseline="middle" text-anchor="middle" x="173.305419921875" y="306.24017333984375">-</text>
  <text class="SECTION" dominant-baseline="middle" text-anchor="middle" x="173.305419921875" y="311.24017333984375">-</text>
  <use transform="rotate(-90.00000250447816, 173.305419921875, 47.10683059692383)" x="173.305419921875" xlink:href="#section-arrow" y="47.10683059692383"/>
  <use x="173.305419921875" xlink:href="#section-tag" y="47.10683059692383"/>
  <text class="SECTION" dominant-baseline="middle" text-anchor="middle" x="173.305419921875" y="44.60683059692383">-</text>
  <text class="SECTION" dominant-baseline="middle" text-anchor="middle" x="173.305419921875" y="49.60683059692383">-</text>
</svg>
