<?xml version="1.0" encoding="utf-8" ?>
<svg xmlns="http://www.w3.org/2000/svg" xmlns:ev="http://www.w3.org/2001/xml-events" xmlns:ifc="http://www.ifcopenshell.org/ns" xmlns:xlink="http://www.w3.org/1999/xlink" baseProfile="full" data-scale="1/4&quot;=1'-0&quot;" height="287.8788167780096mm" id="root" version="1.1" viewBox="0 0 395.8333730697632 287.8788167780096" width="395.8333730697632mm">
  <defs/>
  <line class="GlobalId-1nTuAw39b9mx7zCYnpAZ6n IfcAnnotation PredefinedType-SECTION" x1="191.3564910888672" x2="191.3564910888672" y1="20.8035831451416" y2="300.20111083984375"/>
  <use transform="rotate(90.00000250447816, 191.3564910888672, 20.8035831451416)" x="191.3564910888672" xlink:href="#section-arrow" y="20.8035831451416"/>
  <use x="191.3564910888672" xlink:href="#section-tag" y="20.8035831451416"/>
  <text class="SECTION" dominant-baseline="middle" text-anchor="middle" x="191.3564910888672" y="18.3035831451416">-</text>
  <text class="SECTION" dominant-baseline="middle" text-anchor="middle" x="191.3564910888672" y="23.3035831451416">-</text>
  <use transform="rotate(90.00000250447816, 191.3564910888672, 300.20111083984375)" x="191.3564910888672" xlink:href="#section-arrow" y="300.20111083984375"/>
  <use x="191.3564910888672" xlink:href="#section-tag" y="300.20111083984375"/>
  <text class="SECTION" dominant-baseline="middle" text-anchor="middle" x="191.3564910888672" y="297.70111083984375">-</text>
  <text class="SECTION" dominant-baseline="middle" text-anchor="middle" x="191.3564910888672" y="302.70111083984375">-</text>
  <path class="GlobalId-2lpConjSjArxilqgamjMWX IfcAnnotation PredefinedType-SECTIONLEVEL" d="M 947.3499755859375 211.3023223876953 L -94.31666564941406 211.3023223876953"/>
  <text dominant-baseline="baseline" style="font-size: 0;" text-anchor="start" transform="translate(947.3499755859375, 207.8023223876953) rotate(0.0)">
    <tspan class="SECTIONLEVEL" dy="-1em" x="0" y="0">1ST FLOOR</tspan>
    <tspan class="SECTIONLEVEL" dy="0em" x="0" y="0">RL -0&quot;</tspan>
  </text>
  <path class="GlobalId-0FTqdfMpv6OgTh_JWTRgi8 IfcAnnotation PredefinedType-SECTIONLEVEL" d="M 947.3499755859375 145.95025634765625 L -94.31666564941406 145.95025634765625"/>
  <text dominant-baseline="baseline" style="font-size: 0;" text-anchor="start" transform="translate(947.3499755859375, 142.45025634765625) rotate(0.0)">
    <tspan class="SECTIONLEVEL" dy="-1em" x="0" y="0">2ND FLOOR</tspan>
    <tspan class="SECTIONLEVEL" dy="0em" x="0" y="0">RL +10' - 3 1/2&quot;</tspan>
  </text>
  <line class="GlobalId-3ufYbtbqr69vdNBWOpNc8p IfcAnnotation PredefinedType-SECTION" x1="152.08580017089844" x2="152.08584594726562" y1="-61.91184997558594" y2="357.5165100097656"/>
  <use transform="rotate(89.999995674289, 152.08580017089844, -61.91184997558594)" x="152.08580017089844" xlink:href="#section-arrow" y="-61.91184997558594"/>
  <use x="152.08580017089844" xlink:href="#section-tag" y="-61.91184997558594"/>
  <text class="SECTION" dominant-baseline="middle" text-anchor="middle" x="152.08580017089844" y="-64.41184997558594">-</text>
  <text class="SECTION" dominant-baseline="middle" text-anchor="middle" x="152.08580017089844" y="-59.41184997558594">-</text>
  <use transform="rotate(89.999995674289, 152.08584594726562, 357.5165100097656)" x="152.08584594726562" xlink:href="#section-arrow" y="357.5165100097656"/>
  <use x="152.08584594726562" xlink:href="#section-tag" y="357.5165100097656"/>
  <text class="SECTION" dominant-baseline="middle" text-anchor="middle" x="152.08584594726562" y="355.0165100097656">-</text>
  <text class="SECTION" dominant-baseline="middle" text-anchor="middle" x="152.08584594726562" y="360.0165100097656">-</text>
</svg>
