<?xml version="1.0" encoding="utf-8" ?>
<svg xmlns="http://www.w3.org/2000/svg" xmlns:ev="http://www.w3.org/2001/xml-events" xmlns:ifc="http://www.ifcopenshell.org/ns" xmlns:xlink="http://www.w3.org/1999/xlink" baseProfile="full" data-scale="1/4&quot;=1'-0&quot;" height="419.42835446715645mm" id="root" version="1.1" viewBox="0 0 506.25002384185785 419.42835446715645" width="506.25002384185785mm">
  <defs/>
  <line class="GlobalId-3lXO7HwsvAVfSwwijqoDr5 IfcAnnotation PredefinedType-SECTION" x1="337.77789306640625" x2="337.77789306640625" y1="68.6845474243164" y2="330.31787109375"/>
  <use transform="rotate(90.00000250447816, 337.77789306640625, 68.6845474243164)" x="337.77789306640625" xlink:href="#section-arrow" y="68.6845474243164"/>
  <use x="337.77789306640625" xlink:href="#section-tag" y="68.6845474243164"/>
  <text class="SECTION" dominant-baseline="middle" text-anchor="middle" x="337.77789306640625" y="66.1845474243164">-</text>
  <text class="SECTION" dominant-baseline="middle" text-anchor="middle" x="337.77789306640625" y="71.1845474243164">-</text>
  <use transform="rotate(90.00000250447816, 337.77789306640625, 330.31787109375)" x="337.77789306640625" xlink:href="#section-arrow" y="330.31787109375"/>
  <use x="337.77789306640625" xlink:href="#section-tag" y="330.31787109375"/>
  <text class="SECTION" dominant-baseline="middle" text-anchor="middle" x="337.77789306640625" y="327.81787109375">-</text>
  <text class="SECTION" dominant-baseline="middle" text-anchor="middle" x="337.77789306640625" y="332.81787109375">-</text>
  <line class="GlobalId-01ep8qp3H33xv2BLcBoAcd IfcAnnotation PredefinedType-SECTION" x1="88.84474182128906" x2="88.84474182128906" y1="337.9020080566406" y2="50.04094696044922"/>
  <use transform="rotate(-90.00000250447816, 88.84474182128906, 337.9020080566406)" x="88.84474182128906" xlink:href="#section-arrow" y="337.9020080566406"/>
  <use x="88.84474182128906" xlink:href="#section-tag" y="337.9020080566406"/>
  <text class="SECTION" dominant-baseline="middle" text-anchor="middle" x="88.84474182128906" y="335.4020080566406">-</text>
  <text class="SECTION" dominant-baseline="middle" text-anchor="middle" x="88.84474182128906" y="340.4020080566406">-</text>
  <use transform="rotate(-90.00000250447816, 88.84474182128906, 50.04094696044922)" x="88.84474182128906" xlink:href="#section-arrow" y="50.04094696044922"/>
  <use x="88.84474182128906" xlink:href="#section-tag" y="50.04094696044922"/>
  <text class="SECTION" dominant-baseline="middle" text-anchor="middle" x="88.84474182128906" y="47.54094696044922">-</text>
  <text class="SECTION" dominant-baseline="middle" text-anchor="middle" x="88.84474182128906" y="52.54094696044922">-</text>
  <path class="GlobalId-3XGpXstUP7UQqK0j0CEICm IfcAnnotation PredefinedType-SECTIONLEVEL" d="M 773.9583740234375 273.2142028808594 L -267.7083435058594 273.2142028808594"/>
  <text dominant-baseline="baseline" style="font-size: 0;" text-anchor="start" transform="translate(773.9583740234375, 269.7142028808594) rotate(0.0)">
    <tspan class="SECTIONLEVEL" dy="-1em" x="0" y="0">1ST FLOOR</tspan>
    <tspan class="SECTIONLEVEL" dy="0em" x="0" y="0">RL +0&quot;</tspan>
  </text>
  <path class="GlobalId-2MJfIZYWL2T9Rnkmf$jGj0 IfcAnnotation PredefinedType-SECTIONLEVEL" d="M 773.9583740234375 207.8621063232422 L -267.7083435058594 207.8621063232422"/>
  <text dominant-baseline="baseline" style="font-size: 0;" text-anchor="start" transform="translate(773.9583740234375, 204.3621063232422) rotate(0.0)">
    <tspan class="SECTIONLEVEL" dy="-1em" x="0" y="0">2ND FLOOR</tspan>
    <tspan class="SECTIONLEVEL" dy="0em" x="0" y="0">RL +10' - 3 1/2&quot;</tspan>
  </text>
  <line class="GlobalId-01lZituin4pxFZJEPzn4Q3 IfcAnnotation PredefinedType-SECTION" x1="370.1457824707031" x2="370.1457824707031" y1="61.911869049072266" y2="349.7906494140625"/>
  <use transform="rotate(90.00000250447816, 370.1457824707031, 61.911869049072266)" x="370.1457824707031" xlink:href="#section-arrow" y="61.911869049072266"/>
  <use x="370.1457824707031" xlink:href="#section-tag" y="61.911869049072266"/>
  <text class="SECTION" dominant-baseline="middle" text-anchor="middle" x="370.1457824707031" y="59.411869049072266">-</text>
  <text class="SECTION" dominant-baseline="middle" text-anchor="middle" x="370.1457824707031" y="64.41186904907227">-</text>
  <use transform="rotate(90.00000250447816, 370.1457824707031, 349.7906494140625)" x="370.1457824707031" xlink:href="#section-arrow" y="349.7906494140625"/>
  <use x="370.1457824707031" xlink:href="#section-tag" y="349.7906494140625"/>
  <text class="SECTION" dominant-baseline="middle" text-anchor="middle" x="370.1457824707031" y="347.2906494140625">-</text>
  <text class="SECTION" dominant-baseline="middle" text-anchor="middle" x="370.1457824707031" y="352.2906494140625">-</text>
</svg>
