<?xml version="1.0" encoding="utf-8" ?>
<svg xmlns="http://www.w3.org/2000/svg" xmlns:ev="http://www.w3.org/2001/xml-events" xmlns:ifc="http://www.ifcopenshell.org/ns" xmlns:xlink="http://www.w3.org/1999/xlink" baseProfile="full" data-scale="1/16&quot;=1'-0&quot;" height="357.72889916309987mm" id="root" version="1.1" viewBox="0 0 569.7916746139526 357.72889916309987" width="569.7916746139526mm">
  <defs/>
  <line class="GlobalId-1plfCg2fL2B9ekPR_cC5zt IfcAnnotation PredefinedType-DIMENSION oblique, fill-bg" x1="382.07330322265625" x2="412.73663330078125" y1="291.85205078125" y2="291.85205078125"/>
  <text dominant-baseline="baseline" filter="url(#fill-background)" style="font-size: 0;" text-anchor="middle" transform="translate(397.40496826171875, 290.85205078125) rotate(0.0)">
    <tspan class="DIMENSION" dy="0em" x="0" y="0">19' - 4&quot;</tspan>
  </text>
  <text dominant-baseline="baseline" style="font-size: 0;" text-anchor="middle" transform="translate(397.40496826171875, 290.85205078125) rotate(0.0)">
    <tspan class="DIMENSION" dy="0em" x="0" y="0">19' - 4&quot;</tspan>
  </text>
  <line class="GlobalId-1plfCg2fL2B9ekPR_cC5zt IfcAnnotation PredefinedType-DIMENSION oblique, fill-bg" x1="412.73663330078125" x2="412.73663330078125" y1="291.85205078125" y2="311.42425537109375"/>
  <text dominant-baseline="baseline" filter="url(#fill-background)" style="font-size: 0;" text-anchor="middle" transform="translate(413.73663330078125, 301.6381530761719) rotate(90.00000250447816)">
    <tspan class="DIMENSION" dy="0em" x="0" y="0">12' - 4&quot;</tspan>
  </text>
  <text dominant-baseline="baseline" style="font-size: 0;" text-anchor="middle" transform="translate(413.73663330078125, 301.6381530761719) rotate(90.00000250447816)">
    <tspan class="DIMENSION" dy="0em" x="0" y="0">12' - 4&quot;</tspan>
  </text>
  <line class="GlobalId-1plfCg2fL2B9ekPR_cC5zt IfcAnnotation PredefinedType-DIMENSION oblique, fill-bg" x1="505.20843505859375" x2="505.20843505859375" y1="311.42425537109375" y2="275.97705078125"/>
  <text dominant-baseline="baseline" filter="url(#fill-background)" style="font-size: 0;" text-anchor="middle" transform="translate(504.20843505859375, 293.7006530761719) rotate(-90.00000250447816)">
    <tspan class="DIMENSION" dy="0em" x="0" y="0">22' - 4&quot;</tspan>
  </text>
  <text dominant-baseline="baseline" style="font-size: 0;" text-anchor="middle" transform="translate(504.20843505859375, 293.7006530761719) rotate(-90.00000250447816)">
    <tspan class="DIMENSION" dy="0em" x="0" y="0">22' - 4&quot;</tspan>
  </text>
  <line class="GlobalId-1plfCg2fL2B9ekPR_cC5zt IfcAnnotation PredefinedType-DIMENSION oblique, fill-bg" x1="505.20843505859375" x2="525.4470825195312" y1="275.97705078125" y2="275.97705078125"/>
  <text dominant-baseline="baseline" filter="url(#fill-background)" style="font-size: 0;" text-anchor="middle" transform="translate(515.3277587890625, 274.97705078125) rotate(0.0)">
    <tspan class="DIMENSION" dy="0em" x="0" y="0">12' - 9&quot;</tspan>
  </text>
  <text dominant-baseline="baseline" style="font-size: 0;" text-anchor="middle" transform="translate(515.3277587890625, 274.97705078125) rotate(0.0)">
    <tspan class="DIMENSION" dy="0em" x="0" y="0">12' - 9&quot;</tspan>
  </text>
  <line class="GlobalId-1plfCg2fL2B9ekPR_cC5zt IfcAnnotation PredefinedType-DIMENSION oblique, fill-bg" x1="268.5923156738281" x2="284.749267578125" y1="248.68035888671875" y2="248.68035888671875"/>
  <text dominant-baseline="baseline" filter="url(#fill-background)" style="font-size: 0;" text-anchor="middle" transform="translate(276.6707763671875, 247.68035888671875) rotate(0.0)">
    <tspan class="DIMENSION" dy="0em" x="0" y="0">10' - 2&quot;</tspan>
  </text>
  <text dominant-baseline="baseline" style="font-size: 0;" text-anchor="middle" transform="translate(276.6707763671875, 247.68035888671875) rotate(0.0)">
    <tspan class="DIMENSION" dy="0em" x="0" y="0">10' - 2&quot;</tspan>
  </text>
  <line class="GlobalId-1plfCg2fL2B9ekPR_cC5zt IfcAnnotation PredefinedType-DIMENSION oblique, fill-bg" x1="224.23733520507812" x2="224.23733520507812" y1="339.84808349609375" y2="328.8848571777344"/>
  <text dominant-baseline="baseline" filter="url(#fill-background)" style="font-size: 0;" text-anchor="middle" transform="translate(223.23733520507812, 334.366455078125) rotate(-90.00000250447816)">
    <tspan class="DIMENSION" dy="0em" x="0" y="0">6' - 11&quot;</tspan>
  </text>
  <text dominant-baseline="baseline" style="font-size: 0;" text-anchor="middle" transform="translate(223.23733520507812, 334.366455078125) rotate(-90.00000250447816)">
    <tspan class="DIMENSION" dy="0em" x="0" y="0">6' - 11&quot;</tspan>
  </text>
  <line class="GlobalId-1plfCg2fL2B9ekPR_cC5zt IfcAnnotation PredefinedType-DIMENSION oblique, fill-bg" x1="224.23733520507812" x2="224.23733520507812" y1="328.8848571777344" y2="322.53485107421875"/>
  <text dominant-baseline="baseline" filter="url(#fill-background)" style="font-size: 0;" text-anchor="middle" transform="translate(223.23733520507812, 325.7098388671875) rotate(-90.00000250447816)">
    <tspan class="DIMENSION" dy="0em" x="0" y="0">4' - 0&quot;</tspan>
  </text>
  <text dominant-baseline="baseline" style="font-size: 0;" text-anchor="middle" transform="translate(223.23733520507812, 325.7098388671875) rotate(-90.00000250447816)">
    <tspan class="DIMENSION" dy="0em" x="0" y="0">4' - 0&quot;</tspan>
  </text>
  <line class="GlobalId-1plfCg2fL2B9ekPR_cC5zt IfcAnnotation PredefinedType-DIMENSION oblique, fill-bg" x1="224.23733520507812" x2="224.23733520507812" y1="322.53485107421875" y2="311.4241943359375"/>
  <text dominant-baseline="baseline" filter="url(#fill-background)" style="font-size: 0;" text-anchor="middle" transform="translate(223.23733520507812, 316.9795227050781) rotate(-90.00000250447816)">
    <tspan class="DIMENSION" dy="0em" x="0" y="0">7' - 0&quot;</tspan>
  </text>
  <text dominant-baseline="baseline" style="font-size: 0;" text-anchor="middle" transform="translate(223.23733520507812, 316.9795227050781) rotate(-90.00000250447816)">
    <tspan class="DIMENSION" dy="0em" x="0" y="0">7' - 0&quot;</tspan>
  </text>
  <line class="GlobalId-1plfCg2fL2B9ekPR_cC5zt IfcAnnotation PredefinedType-DIMENSION oblique, fill-bg" x1="375.38616943359375" x2="375.38616943359375" y1="230.93772888183594" y2="217.11105346679688"/>
  <text dominant-baseline="baseline" filter="url(#fill-background)" style="font-size: 0;" text-anchor="middle" transform="translate(374.38616943359375, 224.02438354492188) rotate(-90.00000250447816)">
    <tspan class="DIMENSION" dy="0em" x="0" y="0">8' - 9&quot;</tspan>
  </text>
  <text dominant-baseline="baseline" style="font-size: 0;" text-anchor="middle" transform="translate(374.38616943359375, 224.02438354492188) rotate(-90.00000250447816)">
    <tspan class="DIMENSION" dy="0em" x="0" y="0">8' - 9&quot;</tspan>
  </text>
  <line class="GlobalId-1plfCg2fL2B9ekPR_cC5zt IfcAnnotation PredefinedType-DIMENSION oblique, fill-bg" x1="375.38616943359375" x2="375.38616943359375" y1="217.11105346679688" y2="210.7610626220703"/>
  <text dominant-baseline="baseline" filter="url(#fill-background)" style="font-size: 0;" text-anchor="middle" transform="translate(374.38616943359375, 213.93606567382812) rotate(-90.00000250447816)">
    <tspan class="DIMENSION" dy="0em" x="0" y="0">4' - 0&quot;</tspan>
  </text>
  <text dominant-baseline="baseline" style="font-size: 0;" text-anchor="middle" transform="translate(374.38616943359375, 213.93606567382812) rotate(-90.00000250447816)">
    <tspan class="DIMENSION" dy="0em" x="0" y="0">4' - 0&quot;</tspan>
  </text>
  <line class="GlobalId-1plfCg2fL2B9ekPR_cC5zt IfcAnnotation PredefinedType-DIMENSION oblique, fill-bg" x1="375.38616943359375" x2="375.38616943359375" y1="210.7610626220703" y2="130.54385375976562"/>
  <text dominant-baseline="baseline" filter="url(#fill-background)" style="font-size: 0;" text-anchor="middle" transform="translate(374.38616943359375, 170.6524658203125) rotate(-90.00000250447816)">
    <tspan class="DIMENSION" dy="0em" x="0" y="0">50' - 6&quot;</tspan>
  </text>
  <text dominant-baseline="baseline" style="font-size: 0;" text-anchor="middle" transform="translate(374.38616943359375, 170.6524658203125) rotate(-90.00000250447816)">
    <tspan class="DIMENSION" dy="0em" x="0" y="0">50' - 6&quot;</tspan>
  </text>
  <line class="GlobalId-1plfCg2fL2B9ekPR_cC5zt IfcAnnotation PredefinedType-DIMENSION oblique, fill-bg" x1="375.38616943359375" x2="375.38616943359375" y1="130.54385375976562" y2="124.19384002685547"/>
  <text dominant-baseline="baseline" filter="url(#fill-background)" style="font-size: 0;" text-anchor="middle" transform="translate(374.38616943359375, 127.36885070800781) rotate(-90.00000250447816)">
    <tspan class="DIMENSION" dy="0em" x="0" y="0">4' - 0&quot;</tspan>
  </text>
  <text dominant-baseline="baseline" style="font-size: 0;" text-anchor="middle" transform="translate(374.38616943359375, 127.36885070800781) rotate(-90.00000250447816)">
    <tspan class="DIMENSION" dy="0em" x="0" y="0">4' - 0&quot;</tspan>
  </text>
  <line class="GlobalId-1plfCg2fL2B9ekPR_cC5zt IfcAnnotation PredefinedType-DIMENSION oblique, fill-bg" x1="375.38616943359375" x2="375.38616943359375" y1="124.19384002685547" y2="105.22761535644531"/>
  <text dominant-baseline="baseline" filter="url(#fill-background)" style="font-size: 0;" text-anchor="middle" transform="translate(374.38616943359375, 114.71072387695312) rotate(-90.00000250447816)">
    <tspan class="DIMENSION" dy="0em" x="0" y="0">11' - 11&quot;</tspan>
  </text>
  <text dominant-baseline="baseline" style="font-size: 0;" text-anchor="middle" transform="translate(374.38616943359375, 114.71072387695312) rotate(-90.00000250447816)">
    <tspan class="DIMENSION" dy="0em" x="0" y="0">11' - 11&quot;</tspan>
  </text>
  <line class="GlobalId-1plfCg2fL2B9ekPR_cC5zt IfcAnnotation PredefinedType-DIMENSION oblique, fill-bg" x1="118.39590454101562" x2="118.39590454101562" y1="187.3785858154297" y2="138.21766662597656"/>
  <text dominant-baseline="baseline" filter="url(#fill-background)" style="font-size: 0;" text-anchor="middle" transform="translate(117.39590454101562, 162.79812622070312) rotate(-90.00000250447816)">
    <tspan class="DIMENSION" dy="0em" x="0" y="0">31' - 0&quot;</tspan>
  </text>
  <text dominant-baseline="baseline" style="font-size: 0;" text-anchor="middle" transform="translate(117.39590454101562, 162.79812622070312) rotate(-90.00000250447816)">
    <tspan class="DIMENSION" dy="0em" x="0" y="0">31' - 0&quot;</tspan>
  </text>
  <line class="GlobalId-1plfCg2fL2B9ekPR_cC5zt IfcAnnotation PredefinedType-DIMENSION oblique, fill-bg" x1="172.9031524658203" x2="172.9031219482422" y1="219.15513610839844" y2="204.19876098632812"/>
  <text dominant-baseline="baseline" filter="url(#fill-background)" style="font-size: 0;" text-anchor="middle" transform="translate(171.90313720703125, 211.67694091796875) rotate(-90.00011861769406)">
    <tspan class="DIMENSION" dy="0em" x="0" y="0">9' - 5&quot;</tspan>
  </text>
  <text dominant-baseline="baseline" style="font-size: 0;" text-anchor="middle" transform="translate(171.90313720703125, 211.67694091796875) rotate(-90.00011861769406)">
    <tspan class="DIMENSION" dy="0em" x="0" y="0">9' - 5&quot;</tspan>
  </text>
  <line class="GlobalId-1plfCg2fL2B9ekPR_cC5zt IfcAnnotation PredefinedType-DIMENSION oblique, fill-bg" x1="172.9031219482422" x2="172.9031524658203" y1="204.19876098632812" y2="197.84873962402344"/>
  <text dominant-baseline="baseline" filter="url(#fill-background)" style="font-size: 0;" text-anchor="middle" transform="translate(171.90313720703125, 201.02374267578125) rotate(-89.99972246672219)">
    <tspan class="DIMENSION" dy="0em" x="0" y="0">4' - 0&quot;</tspan>
  </text>
  <text dominant-baseline="baseline" style="font-size: 0;" text-anchor="middle" transform="translate(171.90313720703125, 201.02374267578125) rotate(-89.99972246672219)">
    <tspan class="DIMENSION" dy="0em" x="0" y="0">4' - 0&quot;</tspan>
  </text>
  <line class="GlobalId-1plfCg2fL2B9ekPR_cC5zt IfcAnnotation PredefinedType-DIMENSION oblique, fill-bg" x1="172.9031524658203" x2="172.9031524658203" y1="197.84873962402344" y2="130.11683654785156"/>
  <text dominant-baseline="baseline" filter="url(#fill-background)" style="font-size: 0;" text-anchor="middle" transform="translate(171.9031524658203, 163.9827880859375) rotate(-90.00000250447816)">
    <tspan class="DIMENSION" dy="0em" x="0" y="0">42' - 8&quot;</tspan>
  </text>
  <text dominant-baseline="baseline" style="font-size: 0;" text-anchor="middle" transform="translate(171.9031524658203, 163.9827880859375) rotate(-90.00000250447816)">
    <tspan class="DIMENSION" dy="0em" x="0" y="0">42' - 8&quot;</tspan>
  </text>
  <line class="GlobalId-1plfCg2fL2B9ekPR_cC5zt IfcAnnotation PredefinedType-DIMENSION oblique, fill-bg" x1="172.9031524658203" x2="172.9031524658203" y1="130.11683654785156" y2="123.766845703125"/>
  <text dominant-baseline="baseline" filter="url(#fill-background)" style="font-size: 0;" text-anchor="middle" transform="translate(171.9031524658203, 126.94184112548828) rotate(-90.00000250447816)">
    <tspan class="DIMENSION" dy="0em" x="0" y="0">4' - 0&quot;</tspan>
  </text>
  <text dominant-baseline="baseline" style="font-size: 0;" text-anchor="middle" transform="translate(171.9031524658203, 126.94184112548828) rotate(-90.00000250447816)">
    <tspan class="DIMENSION" dy="0em" x="0" y="0">4' - 0&quot;</tspan>
  </text>
  <line class="GlobalId-1plfCg2fL2B9ekPR_cC5zt IfcAnnotation PredefinedType-DIMENSION oblique, fill-bg" x1="172.9031524658203" x2="172.9031524658203" y1="123.766845703125" y2="105.22818756103516"/>
  <text dominant-baseline="baseline" filter="url(#fill-background)" style="font-size: 0;" text-anchor="middle" transform="translate(171.9031524658203, 114.49751281738281) rotate(-90.00000250447816)">
    <tspan class="DIMENSION" dy="0em" x="0" y="0">11' - 8&quot;</tspan>
  </text>
  <text dominant-baseline="baseline" style="font-size: 0;" text-anchor="middle" transform="translate(171.9031524658203, 114.49751281738281) rotate(-90.00000250447816)">
    <tspan class="DIMENSION" dy="0em" x="0" y="0">11' - 8&quot;</tspan>
  </text>
  <line class="GlobalId-1plfCg2fL2B9ekPR_cC5zt IfcAnnotation PredefinedType-DIMENSION oblique, fill-bg" x1="31.337282180786133" x2="47.19569396972656" y1="298.4420166015625" y2="298.8896789550781"/>
  <text dominant-baseline="baseline" filter="url(#fill-background)" style="font-size: 0;" text-anchor="middle" transform="translate(39.29470443725586, 297.6662292480469) rotate(1.61695593222037)">
    <tspan class="DIMENSION" dy="0em" x="0" y="0">10' - 0&quot;</tspan>
  </text>
  <text dominant-baseline="baseline" style="font-size: 0;" text-anchor="middle" transform="translate(39.29470443725586, 297.6662292480469) rotate(1.61695593222037)">
    <tspan class="DIMENSION" dy="0em" x="0" y="0">10' - 0&quot;</tspan>
  </text>
  <line class="GlobalId-1plfCg2fL2B9ekPR_cC5zt IfcAnnotation PredefinedType-DIMENSION oblique, fill-bg" x1="508.9180603027344" x2="524.7752075195312" y1="289.2062072753906" y2="289.9566955566406"/>
  <text dominant-baseline="baseline" filter="url(#fill-background)" style="font-size: 0;" text-anchor="middle" transform="translate(516.8939208984375, 288.58258056640625) rotate(2.7096771298391014)">
    <tspan class="DIMENSION" dy="0em" x="0" y="0">10' - 0&quot;</tspan>
  </text>
  <text dominant-baseline="baseline" style="font-size: 0;" text-anchor="middle" transform="translate(516.8939208984375, 288.58258056640625) rotate(2.7096771298391014)">
    <tspan class="DIMENSION" dy="0em" x="0" y="0">10' - 0&quot;</tspan>
  </text>
  <line class="GlobalId-1plfCg2fL2B9ekPR_cC5zt IfcAnnotation PredefinedType-DIMENSION oblique, fill-bg" x1="121.10768127441406" x2="144.88034057617188" y1="193.25572204589844" y2="193.25572204589844"/>
  <text dominant-baseline="baseline" filter="url(#fill-background)" style="font-size: 0;" text-anchor="middle" transform="translate(132.9940185546875, 192.25572204589844) rotate(0.0)">
    <tspan class="DIMENSION" dy="0em" x="0" y="0">15' - 0&quot;</tspan>
  </text>
  <text dominant-baseline="baseline" style="font-size: 0;" text-anchor="middle" transform="translate(132.9940185546875, 192.25572204589844) rotate(0.0)">
    <tspan class="DIMENSION" dy="0em" x="0" y="0">15' - 0&quot;</tspan>
  </text>
  <line class="GlobalId-1plfCg2fL2B9ekPR_cC5zt IfcAnnotation PredefinedType-DIMENSION oblique, fill-bg" x1="144.88034057617188" x2="165.79908752441406" y1="193.25572204589844" y2="193.25570678710938"/>
  <text dominant-baseline="baseline" filter="url(#fill-background)" style="font-size: 0;" text-anchor="middle" transform="translate(155.3397216796875, 192.25570678710938) rotate(-4.179333449108701e-05)">
    <tspan class="DIMENSION" dy="0em" x="0" y="0">13' - 2&quot;</tspan>
  </text>
  <text dominant-baseline="baseline" style="font-size: 0;" text-anchor="middle" transform="translate(155.3397216796875, 192.25570678710938) rotate(-4.179333449108701e-05)">
    <tspan class="DIMENSION" dy="0em" x="0" y="0">13' - 2&quot;</tspan>
  </text>
  <line class="GlobalId-1plfCg2fL2B9ekPR_cC5zt IfcAnnotation PredefinedType-DIMENSION oblique, fill-bg" x1="288.21240234375" x2="310.701904296875" y1="51.06845474243164" y2="51.06845474243164"/>
  <text dominant-baseline="baseline" filter="url(#fill-background)" style="font-size: 0;" text-anchor="middle" transform="translate(299.4571533203125, 50.06845474243164) rotate(0.0)">
    <tspan class="DIMENSION" dy="0em" x="0" y="0">14' - 2&quot;</tspan>
  </text>
  <text dominant-baseline="baseline" style="font-size: 0;" text-anchor="middle" transform="translate(299.4571533203125, 50.06845474243164) rotate(0.0)">
    <tspan class="DIMENSION" dy="0em" x="0" y="0">14' - 2&quot;</tspan>
  </text>
  <line class="GlobalId-1plfCg2fL2B9ekPR_cC5zt IfcAnnotation PredefinedType-DIMENSION oblique, fill-bg" x1="316.5887451171875" x2="380.3533020019531" y1="36.85774612426758" y2="36.85771560668945"/>
  <text dominant-baseline="baseline" filter="url(#fill-background)" style="font-size: 0;" text-anchor="middle" transform="translate(348.47100830078125, 35.857730865478516) rotate(-2.7421635528771543e-05)">
    <tspan class="DIMENSION" dy="0em" x="0" y="0">40' - 2&quot;</tspan>
  </text>
  <text dominant-baseline="baseline" style="font-size: 0;" text-anchor="middle" transform="translate(348.47100830078125, 35.857730865478516) rotate(-2.7421635528771543e-05)">
    <tspan class="DIMENSION" dy="0em" x="0" y="0">40' - 2&quot;</tspan>
  </text>
  <line class="GlobalId-1plfCg2fL2B9ekPR_cC5zt IfcAnnotation PredefinedType-DIMENSION oblique, fill-bg" x1="283.7291259765625" x2="283.7290954589844" y1="101.72208404541016" y2="57.00745391845703"/>
  <text dominant-baseline="baseline" filter="url(#fill-background)" style="font-size: 0;" text-anchor="middle" transform="translate(282.7291259765625, 79.3647689819336) rotate(-90.00003665542401)">
    <tspan class="DIMENSION" dy="0em" x="0" y="0">28' - 2&quot;</tspan>
  </text>
  <text dominant-baseline="baseline" style="font-size: 0;" text-anchor="middle" transform="translate(282.7291259765625, 79.3647689819336) rotate(-90.00003665542401)">
    <tspan class="DIMENSION" dy="0em" x="0" y="0">28' - 2&quot;</tspan>
  </text>
  <line class="GlobalId-1plfCg2fL2B9ekPR_cC5zt IfcAnnotation PredefinedType-DIMENSION oblique, fill-bg" x1="288.2124328613281" x2="310.7020263671875" y1="110.1005630493164" y2="110.10054779052734"/>
  <text dominant-baseline="baseline" filter="url(#fill-background)" style="font-size: 0;" text-anchor="middle" transform="translate(299.45721435546875, 109.10055541992188) rotate(-3.887416624089939e-05)">
    <tspan class="DIMENSION" dy="0em" x="0" y="0">14' - 2&quot;</tspan>
  </text>
  <text dominant-baseline="baseline" style="font-size: 0;" text-anchor="middle" transform="translate(299.45721435546875, 109.10055541992188) rotate(-3.887416624089939e-05)">
    <tspan class="DIMENSION" dy="0em" x="0" y="0">14' - 2&quot;</tspan>
  </text>
  <line class="GlobalId-1plfCg2fL2B9ekPR_cC5zt IfcAnnotation PredefinedType-DIMENSION oblique, fill-bg" x1="396.7214050292969" x2="396.7214050292969" y1="105.22761535644531" y2="41.46303939819336"/>
  <text dominant-baseline="baseline" filter="url(#fill-background)" style="font-size: 0;" text-anchor="middle" transform="translate(395.7214050292969, 73.34532928466797) rotate(-90.00000250447816)">
    <tspan class="DIMENSION" dy="0em" x="0" y="0">40' - 2&quot;</tspan>
  </text>
  <text dominant-baseline="baseline" style="font-size: 0;" text-anchor="middle" transform="translate(395.7214050292969, 73.34532928466797) rotate(-90.00000250447816)">
    <tspan class="DIMENSION" dy="0em" x="0" y="0">40' - 2&quot;</tspan>
  </text>
  <line class="GlobalId-1plfCg2fL2B9ekPR_cC5zt IfcAnnotation PredefinedType-DIMENSION oblique, fill-bg" x1="354.688720703125" x2="380.3533020019531" y1="110.10054016113281" y2="110.10053253173828"/>
  <text dominant-baseline="baseline" filter="url(#fill-background)" style="font-size: 0;" text-anchor="middle" transform="translate(367.52099609375, 109.10054016113281) rotate(-1.7032504801729428e-05)">
    <tspan class="DIMENSION" dy="0em" x="0" y="0">16' - 2&quot;</tspan>
  </text>
  <text dominant-baseline="baseline" style="font-size: 0;" text-anchor="middle" transform="translate(367.52099609375, 109.10054016113281) rotate(-1.7032504801729428e-05)">
    <tspan class="DIMENSION" dy="0em" x="0" y="0">16' - 2&quot;</tspan>
  </text>
  <line class="GlobalId-1plfCg2fL2B9ekPR_cC5zt IfcAnnotation PredefinedType-DIMENSION oblique, fill-bg" x1="243.8280487060547" x2="243.8280487060547" y1="311.42431640625" y2="267.0447692871094"/>
  <text dominant-baseline="baseline" filter="url(#fill-background)" style="font-size: 0;" text-anchor="middle" transform="translate(242.8280487060547, 289.23455810546875) rotate(-90.00000250447816)">
    <tspan class="DIMENSION" dy="0em" x="0" y="0">27' - 11&quot;</tspan>
  </text>
  <text dominant-baseline="baseline" style="font-size: 0;" text-anchor="middle" transform="translate(242.8280487060547, 289.23455810546875) rotate(-90.00000250447816)">
    <tspan class="DIMENSION" dy="0em" x="0" y="0">27' - 11&quot;</tspan>
  </text>
  <line class="GlobalId-1plfCg2fL2B9ekPR_cC5zt IfcAnnotation PredefinedType-DIMENSION oblique, fill-bg" x1="304.6512756347656" x2="304.6512756347656" y1="311.4242858886719" y2="274.85833740234375"/>
  <text dominant-baseline="baseline" filter="url(#fill-background)" style="font-size: 0;" text-anchor="middle" transform="translate(303.6512756347656, 293.14129638671875) rotate(-90.00000250447816)">
    <tspan class="DIMENSION" dy="0em" x="0" y="0">23' - 0&quot;</tspan>
  </text>
  <text dominant-baseline="baseline" style="font-size: 0;" text-anchor="middle" transform="translate(303.6512756347656, 293.14129638671875) rotate(-90.00000250447816)">
    <tspan class="DIMENSION" dy="0em" x="0" y="0">23' - 0&quot;</tspan>
  </text>
  <line class="GlobalId-1plfCg2fL2B9ekPR_cC5zt IfcAnnotation PredefinedType-DIMENSION oblique, fill-bg" x1="53.15198516845703" x2="53.15198516845703" y1="61.16376495361328" y2="21.20025062561035"/>
  <text dominant-baseline="baseline" filter="url(#fill-background)" style="font-size: 0;" text-anchor="middle" transform="translate(52.15198516845703, 41.1820068359375) rotate(-90.00000250447816)">
    <tspan class="DIMENSION" dy="0em" x="0" y="0">25' - 2&quot;</tspan>
  </text>
  <text dominant-baseline="baseline" style="font-size: 0;" text-anchor="middle" transform="translate(52.15198516845703, 41.1820068359375) rotate(-90.00000250447816)">
    <tspan class="DIMENSION" dy="0em" x="0" y="0">25' - 2&quot;</tspan>
  </text>
  <line class="GlobalId-1plfCg2fL2B9ekPR_cC5zt IfcAnnotation PredefinedType-DIMENSION oblique, fill-bg" x1="508.9590759277344" x2="508.9590759277344" y1="59.69350814819336" y2="21.200111389160156"/>
  <text dominant-baseline="baseline" filter="url(#fill-background)" style="font-size: 0;" text-anchor="middle" transform="translate(507.9590759277344, 40.446807861328125) rotate(-90.00000250447816)">
    <tspan class="DIMENSION" dy="0em" x="0" y="0">24' - 3&quot;</tspan>
  </text>
  <text dominant-baseline="baseline" style="font-size: 0;" text-anchor="middle" transform="translate(507.9590759277344, 40.446807861328125) rotate(-90.00000250447816)">
    <tspan class="DIMENSION" dy="0em" x="0" y="0">24' - 3&quot;</tspan>
  </text>
  <line class="GlobalId-1plfCg2fL2B9ekPR_cC5zt IfcAnnotation PredefinedType-DIMENSION oblique, fill-bg" x1="242.8853759765625" x2="242.8853759765625" y1="57.33852767944336" y2="21.200210571289062"/>
  <text dominant-baseline="baseline" filter="url(#fill-background)" style="font-size: 0;" text-anchor="middle" transform="translate(241.8853759765625, 39.269371032714844) rotate(-90.00000250447816)">
    <tspan class="DIMENSION" dy="0em" x="0" y="0">22' - 9&quot;</tspan>
  </text>
  <text dominant-baseline="baseline" style="font-size: 0;" text-anchor="middle" transform="translate(241.8853759765625, 39.269371032714844) rotate(-90.00000250447816)">
    <tspan class="DIMENSION" dy="0em" x="0" y="0">22' - 9&quot;</tspan>
  </text>
  <line class="GlobalId-1plfCg2fL2B9ekPR_cC5zt IfcAnnotation PredefinedType-DIMENSION oblique, fill-bg" x1="380.3533935546875" x2="415.0981140136719" y1="41.46303939819336" y2="41.46302795410156"/>
  <text dominant-baseline="baseline" filter="url(#fill-background)" style="font-size: 0;" text-anchor="middle" transform="translate(397.72576904296875, 40.463035583496094) rotate(-1.8871879521114416e-05)">
    <tspan class="DIMENSION" dy="0em" x="0" y="0">21' - 11&quot;</tspan>
  </text>
  <text dominant-baseline="baseline" style="font-size: 0;" text-anchor="middle" transform="translate(397.72576904296875, 40.463035583496094) rotate(-1.8871879521114416e-05)">
    <tspan class="DIMENSION" dy="0em" x="0" y="0">21' - 11&quot;</tspan>
  </text>
  <line class="GlobalId-1plfCg2fL2B9ekPR_cC5zt IfcAnnotation PredefinedType-DIMENSION oblique, fill-bg" x1="265.3749084472656" x2="288.21240234375" y1="57.00746536254883" y2="57.00746536254883"/>
  <text dominant-baseline="baseline" filter="url(#fill-background)" style="font-size: 0;" text-anchor="middle" transform="translate(276.79364013671875, 56.00746536254883) rotate(0.0)">
    <tspan class="DIMENSION" dy="0em" x="0" y="0">14' - 5&quot;</tspan>
  </text>
  <text dominant-baseline="baseline" style="font-size: 0;" text-anchor="middle" transform="translate(276.79364013671875, 56.00746536254883) rotate(0.0)">
    <tspan class="DIMENSION" dy="0em" x="0" y="0">14' - 5&quot;</tspan>
  </text>
  <line class="GlobalId-1plfCg2fL2B9ekPR_cC5zt IfcAnnotation PredefinedType-DIMENSION oblique, fill-bg" x1="147.34335327148438" x2="172.90310668945312" y1="41.46361541748047" y2="41.46361541748047"/>
  <text dominant-baseline="baseline" filter="url(#fill-background)" style="font-size: 0;" text-anchor="middle" transform="translate(160.12322998046875, 40.46361541748047) rotate(0.0)">
    <tspan class="DIMENSION" dy="0em" x="0" y="0">16' - 1&quot;</tspan>
  </text>
  <text dominant-baseline="baseline" style="font-size: 0;" text-anchor="middle" transform="translate(160.12322998046875, 40.46361541748047) rotate(0.0)">
    <tspan class="DIMENSION" dy="0em" x="0" y="0">16' - 1&quot;</tspan>
  </text>
  <line class="GlobalId-1plfCg2fL2B9ekPR_cC5zt IfcAnnotation PredefinedType-DIMENSION oblique, fill-bg" x1="150.32347106933594" x2="172.9031524658203" y1="282.91973876953125" y2="282.91973876953125"/>
  <text dominant-baseline="baseline" filter="url(#fill-background)" style="font-size: 0;" text-anchor="middle" transform="translate(161.61331176757812, 281.91973876953125) rotate(0.0)">
    <tspan class="DIMENSION" dy="0em" x="0" y="0">14' - 3&quot;</tspan>
  </text>
  <text dominant-baseline="baseline" style="font-size: 0;" text-anchor="middle" transform="translate(161.61331176757812, 281.91973876953125) rotate(0.0)">
    <tspan class="DIMENSION" dy="0em" x="0" y="0">14' - 3&quot;</tspan>
  </text>
  <line class="GlobalId-1plfCg2fL2B9ekPR_cC5zt IfcAnnotation PredefinedType-DIMENSION oblique, fill-bg" x1="147.3433380126953" x2="147.34332275390625" y1="41.32052230834961" y2="21.200210571289062"/>
  <text dominant-baseline="baseline" filter="url(#fill-background)" style="font-size: 0;" text-anchor="middle" transform="translate(146.34332275390625, 31.260366439819336) rotate(-90.00004348561319)">
    <tspan class="DIMENSION" dy="0em" x="0" y="0">12' - 8&quot;</tspan>
  </text>
  <text dominant-baseline="baseline" style="font-size: 0;" text-anchor="middle" transform="translate(146.34332275390625, 31.260366439819336) rotate(-90.00004348561319)">
    <tspan class="DIMENSION" dy="0em" x="0" y="0">12' - 8&quot;</tspan>
  </text>
  <line class="GlobalId-1plfCg2fL2B9ekPR_cC5zt IfcAnnotation PredefinedType-DIMENSION oblique, fill-bg" x1="236.667724609375" x2="236.667724609375" y1="41.463096618652344" y2="21.200210571289062"/>
  <text dominant-baseline="baseline" filter="url(#fill-background)" style="font-size: 0;" text-anchor="middle" transform="translate(235.667724609375, 31.331653594970703) rotate(-90.00000250447816)">
    <tspan class="DIMENSION" dy="0em" x="0" y="0">12' - 9&quot;</tspan>
  </text>
  <text dominant-baseline="baseline" style="font-size: 0;" text-anchor="middle" transform="translate(235.667724609375, 31.331653594970703) rotate(-90.00000250447816)">
    <tspan class="DIMENSION" dy="0em" x="0" y="0">12' - 9&quot;</tspan>
  </text>
  <line class="GlobalId-1plfCg2fL2B9ekPR_cC5zt IfcAnnotation PredefinedType-DIMENSION oblique, fill-bg" x1="316.5887451171875" x2="316.5887451171875" y1="41.463069915771484" y2="21.200170516967773"/>
  <text dominant-baseline="baseline" filter="url(#fill-background)" style="font-size: 0;" text-anchor="middle" transform="translate(315.5887451171875, 31.331619262695312) rotate(-90.00000250447816)">
    <tspan class="DIMENSION" dy="0em" x="0" y="0">12' - 9&quot;</tspan>
  </text>
  <text dominant-baseline="baseline" style="font-size: 0;" text-anchor="middle" transform="translate(315.5887451171875, 31.331619262695312) rotate(-90.00000250447816)">
    <tspan class="DIMENSION" dy="0em" x="0" y="0">12' - 9&quot;</tspan>
  </text>
  <line class="GlobalId-1plfCg2fL2B9ekPR_cC5zt IfcAnnotation PredefinedType-DIMENSION oblique, fill-bg" x1="478.86260986328125" x2="478.86260986328125" y1="40.31322479248047" y2="21.20012092590332"/>
  <text dominant-baseline="baseline" filter="url(#fill-background)" style="font-size: 0;" text-anchor="middle" transform="translate(477.86260986328125, 30.756671905517578) rotate(-90.00000250447816)">
    <tspan class="DIMENSION" dy="0em" x="0" y="0">12' - 0&quot;</tspan>
  </text>
  <text dominant-baseline="baseline" style="font-size: 0;" text-anchor="middle" transform="translate(477.86260986328125, 30.756671905517578) rotate(-90.00000250447816)">
    <tspan class="DIMENSION" dy="0em" x="0" y="0">12' - 0&quot;</tspan>
  </text>
  <line class="GlobalId-1plfCg2fL2B9ekPR_cC5zt IfcAnnotation PredefinedType-DIMENSION oblique, fill-bg" x1="508.9590759277344" x2="532.3272705078125" y1="104.40815734863281" y2="104.40814971923828"/>
  <text dominant-baseline="baseline" filter="url(#fill-background)" style="font-size: 0;" text-anchor="middle" transform="translate(520.6431884765625, 103.40815734863281) rotate(-1.8706284679512704e-05)">
    <tspan class="DIMENSION" dy="0em" x="0" y="0">14' - 9&quot;</tspan>
  </text>
  <text dominant-baseline="baseline" style="font-size: 0;" text-anchor="middle" transform="translate(520.6431884765625, 103.40815734863281) rotate(-1.8706284679512704e-05)">
    <tspan class="DIMENSION" dy="0em" x="0" y="0">14' - 9&quot;</tspan>
  </text>
  <line class="GlobalId-1plfCg2fL2B9ekPR_cC5zt IfcAnnotation PredefinedType-DIMENSION oblique, fill-bg" x1="382.07330322265625" x2="382.07330322265625" y1="311.42425537109375" y2="294.7022705078125"/>
  <text dominant-baseline="baseline" filter="url(#fill-background)" style="font-size: 0;" text-anchor="middle" transform="translate(381.07330322265625, 303.0632629394531) rotate(-90.00000250447816)">
    <tspan class="DIMENSION" dy="0em" x="0" y="0">10' - 6&quot;</tspan>
  </text>
  <text dominant-baseline="baseline" style="font-size: 0;" text-anchor="middle" transform="translate(381.07330322265625, 303.0632629394531) rotate(-90.00000250447816)">
    <tspan class="DIMENSION" dy="0em" x="0" y="0">10' - 6&quot;</tspan>
  </text>
  <line class="GlobalId-1plfCg2fL2B9ekPR_cC5zt IfcAnnotation PredefinedType-DIMENSION oblique, fill-bg" x1="265.3749694824219" x2="287.8818664550781" y1="267.0447692871094" y2="267.04473876953125"/>
  <text dominant-baseline="baseline" filter="url(#fill-background)" style="font-size: 0;" text-anchor="middle" transform="translate(276.62841796875, 266.04473876953125) rotate(-7.768856207333623e-05)">
    <tspan class="DIMENSION" dy="0em" x="0" y="0">14' - 2&quot;</tspan>
  </text>
  <text dominant-baseline="baseline" style="font-size: 0;" text-anchor="middle" transform="translate(276.62841796875, 266.04473876953125) rotate(-7.768856207333623e-05)">
    <tspan class="DIMENSION" dy="0em" x="0" y="0">14' - 2&quot;</tspan>
  </text>
  <line class="GlobalId-1plfCg2fL2B9ekPR_cC5zt IfcAnnotation PredefinedType-DIMENSION oblique, fill-bg" x1="172.9031524658203" x2="172.9031524658203" y1="311.42425537109375" y2="282.91973876953125"/>
  <text dominant-baseline="baseline" filter="url(#fill-background)" style="font-size: 0;" text-anchor="middle" transform="translate(171.9031524658203, 297.1719970703125) rotate(-90.00000250447816)">
    <tspan class="DIMENSION" dy="0em" x="0" y="0">17' - 11&quot;</tspan>
  </text>
  <text dominant-baseline="baseline" style="font-size: 0;" text-anchor="middle" transform="translate(171.9031524658203, 297.1719970703125) rotate(-90.00000250447816)">
    <tspan class="DIMENSION" dy="0em" x="0" y="0">17' - 11&quot;</tspan>
  </text>
  <line class="GlobalId-1plfCg2fL2B9ekPR_cC5zt IfcAnnotation PredefinedType-DIMENSION oblique, fill-bg" x1="86.55888366699219" x2="86.55889892578125" y1="311.42425537109375" y2="293.8810729980469"/>
  <text dominant-baseline="baseline" filter="url(#fill-background)" style="font-size: 0;" text-anchor="middle" transform="translate(85.55889129638672, 302.65264892578125) rotate(-89.9999478629648)">
    <tspan class="DIMENSION" dy="0em" x="0" y="0">11' - 1&quot;</tspan>
  </text>
  <text dominant-baseline="baseline" style="font-size: 0;" text-anchor="middle" transform="translate(85.55889129638672, 302.65264892578125) rotate(-89.9999478629648)">
    <tspan class="DIMENSION" dy="0em" x="0" y="0">11' - 1&quot;</tspan>
  </text>
  <line class="GlobalId-1plfCg2fL2B9ekPR_cC5zt IfcAnnotation PredefinedType-DIMENSION oblique, fill-bg" x1="64.98424530029297" x2="64.98424530029297" y1="311.42425537109375" y2="274.0369873046875"/>
  <text dominant-baseline="baseline" filter="url(#fill-background)" style="font-size: 0;" text-anchor="middle" transform="translate(63.98424530029297, 292.7306213378906) rotate(-90.00000250447816)">
    <tspan class="DIMENSION" dy="0em" x="0" y="0">23' - 7&quot;</tspan>
  </text>
  <text dominant-baseline="baseline" style="font-size: 0;" text-anchor="middle" transform="translate(63.98424530029297, 292.7306213378906) rotate(-90.00000250447816)">
    <tspan class="DIMENSION" dy="0em" x="0" y="0">23' - 7&quot;</tspan>
  </text>
  <line class="GlobalId-1plfCg2fL2B9ekPR_cC5zt IfcAnnotation PredefinedType-DIMENSION oblique, fill-bg" x1="32.388092041015625" x2="56.13227844238281" y1="274.0369873046875" y2="274.0369873046875"/>
  <text dominant-baseline="baseline" filter="url(#fill-background)" style="font-size: 0;" text-anchor="middle" transform="translate(44.26018524169922, 273.0369873046875) rotate(0.0)">
    <tspan class="DIMENSION" dy="0em" x="0" y="0">14' - 11&quot;</tspan>
  </text>
  <text dominant-baseline="baseline" style="font-size: 0;" text-anchor="middle" transform="translate(44.26018524169922, 273.0369873046875) rotate(0.0)">
    <tspan class="DIMENSION" dy="0em" x="0" y="0">14' - 11&quot;</tspan>
  </text>
  <line class="GlobalId-1plfCg2fL2B9ekPR_cC5zt IfcAnnotation PredefinedType-DIMENSION oblique, fill-bg" x1="26.189546585083008" x2="38.01504898071289" y1="311.23468017578125" y2="21.010658264160156"/>
  <text dominant-baseline="baseline" filter="url(#fill-background)" style="font-size: 0;" text-anchor="middle" transform="translate(31.10312843322754, 166.0819549560547) rotate(-87.66670743116426)">
    <tspan class="DIMENSION" dy="0em" x="0" y="0">183' - 0&quot;</tspan>
  </text>
  <text dominant-baseline="baseline" style="font-size: 0;" text-anchor="middle" transform="translate(31.10312843322754, 166.0819549560547) rotate(-87.66670743116426)">
    <tspan class="DIMENSION" dy="0em" x="0" y="0">183' - 0&quot;</tspan>
  </text>
  <line class="GlobalId-1plfCg2fL2B9ekPR_cC5zt IfcAnnotation PredefinedType-DIMENSION oblique, fill-bg" x1="42.66770935058594" x2="535.7291870117188" y1="11.521538734436035" y2="11.52139949798584"/>
  <text dominant-baseline="baseline" filter="url(#fill-background)" style="font-size: 0;" text-anchor="middle" transform="translate(289.19842529296875, 10.521469116210938) rotate(-1.6179851524947707e-05)">
    <tspan class="DIMENSION" dy="0em" x="0" y="0">310' - 7&quot;</tspan>
  </text>
  <text dominant-baseline="baseline" style="font-size: 0;" text-anchor="middle" transform="translate(289.19842529296875, 10.521469116210938) rotate(-1.6179851524947707e-05)">
    <tspan class="DIMENSION" dy="0em" x="0" y="0">310' - 7&quot;</tspan>
  </text>
  <line class="GlobalId-1plfCg2fL2B9ekPR_cC5zt IfcAnnotation PredefinedType-DIMENSION oblique, fill-bg" x1="534.2691650390625" x2="546.0948486328125" y1="311.4241027832031" y2="21.200111389160156"/>
  <text dominant-baseline="baseline" filter="url(#fill-background)" style="font-size: 0;" text-anchor="middle" transform="translate(539.182861328125, 166.27139282226562) rotate(-87.6666732802184)">
    <tspan class="DIMENSION" dy="0em" x="0" y="0">183' - 0&quot;</tspan>
  </text>
  <text dominant-baseline="baseline" style="font-size: 0;" text-anchor="middle" transform="translate(539.182861328125, 166.27139282226562) rotate(-87.6666732802184)">
    <tspan class="DIMENSION" dy="0em" x="0" y="0">183' - 0&quot;</tspan>
  </text>
  <line class="GlobalId-1plfCg2fL2B9ekPR_cC5zt IfcAnnotation PredefinedType-DIMENSION oblique, fill-bg" x1="30.84224510192871" x2="523.903564453125" y1="319.8489990234375" y2="319.84881591796875"/>
  <text dominant-baseline="baseline" filter="url(#fill-background)" style="font-size: 0;" text-anchor="middle" transform="translate(277.3728942871094, 318.8489074707031) rotate(-2.127761892040448e-05)">
    <tspan class="DIMENSION" dy="0em" x="0" y="0">310' - 7&quot;</tspan>
  </text>
  <text dominant-baseline="baseline" style="font-size: 0;" text-anchor="middle" transform="translate(277.3728942871094, 318.8489074707031) rotate(-2.127761892040448e-05)">
    <tspan class="DIMENSION" dy="0em" x="0" y="0">310' - 7&quot;</tspan>
  </text>
  <text dominant-baseline="middle" style="font-size: 0;" text-anchor="middle" transform="translate(234.1478271484375, 346.5631408691406) rotate(-0.0)">
    <tspan class="GlobalId-2Py5RYWtz6W9ATW1Ax7YTw IfcAnnotation PredefinedType-TEXT large" dy="0em" x="0" y="0">MAIN STREET</tspan>
  </text>
  <text dominant-baseline="middle" style="font-size: 0;" text-anchor="middle" transform="translate(452.7522888183594, 195.3018035888672) rotate(-0.0)">
    <tspan class="GlobalId-0RcTB41PHC_Q419WTXgu8r IfcAnnotation PredefinedType-TEXT" dy="0em" x="0" y="0">EXISTING TREES</tspan>
  </text>
  <text dominant-baseline="middle" style="font-size: 0;" text-anchor="middle" transform="translate(395.7530822753906, 183.2646942138672) rotate(-0.0)">
    <tspan class="GlobalId-0jswyZ_ez9dxq1vyRT8HNE IfcAnnotation PredefinedType-TEXT" dy="0em" x="0" y="0">EXISTING TREES</tspan>
  </text>
  <text dominant-baseline="middle" style="font-size: 0;" text-anchor="middle" transform="translate(133.5733642578125, 159.39788818359375) rotate(-0.0)">
    <tspan class="GlobalId-2UMbNRCPTCv8DrjZ_h6hLZ IfcAnnotation PredefinedType-TEXT" dy="0em" x="0" y="0">COMMUNITY </tspan>
    <tspan class="GlobalId-2UMbNRCPTCv8DrjZ_h6hLZ IfcAnnotation PredefinedType-TEXT" dy="1em" x="0" y="0">GREENHOUSE</tspan>
  </text>
  <text dominant-baseline="middle" style="font-size: 0;" text-anchor="middle" transform="translate(301.2264099121094, 191.40745544433594) rotate(-0.0)">
    <tspan class="GlobalId-0OrAkt3uTDvvGxZQ7ci$D8 IfcAnnotation PredefinedType-TEXT" dy="0em" x="0" y="0">EXISTING TREES</tspan>
  </text>
  <text dominant-baseline="middle" style="font-size: 0;" text-anchor="middle" transform="translate(155.0138397216797, 159.59548950195312) rotate(-0.0)">
    <tspan class="GlobalId-3xnYfpJmnC19JJJBktj_AW IfcAnnotation PredefinedType-TEXT" dy="0em" x="0" y="0">COVERED </tspan>
    <tspan class="GlobalId-3xnYfpJmnC19JJJBktj_AW IfcAnnotation PredefinedType-TEXT" dy="1em" x="0" y="0"> PATIO</tspan>
  </text>
</svg>
