<?xml version="1.0" encoding="utf-8" ?>
<svg xmlns="http://www.w3.org/2000/svg" xmlns:ev="http://www.w3.org/2001/xml-events" xmlns:ifc="http://www.ifcopenshell.org/ns" xmlns:xlink="http://www.w3.org/1999/xlink" baseProfile="full" data-scale="1&quot;=30'" height="273.40054779052736mm" id="root" version="1.1" viewBox="0 0 596.9444274902344 273.40054779052736" width="596.9444274902344mm">
  <defs/>
  <line class="GlobalId-0Gp4kyfDbDLBHwvCy1_z7g IfcAnnotation PredefinedType-SECTION" x1="125.46613311767578" x2="191.29945373535156" y1="84.7227783203125" y2="84.7227554321289"/>
  <use transform="rotate(-1.9919947705969253e-05, 125.46613311767578, 84.7227783203125)" x="125.46613311767578" xlink:href="#section-arrow" y="84.7227783203125"/>
  <use x="125.46613311767578" xlink:href="#section-tag" y="84.7227783203125"/>
  <text class="SECTION" dominant-baseline="middle" text-anchor="middle" x="125.46613311767578" y="82.2227783203125">-</text>
  <text class="SECTION" dominant-baseline="middle" text-anchor="middle" x="125.46613311767578" y="87.2227783203125">-</text>
  <use transform="rotate(-1.9919947705969253e-05, 191.29945373535156, 84.7227554321289)" x="191.29945373535156" xlink:href="#section-arrow" y="84.7227554321289"/>
  <use x="191.29945373535156" xlink:href="#section-tag" y="84.7227554321289"/>
  <text class="SECTION" dominant-baseline="middle" text-anchor="middle" x="191.29945373535156" y="82.2227554321289">-</text>
  <text class="SECTION" dominant-baseline="middle" text-anchor="middle" x="191.29945373535156" y="87.2227554321289">-</text>
  <line class="GlobalId-3qjoV6yzfALf_f8JxI7uJP IfcAnnotation PredefinedType-DIMENSION fill-bg" x1="377.709228515625" x2="377.7092590332031" y1="193.66500854492188" y2="178.46263122558594"/>
  <text dominant-baseline="baseline" filter="url(#fill-background)" style="font-size: 0;" text-anchor="middle" transform="translate(376.709228515625, 186.06381225585938) rotate(-89.99988639126228)">
    <tspan class="DIMENSION" dy="0em" x="0" y="0">17' - 11&quot;</tspan>
  </text>
  <text dominant-baseline="baseline" style="font-size: 0;" text-anchor="middle" transform="translate(376.709228515625, 186.06381225585938) rotate(-89.99988639126228)">
    <tspan class="DIMENSION" dy="0em" x="0" y="0">17' - 11&quot;</tspan>
  </text>
</svg>
