<?xml version="1.0" encoding="utf-8" ?>
<svg xmlns="http://www.w3.org/2000/svg" xmlns:ev="http://www.w3.org/2001/xml-events" xmlns:ifc="http://www.ifcopenshell.org/ns" xmlns:xlink="http://www.w3.org/1999/xlink" baseProfile="full" data-scale="1&quot;=30'" height="413.3332994249132mm" id="root" version="1.1" viewBox="0 0 413.3332994249132 413.3332994249132" width="413.3332994249132mm">
  <defs/>
  <image height="413.3332994249132" width="413.3332994249132" xlink:href="VICINITY PLAN-underlay.png"/>
</svg>
