<svg xmlns="http://www.w3.org/2000/svg" xmlns:xlink="http://www.w3.org/1999/xlink" xmlns:ifc="http://www.ifcopenshell.org/ns" width="225.001mm" height="125.55mm" viewBox="0 0 225.001 125.55">
    <defs>
        <marker id="arrowend" markerWidth="10" markerHeight="7" refX="10" refY="3.5" orient="auto">
          <polygon points="0 0, 10 3.5, 0 7"/>
        </marker>
        <marker id="arrowstart" markerWidth="10" markerHeight="7" refX="0" refY="3.5" orient="auto">
          <polygon points="10 0, 0 3.5, 10 7"/>
        </marker>
    </defs>
    <g ifc:name="Elevation W1 - WALL DETAIL - HEAD" class="section" ifc:plane="[[1.000000,0.000000,0.000000,0.000000],[0.000000,-0.000000,-1.000000,0.762000],[0.000000,1.000000,-0.000000,0.000000],[0.000000,0.000000,0.000000,1.000000]]" ifc:matrix3="[[250.000000,0.000000,-106265.848969],[0.000000,250.000000,672.375234],[0.000000,0.000000,1.000000]]">
        <g class="projection">
            <path d="M58.1494,59.3304 L56.165,59.3304"/>
            <path d="M58.1494,671.978 L56.165,671.978"/>
            <path d="M56.165,671.978 L56.165,59.3304"/>
            <path d="M58.1494,671.978 L58.1494,59.3304"/>
            <path d="M37.9161,59.3304 L35.9317,59.3304"/>
            <path d="M37.9161,671.978 L35.9317,671.978"/>
            <path d="M35.9317,671.978 L35.9317,68.3315"/>
            <path d="M37.9161,671.978 L37.9161,59.3304"/>
            <path d="M56.165,59.3304 L37.9161,59.3304"/>
            <path d="M56.165,671.978 L37.9161,671.978"/>
            <path d="M35.5289,61.1878 L35.5289,670.788"/>
            <path d="M31.5601,61.1878 L35.5289,61.1878"/>
            <path d="M31.5601,670.788 L31.5601,61.1878"/>
            <path d="M35.5289,670.788 L31.5601,670.788"/>
            <path d="M59.5724,58.8514 L59.8043,58.3986"/>
            <path d="M59.4532,59.3459 L59.5724,58.8514"/>
            <path d="M59.4532,59.8546 L59.4532,59.3459"/>
            <path d="M59.5724,60.3492 L59.4532,59.8546"/>
            <path d="M59.8043,60.8019 L59.5724,60.3492"/>
            <path d="M60.1358,61.1878 L59.8043,60.8019"/>
            <path d="M62.517,61.1878 L60.1358,61.1878"/>
            <path d="M62.1855,60.8019 L62.517,61.1878"/>
            <path d="M61.9537,60.3492 L62.1855,60.8019"/>
            <path d="M61.8345,59.8546 L61.9537,60.3492"/>
            <path d="M61.8345,59.3459 L61.8345,59.8546"/>
            <path d="M61.9537,58.8514 L61.8345,59.3459"/>
            <path d="M62.1855,58.3986 L61.9537,58.8514"/>
            <path d="M62.517,58.0128 L62.1855,58.3986"/>
            <path d="M60.1358,58.0128 L62.517,58.0128"/>
            <path d="M59.8043,58.3986 L60.1358,58.0128"/>
            <path d="M34.508,60.3491 L34.2761,60.8019"/>
            <path d="M34.6272,59.8546 L34.508,60.3491"/>
            <path d="M34.6272,59.3459 L34.6272,59.8546"/>
            <path d="M34.508,58.8514 L34.6272,59.3459"/>
            <path d="M34.2761,58.3986 L34.508,58.8514"/>
            <path d="M33.9446,58.0127 L34.2761,58.3986"/>
            <path d="M31.5634,58.0127 L33.9446,58.0127"/>
            <path d="M31.8949,58.3986 L31.5634,58.0127"/>
            <path d="M32.1267,58.8514 L31.8949,58.3986"/>
            <path d="M32.246,59.3459 L32.1267,58.8514"/>
            <path d="M32.246,59.8546 L32.246,59.3459"/>
            <path d="M32.1267,60.3491 L32.246,59.8546"/>
            <path d="M31.8949,60.8019 L32.1267,60.3491"/>
            <path d="M31.5634,61.1877 L31.8949,60.8019"/>
            <path d="M33.9446,61.1877 L31.5634,61.1877"/>
            <path d="M34.2761,60.8019 L33.9446,61.1877"/>
            <path d="M58.1569,58.4097 L35.9319,58.4097"/>
            <path d="M58.1569,68.3315 L58.1569,58.4097"/>
            <path d="M58.5538,68.3315 L58.1569,68.3315"/>
            <path d="M58.5538,58.0128 L58.5538,68.3315"/>
            <path d="M35.535,58.0128 L58.5538,58.0128"/>
            <path d="M35.535,68.3315 L35.535,58.0128"/>
            <path d="M35.9319,68.3315 L35.535,68.3315"/>
            <path d="M35.9319,58.4097 L35.9319,68.3315"/>
            <path d="M58.5529,61.1878 L62.5217,61.1878"/>
            <path d="M58.5529,670.788 L58.5529,61.1878"/>
            <path d="M62.5217,670.788 L58.5529,670.788"/>
            <path d="M62.5217,61.1878 L62.5217,670.788"/>
            <path d="M-140.002,32.6128 L-140.002,58.0128"/>
            <path d="M-140.002,58.0128 L199.435,58.0128"/>
            <path d="M199.435,58.0128 L199.435,32.6128"/>
            <path d="M199.435,32.6128 L-140.002,32.6128"/>
            <path d="M504.245,58.0128 L199.445,58.0128"/>
            <path d="M504.245,32.6128 L504.245,58.0128"/>
            <path d="M199.445,32.6128 L504.245,32.6128"/>
            <path d="M199.445,58.0128 L199.445,32.6128"/>
            <path d="M-3028.93,5892.79 L-3028.93,-8128.01"/>
            <path d="M9544.07,5892.79 L-3028.93,5892.79"/>
            <path d="M9544.07,-8128.01 L9544.07,-8128.01"/>
            <path d="M-3028.93,-8128.01 L-3028.93,-8128.01"/>
            <path d="M9544.07,-8128.01 L-3028.93,-8128.01"/>
            <path d="M9544.07,5892.79 L9544.07,-8128.01"/>
            <path d="M9544.07,5892.79 L9544.07,5892.79"/>
            <path d="M9544.07,-8128.01 L9544.07,5892.79"/>
            <path d="M-3028.93,-8128.01 L9544.07,-8128.01"/>
            <path d="M-3028.93,5892.79 L-3028.93,-8128.01"/>
            <path d="M-3028.93,5892.79 L-3028.93,5892.79"/>
            <path d="M9544.07,5892.79 L-3028.93,5892.79"/>
        </g>
    <g id="product-dc117d4a-5443-40bb-b6f7-f4c92bf3d72b-body" class="IfcBuildingElementProxy material-UNDERSIDEOFFLOORASSEMBLY materialCategory-sand cut" ifc:name="Generic Models 538:Generic Models 1:1579544" ifc:guid="3S4NrAL4D0kxRtzCahyzSh">
            <path d="M199.445,58.0128 L199.445,32.6128 L504.245,32.6128 L504.245,58.0128 L199.445,58.0128"/>
        </g>
        <g id="product-8b402e20-1df9-450f-8f31-66ba34ab823a-body" class="IfcBuildingElementProxy material-UNDERSIDEOFFLOORASSEMBLY materialCategory-sand cut" ifc:name="Generic Models 447:Generic Models 1:1577634" ifc:guid="2BG2uW7Vb53uynPheqgu8w">
            <path d="M-140.002,32.6128 L-140.002,58.0128 L199.435,58.0128 L199.435,32.6128 L-140.002,32.6128"/>
        </g>
        <g id="product-175fc5a6-10ad-4bac-8e63-ba72e4fa9ca9-body" class="IfcBuildingElementProxy material-34USGSHEETROCKBRANDULTRACODECOREPANELJOINTSFINISHED materialCategory-sand cut" ifc:name="Generic Models 138:Generic Models 1:637141" ifc:guid="0NNyMc4ArBh8vZkdBa_fof">
            <path d="M62.5217,61.1878 L62.5217,670.788 L58.5529,670.788 L58.5529,61.1878 L62.5217,61.1878"/>
        </g>
        <g id="product-eeb19623-8e9d-4758-989b-bc1403a18333-body" class="IfcBuildingElementProxy material-DEEPLEGOFDEFLECTIONTRACK2MINDEFLECTION materialCategory-steel cut" ifc:name="Generic Models 23:Generic Models 1:426865" ifc:guid="3kiPOZZfr7M9YRl1G3eOCp">
            <path d="M35.9319,58.4097 L35.9319,68.3315 L35.535,68.3315 L35.535,58.0128 L58.5538,58.0128 L58.5538,68.3315 L58.1569,68.3315 L58.1569,58.4097 L35.9319,58.4097"/>
        </g>
        <g id="product-c6b2a621-8c31-466b-921f-13e41109e0ab-body" class="IfcBuildingElementProxy material-ACOUSTICALSEALANTORFIRESEALANTIFRATEDWALL materialCategory-sealant cut" ifc:name="Generic Models 526:Generic Models 1:1579401" ifc:guid="36igOXZ356Qv8V4_GH2U2h">
            <path d="M34.2761,60.8019 L33.9446,61.1877 L31.5634,61.1877 L31.8949,60.8019 L32.1267,60.3491 L32.246,59.8546 L32.246,59.3459 L32.1267,58.8514 L31.8949,58.3986 L31.5634,58.0127 L33.9446,58.0127 L34.2761,58.3986 L34.508,58.8514 L34.6272,59.3459 L34.6272,59.8546 L34.508,60.3491 L34.2761,60.8019"/>
        </g>
        <g id="product-2af5e119-2586-463d-9e1c-5a41b24c83d4-body" class="IfcBuildingElementProxy material-ACOUSTICALSEALANTORFIRESEALANTIFRATEDWALL materialCategory-sealant cut" ifc:name="Generic Models 526:Generic Models 1:1579401" ifc:guid="0gzU4P9OP6FPuSMa6oJ8FK">
            <path d="M59.8043,58.3986 L60.1358,58.0128 L62.517,58.0128 L62.1855,58.3986 L61.9537,58.8514 L61.8345,59.3459 L61.8345,59.8546 L61.9537,60.3492 L62.1855,60.802 L62.517,61.1878 L60.1358,61.1878 L59.8043,60.8019 L59.5724,60.3492 L59.4532,59.8546 L59.4532,59.3459 L59.5724,58.8514 L59.8043,58.3986"/>
        </g>
        <g id="product-6496e233-85a9-4195-92be-73d032b778dc-body" class="IfcBuildingElementProxy material-34USGSHEETROCKBRANDULTRACODECOREPANELJOINTSFINISHED materialCategory-sand cut" ifc:name="Generic Models 16:Generic Models 1:637269" ifc:guid="1abk8pXQb1bPA_Sz0ojtZS">
            <path d="M35.5289,670.788 L31.5601,670.788 L31.5601,61.1878 L35.5289,61.1878 L35.5289,670.788"/>
        </g>
        </g>
</svg>