<?xml version="1.0" encoding="utf-8" ?>
<svg xmlns="http://www.w3.org/2000/svg" xmlns:ev="http://www.w3.org/2001/xml-events" xmlns:ifc="http://www.ifcopenshell.org/ns" xmlns:xlink="http://www.w3.org/1999/xlink" baseProfile="full" data-scale="3&quot;=1'-0&quot;" height="125.55034589767456mm" id="root" version="1.1" viewBox="0 0 225.00061988830566 125.55034589767456" width="225.00061988830566mm">
  <defs/>
  <path class="GlobalId-0be2lO81f858UhSHLPXHx_ IfcAnnotation PredefinedType-TEXTLEADER" d="M 116.87195301055908 115.72648277878761 L 111.85944080352783 115.72648277878761 L 88.87207508087158 122.41102448105812"/>
  <text dominant-baseline="middle" style="font-size: 0;" text-anchor="start" transform="translate(116.87195587158203, 115.72648620605469) rotate(-0.0)">
    <tspan class="GlobalId-0be2lO81f858UhSHLPXHx_ IfcAnnotation PredefinedType-TEXTLEADER" dy="0em" x="0" y="0">5/8&quot; GYP. BD OR CEMENT BACKERBOARD ON WET WALL</tspan>
  </text>
  <path class="GlobalId-1jF1vosDrFoPsJi7VzJLjF IfcAnnotation PredefinedType-SECTIONLEVEL" d="M 1777.646240234375 668.4739379882812 L 1552.64013671875 668.4739379882812"/>
  <text dominant-baseline="baseline" style="font-size: 0;" text-anchor="start" transform="translate(1777.646240234375, 664.9739379882812) rotate(0.0)">
    <tspan class="SECTIONLEVEL" dy="-1em" x="0" y="0">My Storey</tspan>
    <tspan class="SECTIONLEVEL" dy="0em" x="0" y="0">RL +0&quot;</tspan>
  </text>
  <path class="GlobalId-1xzx0j1PTAOvPv4T3VLzIs IfcAnnotation PredefinedType-TEXTLEADER" d="M 116.87195301055908 86.5582346022129 L 111.85944080352783 86.5582346022129 L 91.64154529571533 101.41010275483131"/>
  <text dominant-baseline="middle" style="font-size: 0;" text-anchor="start" transform="translate(116.87195587158203, 86.55823516845703) rotate(-0.0)">
    <tspan class="GlobalId-1xzx0j1PTAOvPv4T3VLzIs IfcAnnotation PredefinedType-TEXTLEADER" dy="0em" x="0" y="0">CEILING TRACK AS SCHEDULED</tspan>
  </text>
  <path class="GlobalId-0aIpIa6E16yOqbNZHB0_rT IfcAnnotation PredefinedType-TEXTLEADER" d="M 116.87195301055908 95.89244118332863 L 111.85944080352783 95.89244118332863 L 105.55756092071533 106.95232143998146"/>
  <text dominant-baseline="middle" style="font-size: 0;" text-anchor="start" transform="translate(116.87195587158203, 95.89244079589844) rotate(-0.0)">
    <tspan class="GlobalId-0aIpIa6E16yOqbNZHB0_rT IfcAnnotation PredefinedType-TEXTLEADER" dy="0em" x="0" y="0">ACOUSTICAL TILE - AS SCHEDULED</tspan>
  </text>
  <path class="GlobalId-3CCC43ZGn28urudxOMc1Sz IfcAnnotation PredefinedType-TEXTLEADER" d="M 116.87195301055908 77.66176360100508 L 111.85944080352783 77.66176360100508 L 71.80511951446533 96.45147314667702"/>
  <text dominant-baseline="middle" style="font-size: 0;" text-anchor="start" transform="translate(116.87195587158203, 77.66175842285156) rotate(-0.0)">
    <tspan class="GlobalId-3CCC43ZGn28urudxOMc1Sz IfcAnnotation PredefinedType-TEXTLEADER" dy="0em" x="0" y="0">BATT INSULATION - ENTIRE CAVITY</tspan>
  </text>
  <path class="GlobalId-0m2pJlMxDAZRbl6WbvQQBZ IfcAnnotation PredefinedType-TEXTLEADER fill-bg" d="M 116.87195301055908 63.13563497760333 L 111.85944080352783 63.13563497760333 L 76.53534412384033 68.4492697045207"/>
  <text dominant-baseline="middle" filter="url(#fill-background)" style="font-size: 0;" text-anchor="start" transform="translate(116.87195587158203, 63.1356315612793) rotate(-0.0)">
    <tspan class="GlobalId-0m2pJlMxDAZRbl6WbvQQBZ IfcAnnotation PredefinedType-TEXTLEADER fill-bg" dy="0em" x="0" y="0">DOUBLE 2X WOOD TOP PLATE</tspan>
  </text>
  <text dominant-baseline="middle" style="font-size: 0;" text-anchor="start" transform="translate(116.87195587158203, 63.1356315612793) rotate(-0.0)">
    <tspan class="GlobalId-0m2pJlMxDAZRbl6WbvQQBZ IfcAnnotation PredefinedType-TEXTLEADER fill-bg" dy="0em" x="0" y="0">DOUBLE 2X WOOD TOP PLATE</tspan>
  </text>
  <path class="GlobalId-36KmpqYRbA9OGscq3MOCBg IfcAnnotation PredefinedType-TEXTLEADER fill-bg" d="M 116.87195301055908 22.16602554917335 L 111.85944080352783 22.16602554917335 L 86.27045154571533 47.00012198090553"/>
  <text dominant-baseline="middle" filter="url(#fill-background)" style="font-size: 0;" text-anchor="start" transform="translate(116.87195587158203, 22.166025161743164) rotate(-0.0)">
    <tspan class="GlobalId-36KmpqYRbA9OGscq3MOCBg IfcAnnotation PredefinedType-TEXTLEADER fill-bg" dy="0em" x="0" y="0">2X BLOCKING - 24&quot; O.C. </tspan>
    <tspan class="GlobalId-36KmpqYRbA9OGscq3MOCBg IfcAnnotation PredefinedType-TEXTLEADER fill-bg" dy="1em" x="0" y="0">(WHEN WALL IS PARALLEL TO TRUSSES)</tspan>
  </text>
  <text dominant-baseline="middle" style="font-size: 0;" text-anchor="start" transform="translate(116.87195587158203, 22.166025161743164) rotate(-0.0)">
    <tspan class="GlobalId-36KmpqYRbA9OGscq3MOCBg IfcAnnotation PredefinedType-TEXTLEADER fill-bg" dy="0em" x="0" y="0">2X BLOCKING - 24&quot; O.C. </tspan>
    <tspan class="GlobalId-36KmpqYRbA9OGscq3MOCBg IfcAnnotation PredefinedType-TEXTLEADER fill-bg" dy="1em" x="0" y="0">(WHEN WALL IS PARALLEL TO TRUSSES)</tspan>
  </text>
  <path class="GlobalId-0pNzQfF4P8BxsuO55cvmjr IfcAnnotation PredefinedType-TEXTLEADER fill-bg" d="M 116.87195301055908 17.389309316873547 L 111.85944080352783 17.389309316873547 L 26.173710823059082 46.22478476166725"/>
  <text dominant-baseline="middle" filter="url(#fill-background)" style="font-size: 0;" text-anchor="start" transform="translate(116.87195587158203, 17.38930892944336) rotate(-0.0)">
    <tspan class="GlobalId-0pNzQfF4P8BxsuO55cvmjr IfcAnnotation PredefinedType-TEXTLEADER fill-bg" dy="0em" x="0" y="0">EXISTING WOOD TRUSS</tspan>
  </text>
  <text dominant-baseline="middle" style="font-size: 0;" text-anchor="start" transform="translate(116.87195587158203, 17.38930892944336) rotate(-0.0)">
    <tspan class="GlobalId-0pNzQfF4P8BxsuO55cvmjr IfcAnnotation PredefinedType-TEXTLEADER fill-bg" dy="0em" x="0" y="0">EXISTING WOOD TRUSS</tspan>
  </text>
  <path class="GlobalId-1iI0pYSRf3t9nitSXQr5WL IfcAnnotation PredefinedType-TEXTLEADER fill-bg" d="M 116.87195301055908 33.01681271195412 L 111.85944080352783 33.01681271195412 L 97.39410877227783 52.329372338950634"/>
  <text dominant-baseline="middle" filter="url(#fill-background)" style="font-size: 0;" text-anchor="start" transform="translate(116.87195587158203, 33.01681137084961) rotate(-0.0)">
    <tspan class="GlobalId-1iI0pYSRf3t9nitSXQr5WL IfcAnnotation PredefinedType-TEXTLEADER fill-bg" dy="0em" x="0" y="0">25 GA. RESILIENT CHANNEL - 24&quot; O.C.</tspan>
  </text>
  <text dominant-baseline="middle" style="font-size: 0;" text-anchor="start" transform="translate(116.87195587158203, 33.01681137084961) rotate(-0.0)">
    <tspan class="GlobalId-1iI0pYSRf3t9nitSXQr5WL IfcAnnotation PredefinedType-TEXTLEADER fill-bg" dy="0em" x="0" y="0">25 GA. RESILIENT CHANNEL - 24&quot; O.C.</tspan>
  </text>
</svg>
