<svg xmlns="http://www.w3.org/2000/svg" xmlns:xlink="http://www.w3.org/1999/xlink" xmlns:ifc="http://www.ifcopenshell.org/ns" width="225.001mm" height="154.125mm" viewBox="0 0 225.001 154.125">
    <defs>
        <marker id="arrowend" markerWidth="10" markerHeight="7" refX="10" refY="3.5" orient="auto">
          <polygon points="0 0, 10 3.5, 0 7"/>
        </marker>
        <marker id="arrowstart" markerWidth="10" markerHeight="7" refX="0" refY="3.5" orient="auto">
          <polygon points="10 0, 0 3.5, 10 7"/>
        </marker>
    </defs>
    <g ifc:name="Elevation W4 - W6 - PARTITION - BASE" class="section" ifc:plane="[[1.000000,0.000000,0.000000,0.000000],[0.000000,-0.000000,-1.000000,0.261700],[0.000000,1.000000,-0.000000,0.000000],[0.000000,0.000000,0.000000,1.000000]]" ifc:matrix3="[[250.000000,0.000000,-104712.473725],[0.000000,250.000000,98.036573],[0.000000,0.000000,1.000000]]">
        <path d="M64.19999999999999,96.6 L61.8,96.6 L62.1,97.2 L61.7,98.0 L64.1,98.0 L64.5,97.2 Z" class="IfcBuildingElementProxy material-ACOUSTICALSEALANT materialCategory-sealant surface"/><path d="M61.7,94.2 L61.7,72.6 L61.5,72.6 L61.1,72.8 L60.9,73.2 L60.9,94.2 L60.8,95.1 L60.39999999999999,96.00000000000001 L59.89999999999999,96.80000000000001 L59.1,97.3 L59.5,98.0 L60.4,97.3 L61.1,96.4 L61.6,95.3 Z" class="IfcBuildingElementProxy material-WALLBASEASSCHEDULED surface"/><path d="M65.7,-506.8 L65.7,-512.4 L61.7,-512.4 L61.7,72.1 L61.7,72.49999999999999 L61.7,72.6 L61.7,94.2 L61.7,94.7 L61.7,95.07999999999998 L61.7,95.9 L61.7,96.4 L64.1,96.4 L64.19999999999999,96.6 L65.7,96.6 L65.7,88.5 L65.7,88.0 Z" class="IfcBuildingElementProxy material-58GYPBDORCEMENTBACKERBOARDONWETWALL materialCategory-sand surface"/><path d="M76.6,98.0 L76.6,88.5 L76.2,88.5 L67.3,88.5 L65.7,88.5 L65.7,96.6 L65.7,97.1 L65.7,98.0 Z" class="IfcBuildingElementProxy material-2XWOODSILLTREATEDIFONCONCRETE materialCategory-wood1 surface"/><path d="M77.3,98.0 L77.3,88.5 L77.1,88.5 L76.8,88.5 L76.6,88.5 L76.6,98.0 L76.8,98.0 L77.1,98.0 Z" class="IfcBuildingElementProxy material-FASTENERAT24OC surface"/><path d="M77.3,107.3 L76.9,108.0 L76.6,107.3 L76.6,98.0 L65.7,98.0 L65.2,98.0 L64.6,98.0 L64.1,98.0 L61.7,98.0 L61.2,98.0 L59.5,98.0 L-76.0,98.0 L-76.0,136.1 L228.8,136.1 L228.8,98.0 L94.1,98.0 L92.4,98.0 L91.9,98.0 L89.5,98.0 L89.0,98.0 L88.4,98.0 L87.9,98.0 L77.3,98.0 Z" class="IfcBuildingElementProxy material-concrete surface"/><path d="M76.9,108.0 L77.3,107.3 L77.3,98.0 L77.1,98.0 L76.8,98.0 L76.6,98.0 L76.6,107.3 Z" class="IfcBuildingElementProxy material-FASTENERAT24OC surface"/><path d="M76.2,87.7 L76.6,87.7 L77.3,87.7 L77.6,87.7 L77.6,88.0 L77.6,88.5 L86.3,88.5 L86.3,-498.9 L67.3,-498.9 L67.3,88.5 L76.2,88.5 L76.2,88.0 Z" class="IfcBuildingElementProxy material-BATTINSULATIONENTIRECAVITY materialCategory-InsulationBattVert surface"/><path d="M87.9,96.4 L87.9,88.5 L86.3,88.5 L77.6,88.5 L77.3,88.5 L77.3,98.0 L87.9,98.0 L87.9,96.9 Z" class="IfcBuildingElementProxy material-2XWOODSILLTREATEDIFONCONCRETE materialCategory-wood1 surface"/><path d="M87.9,88.0 L87.9,-506.8 L65.7,-506.8 L65.7,88.0 L65.7,88.5 L67.3,88.5 L67.3,-498.9 L86.3,-498.9 L86.3,88.5 L87.9,88.5 Z" class="IfcBuildingElementProxy material-null surface"/><path d="M91.9,96.4 L89.5,96.4 L89.2,97.2 L89.5,98.0 L91.9,98.0 L91.5,97.2 Z" class="IfcBuildingElementProxy material-ACOUSTICALSEALANT materialCategory-sealant surface"/><path d="M91.9,72.6 L91.9,94.20000000000002 L92.1,95.30000000000003 L92.5,96.40000000000002 L93.2,97.3 L94.1,98.0 L94.5,97.3 L93.8,96.8 L93.2,95.99999999999999 L92.8,95.1 L92.7,94.20000000000002 L92.7,73.2 L92.5,72.8 L92.2,72.6 Z" class="IfcBuildingElementProxy material-WALLBASEASSCHEDULED surface"/><path d="M91.9,-512.4 L87.9,-512.4 L87.9,-506.8 L87.9,88.0 L87.9,88.5 L87.9,96.4 L89.0,96.4 L89.5,96.4 L91.9,96.4 L91.9,94.7 L91.9,94.20000000000002 L91.9,72.6 L91.9,72.39999999999999 L91.9,72.1 Z" class="IfcBuildingElementProxy material-58GYPBDORCEMENTBACKERBOARDONWETWALL materialCategory-sand surface"/><g class="projection">
            <path d="M91.8949,-512.357 L87.9261,-512.357"/>
            <path d="M91.8949,96.4491 L91.8949,-512.357"/>
            <path d="M87.9261,96.4491 L91.8949,96.4491"/>
            <path d="M87.9261,-512.357 L87.9261,96.4491"/>
            <path d="M77.609,88.0493 L76.2247,88.0493"/>
            <path d="M76.2247,87.7032 L77.609,87.7032"/>
            <path d="M76.2247,88.0493 L76.2247,87.7032"/>
            <path d="M76.2247,88.0493 L76.2247,88.0493"/>
            <path d="M77.609,88.0493 L77.609,88.0493"/>
            <path d="M77.609,88.0493 L77.609,87.7032"/>
            <path d="M77.609,87.7032 L77.609,87.7032"/>
            <path d="M77.609,88.0493 L77.609,88.0493"/>
            <path d="M77.609,87.7032 L77.609,87.7032"/>
            <path d="M76.2247,88.0493 L76.2247,88.0493"/>
            <path d="M77.609,88.0493 L77.609,88.0493"/>
            <path d="M76.9168,107.954 L76.9168,107.954"/>
            <path d="M76.9168,107.954 L77.2629,107.262"/>
            <path d="M77.2629,107.262 L77.2629,88.0493"/>
            <path d="M76.5708,107.262 L76.5708,88.0493"/>
            <path d="M76.9168,107.954 L76.9168,107.954"/>
            <path d="M76.5708,107.262 L76.9168,107.954"/>
            <path d="M76.9168,107.954 L76.9168,107.954"/>
            <path d="M65.7031,-512.352 L65.7031,96.6307"/>
            <path d="M61.7344,-512.352 L65.7031,-512.352"/>
            <path d="M61.7344,96.6307 L61.7344,96.4492"/>
            <path d="M61.7344,96.4491 L61.7344,-512.352"/>
            <path d="M65.7031,96.6307 L61.7344,96.6307"/>
            <path d="M67.2885,-498.948 L67.2885,88.5116"/>
            <path d="M86.3385,-498.948 L67.2885,-498.948"/>
            <path d="M86.3385,88.5116 L86.3385,-498.948"/>
            <path d="M59.4991,98.0366 L59.1023,97.3492"/>
            <path d="M60.4228,97.3279 L59.4991,98.0366"/>
            <path d="M61.1316,96.4042 L60.4228,97.3279"/>
            <path d="M61.5771,95.3285 L61.1316,96.4042"/>
            <path d="M61.7291,94.1742 L61.5771,95.3285"/>
            <path d="M61.7291,72.6366 L61.7291,94.1742"/>
            <path d="M61.457,72.6366 L61.7291,72.6366"/>
            <path d="M61.0881,72.7894 L61.457,72.6366"/>
            <path d="M60.9353,73.1583 L61.0881,72.7894"/>
            <path d="M60.9353,94.1742 L60.9353,73.1583"/>
            <path d="M60.8104,95.1231 L60.9353,94.1742"/>
            <path d="M60.4442,96.0073 L60.8104,95.1231"/>
            <path d="M59.8615,96.7666 L60.4442,96.0073"/>
            <path d="M59.1023,97.3492 L59.8615,96.7666"/>
            <path d="M92.0507,95.3285 L91.8987,94.1742"/>
            <path d="M92.4962,96.4042 L92.0507,95.3285"/>
            <path d="M93.205,97.3279 L92.4962,96.4042"/>
            <path d="M94.1287,98.0366 L93.205,97.3279"/>
            <path d="M94.5255,97.3492 L94.1287,98.0366"/>
            <path d="M93.7662,96.7666 L94.5255,97.3492"/>
            <path d="M93.1836,96.0073 L93.7662,96.7666"/>
            <path d="M92.8174,95.1231 L93.1836,96.0073"/>
            <path d="M92.6924,94.1742 L92.8174,95.1231"/>
            <path d="M92.6924,73.1583 L92.6924,94.1742"/>
            <path d="M92.5396,72.7894 L92.6924,73.1583"/>
            <path d="M92.1707,72.6366 L92.5396,72.7894"/>
            <path d="M91.8987,72.6366 L92.1707,72.6366"/>
            <path d="M91.8987,94.1742 L91.8987,72.6366"/>
            <path d="M89.511,98.0366 L89.1622,97.2429"/>
            <path d="M91.8922,98.0366 L89.511,98.0366"/>
            <path d="M91.5434,97.2429 L91.8922,98.0366"/>
            <path d="M91.8922,96.4491 L91.5434,97.2429"/>
            <path d="M89.511,96.4491 L91.8922,96.4491"/>
            <path d="M89.1622,97.2429 L89.511,96.4491"/>
            <path d="M61.7344,96.4491 L64.1156,96.4491"/>
            <path d="M62.0832,97.2429 L61.7344,96.4491"/>
            <path d="M61.7344,98.0366 L62.0832,97.2429"/>
            <path d="M64.1156,98.0366 L61.7344,98.0366"/>
            <path d="M64.4644,97.2429 L64.1156,98.0366"/>
            <path d="M64.1156,96.4491 L64.4644,97.2429"/>
            <path d="M65.7017,88.5116 L76.5708,88.5116"/>
            <path d="M77.2629,88.5116 L87.9267,88.5116"/>
            <path d="M65.7017,98.0366 L65.7017,88.5116"/>
            <path d="M87.9267,98.0366 L77.2629,98.0366"/>
            <path d="M76.5708,98.0366 L65.7017,98.0366"/>
            <path d="M87.9267,88.5116 L87.9267,98.0366"/>
            <path d="M228.816,136.137 L-75.9838,136.137"/>
            <path d="M228.816,98.0366 L228.816,136.137"/>
            <path d="M-75.9838,98.0366 L76.5708,98.0366"/>
            <path d="M77.2629,98.0366 L228.816,98.0366"/>
            <path d="M-75.9838,136.137 L-75.9838,98.0366"/>
            <path d="M65.7031,-506.801 L87.9261,-506.801"/>
            <path d="M-1475.55,-8702.35 L-1475.55,-8702.35"/>
            <path d="M11097.4,-8702.35 L11097.4,-8702.35"/>
            <path d="M11097.4,5318.45 L-1475.55,5318.45"/>
            <path d="M-1475.55,5318.45 L11097.4,5318.45"/>
            <path d="M-1475.55,5318.45 L-1475.55,5318.45"/>
            <path d="M-1475.55,-8702.35 L-1475.55,5318.45"/>
            <path d="M11097.4,-8702.35 L-1475.55,-8702.35"/>
            <path d="M11097.4,5318.45 L11097.4,-8702.35"/>
            <path d="M11097.4,5318.45 L11097.4,5318.45"/>
            <path d="M11097.4,-8702.35 L11097.4,5318.45"/>
            <path d="M-1475.55,-8702.35 L11097.4,-8702.35"/>
            <path d="M-1475.55,5318.45 L-1475.55,-8702.35"/>
        </g>
    </g>
</svg>