<svg xmlns="http://www.w3.org/2000/svg" xmlns:xlink="http://www.w3.org/1999/xlink" xmlns:ifc="http://www.ifcopenshell.org/ns" width="225.001mm" height="125.55mm" viewBox="0 0 225.001 125.55">
    <defs>
        <marker id="arrowend" markerWidth="10" markerHeight="7" refX="10" refY="3.5" orient="auto">
          <polygon points="0 0, 10 3.5, 0 7"/>
        </marker>
        <marker id="arrowstart" markerWidth="10" markerHeight="7" refX="0" refY="3.5" orient="auto">
          <polygon points="10 0, 0 3.5, 10 7"/>
        </marker>
    </defs>
    <g ifc:name="Elevation W4A&#216;F AND W6A&#216;F - PARTITION - HEAD" class="section" ifc:plane="[[1.000000,0.000000,0.000000,0.000000],[0.000000,-0.000000,-1.000000,0.464165],[0.000000,1.000000,-0.000000,0.000000],[0.000000,0.000000,0.000000,1.000000]]" ifc:matrix3="[[250.000000,0.000000,-104713.206147],[0.000000,250.000000,668.474108],[0.000000,0.000000,1.000000]]">
        <path d="M33.1,-101.5 L10.9,-101.5 L10.9,-92.4 L10.9,-91.9 L33.1,-91.9 L33.1,-101.1 Z" class="IfcElementAssembly material-EXISTINGWOODTRUSS materialCategory-wood1 surface"/><path d="M185.5,-101.5 L163.3,-101.5 L163.3,-92.4 L163.3,-91.9 L185.5,-91.9 L185.5,-101.1 Z" class="IfcElementAssembly material-EXISTINGWOODTRUSS materialCategory-wood1 surface"/><path d="M66.6,71.5 L66.6,658.9 L85.6,658.9 L85.6,71.5 Z" class="IfcBuildingElementProxy material-BATTINSULATIONENTIRECAVITY materialCategory-InsulationBattVert surface"/><path d="M87.2,70.0 L87.2,61.0 L87.2,60.5 L80.4,60.5 L80.11428571428571,60.5 L80.0,60.7 L79.91428571428571,60.5 L79.7,60.5 L79.6,60.5 L73.0,60.5 L72.9,60.5 L72.68571428571428,60.5 L72.6,60.699999999999996 L72.48571428571428,60.5 L72.2,60.5 L65.0,60.5 L65.0,61.0 L65.0,70.0 Z" class="IfcBuildingElementProxy material-DOUBLE2XWOODTOPPLATE materialCategory-wood1 surface"/><path d="M87.2,70.5 L87.2,70.0 L65.0,70.0 L65.0,70.5 L65.0,658.9 L66.1,658.9 L66.6,658.9 L66.6,71.5 L85.6,71.5 L85.6,658.9 L86.1,658.9 L87.2,658.9 Z" class="IfcBuildingElementProxy material-null surface"/><path d="M32.6,41.4 L33.1,41.4 L33.1,40.9 L33.1,-91.4 L33.1,-91.9 L10.9,-91.9 L10.9,-91.4 L10.9,40.9 L10.9,41.4 Z" class="IfcElementAssembly material-WOODTRUSSWEB materialCategory-WoodBeyond surface"/><path d="M163.3,40.9 L163.3,41.4 L163.8,41.4 L185.5,41.4 L185.5,40.9 L185.5,-91.4 L185.5,-91.9 L163.3,-91.9 L163.3,-91.4 Z" class="IfcElementAssembly material-WOODTRUSSWEB materialCategory-WoodBeyond surface"/><path d="M163.3,50.9 L185.5,50.9 L185.5,50.4 L185.5,43.7 L185.5,42.7 L185.5,41.4 L163.8,41.4 L163.3,41.4 L163.3,41.9 Z" class="IfcElementAssembly material-EXISTINGWOODTRUSS materialCategory-wood1 surface"/><path d="M80.4,50.9 L87.2,50.9 L87.7,50.9 L162.8,50.9 L163.3,50.9 L163.3,41.9 L163.3,41.4 L162.8,41.4 L80.4,41.4 Z" class="IfcBuildingElementProxy material-2XBLOCKING24OCnWHENWALLISPARALLELTOTRUSSES materialCategory-WoodBeyond surface"/><path d="M79.9,50.9 L79.7,50.9 L79.7,60.0 L79.91428571428571,60.5 L80.11428571428571,60.5 L80.4,60.0 L80.4,50.9 L80.2,50.9 Z" class="IfcBuildingElementProxy material-FASTENERAT24OC surface"/><path d="M79.7,50.9 L79.9,50.9 L80.2,50.9 L80.4,50.9 L80.4,41.4 L80.2,41.4 L79.9,41.4 L79.7,41.4 Z" class="IfcBuildingElementProxy material-FASTENERAT24OC surface"/><path d="M79.7,50.9 L72.9,50.9 L72.9,60.00000000000001 L72.9,60.5 L73.0,60.5 L79.6,60.5 L79.7,60.5 L79.7,60.0 Z" class="IfcBuildingElementProxy material-DOUBLE2XWOODTOPPLATE materialCategory-wood1 surface"/><path d="M72.9,50.9 L79.7,50.9 L79.7,41.4 L72.9,41.4 Z" class="IfcBuildingElementProxy material-2XBLOCKING24OCnWHENWALLISPARALLELTOTRUSSES materialCategory-WoodBeyond surface"/><path d="M72.4,50.9 L72.2,50.9 L72.2,60.0 L72.48571428571428,60.5 L72.68571428571428,60.5 L72.9,60.00000000000001 L72.9,50.9 L72.7,50.9 Z" class="IfcBuildingElementProxy material-FASTENERAT24OC surface"/><path d="M72.2,50.9 L72.4,50.9 L72.7,50.9 L72.9,50.9 L72.9,41.4 L72.7,41.4 L72.4,41.4 L72.2,41.4 Z" class="IfcBuildingElementProxy material-FASTENERAT24OC surface"/><path d="M33.1,50.9 L33.6,50.9 L64.5,50.9 L65.0,50.9 L72.2,50.9 L72.2,41.4 L33.6,41.4 L33.1,41.4 L33.1,42.7 L33.1,43.7 L33.1,50.4 Z" class="IfcBuildingElementProxy material-2XBLOCKING24OCnWHENWALLISPARALLELTOTRUSSES materialCategory-WoodBeyond surface"/><path d="M10.9,50.9 L33.1,50.9 L33.1,50.4 L33.1,43.7 L33.1,42.7 L33.1,41.4 L32.6,41.4 L10.9,41.4 L10.9,41.9 Z" class="IfcElementAssembly material-EXISTINGWOODTRUSS materialCategory-wood1 surface"/><path d="M65.0,53.6 L65.0,53.7 L65.0,54.1 L65.0,57.6 L65.0,58.1 L65.0,58.6 L65.0,60.0 L65.0,60.5 L72.2,60.5 L72.2,60.0 L72.2,50.9 L65.0,50.9 Z" class="IfcBuildingElementProxy material-DOUBLE2XWOODTOPPLATE materialCategory-wood1 surface"/><path d="M65.0,58.1 L61.0,58.1 L61.0,667.1 L65.0,667.1 L65.0,658.9 L65.0,70.5 L65.0,70.0 L65.0,61.0 L65.0,60.5 L65.0,60.0 L65.0,58.6 Z" class="IfcBuildingElementProxy material-58GYPBDORCEMENTBACKERBOARDONWETWALL materialCategory-sand surface"/><path d="M-5.1,53.6 L-5.1,53.7 L65.0,53.7 L65.0,53.6 L65.0,50.9 L64.5,50.9 L33.6,50.9 L33.1,50.9 L10.9,50.9 L10.4,50.9 L-5.1,50.9 L-5.1,53.2 Z" class="IfcBuildingElementProxy material-25GARESILIENTCHANNEL24OC materialCategory-steel surface"/><path d="M65.0,54.1 L-5.1,54.1 L-5.1,54.2 L-5.1,54.6 L-5.1,58.1 L60.5,58.1 L61.0,58.1 L65.0,58.1 L65.0,57.6 Z" class="IfcBuildingElementProxy material-58GYPBDCEILING materialCategory-sand surface"/><path d="M-5.1,54.1 L65.0,54.1 L65.0,53.7 L-5.1,53.7 Z" class="IfcBuildingElementProxy material-25GARESILIENTCHANNEL24OC materialCategory-steel surface"/><path d="M237.3,54.1 L237.8,54.1 L261.6,54.1 L261.6,53.7 L237.3,53.7 Z" class="IfcBuildingElementProxy material-25GARESILIENTCHANNEL24OC materialCategory-steel surface"/><path d="M87.2,58.1 L87.2,58.6 L87.2,60.0 L87.2,60.5 L87.2,61.0 L87.2,70.0 L87.2,70.5 L87.2,658.9 L87.2,666.9 L91.2,666.9 L91.2,58.1 Z" class="IfcBuildingElementProxy material-58GYPBDORCEMENTBACKERBOARDONWETWALL materialCategory-sand surface"/><path d="M87.2,54.1 L87.2,57.6 L87.2,58.1 L91.2,58.1 L91.7,58.1 L237.3,58.1 L237.3,54.1 L236.8,54.1 Z" class="IfcBuildingElementProxy material-58GYPBDCEILING materialCategory-sand surface"/><path d="M87.2,53.7 L87.2,54.1 L236.8,54.1 L237.3,54.1 L237.3,53.7 Z" class="IfcBuildingElementProxy material-25GARESILIENTCHANNEL24OC materialCategory-steel surface"/><path d="M87.2,53.7 L87.2,53.6 L87.2,50.9 L80.4,50.9 L80.4,60.0 L80.4,60.5 L87.2,60.5 L87.2,60.0 L87.2,58.6 L87.2,58.1 L87.2,57.6 L87.2,54.1 Z" class="IfcBuildingElementProxy material-DOUBLE2XWOODTOPPLATE materialCategory-wood1 surface"/><path d="M87.2,53.6 L87.2,53.7 L237.3,53.7 L261.6,53.7 L261.6,53.2 L261.6,50.9 L186.0,50.9 L185.5,50.9 L163.3,50.9 L162.8,50.9 L87.7,50.9 L87.2,50.9 Z" class="IfcBuildingElementProxy material-25GARESILIENTCHANNEL24OC materialCategory-steel surface"/><g class="projection">
            <path d="M87.196,54.1117 L87.196,58.0805"/>
            <path d="M237.312,54.1117 L87.196,54.1117"/>
            <path d="M237.312,58.0805 L237.312,54.1117"/>
            <path d="M87.196,58.0805 L237.312,58.0805"/>
            <path d="M-5.10445,54.1117 L64.9713,54.1116"/>
            <path d="M-5.10445,58.0805 L-5.10445,54.1117"/>
            <path d="M64.9713,58.0804 L-5.10445,58.0805"/>
            <path d="M64.9713,54.1116 L64.9713,58.0804"/>
            <path d="M261.593,53.7149 L261.593,50.9368"/>
            <path d="M-5.10678,53.7148 L-5.10678,50.9367"/>
            <path d="M-5.10678,50.9367 L72.2373,50.9367"/>
            <path d="M72.9294,50.9367 L79.6759,50.9367"/>
            <path d="M80.3681,50.9367 L261.593,50.9368"/>
            <path d="M261.593,54.1118 L261.593,53.7149"/>
            <path d="M-5.10678,54.1117 L-5.10678,53.7148"/>
            <path d="M-5.10678,53.7148 L64.9693,53.7148"/>
            <path d="M87.1943,53.7148 L261.593,53.7149"/>
            <path d="M87.1943,54.1117 L87.196,54.1117"/>
            <path d="M237.312,54.1118 L261.593,54.1118"/>
            <path d="M33.1219,50.9367 L33.1219,50.9368"/>
            <path d="M163.297,41.4117 L163.297,50.9367"/>
            <path d="M163.297,41.4117 L80.3681,41.4117"/>
            <path d="M79.6759,41.4117 L72.9294,41.4118"/>
            <path d="M72.2373,41.4118 L33.1259,41.4118"/>
            <path d="M87.1943,69.9867 L87.1943,60.4617"/>
            <path d="M64.9693,69.9867 L87.1943,69.9867"/>
            <path d="M64.9693,60.4617 L64.9693,69.9867"/>
            <path d="M87.1943,60.4617 L80.1296,60.4617"/>
            <path d="M79.9144,60.4617 L72.691,60.4617"/>
            <path d="M72.4757,60.4617 L64.9693,60.4617"/>
            <path d="M91.1624,58.0805 L87.1937,58.0805"/>
            <path d="M91.1624,666.887 L91.1624,58.0805"/>
            <path d="M87.1937,666.887 L91.1624,666.887"/>
            <path d="M87.1937,58.0805 L87.1937,666.887"/>
            <path d="M64.9707,58.0852 L64.9707,667.068"/>
            <path d="M61.002,58.0852 L64.9707,58.0852"/>
            <path d="M61.002,667.068 L61.002,58.0852"/>
            <path d="M64.9707,667.068 L61.002,667.068"/>
            <path d="M66.5561,71.4899 L66.5561,658.949"/>
            <path d="M85.6061,71.4899 L66.5561,71.4899"/>
            <path d="M85.6061,658.949 L85.6061,71.4899"/>
            <path d="M66.5561,658.949 L85.6061,658.949"/>
            <path d="M87.1943,60.4617 L87.1943,50.9367"/>
            <path d="M64.9693,60.4617 L72.4757,60.4617"/>
            <path d="M72.6909,60.4617 L79.9144,60.4617"/>
            <path d="M80.1296,60.4617 L87.1943,60.4617"/>
            <path d="M64.9693,50.9367 L64.9693,60.4617"/>
            <path d="M87.1943,50.9367 L80.3681,50.9367"/>
            <path d="M79.6759,50.9367 L72.9294,50.9367"/>
            <path d="M72.2373,50.9367 L64.9693,50.9367"/>
            <path d="M64.9707,658.949 L87.1937,658.949"/>
            <path d="M73.2755,40.7722 L71.8912,40.7722"/>
            <path d="M71.8912,40.4261 L73.2755,40.4261"/>
            <path d="M71.8912,40.4261 L71.8912,40.4261"/>
            <path d="M71.8912,40.7722 L71.8912,40.4261"/>
            <path d="M71.8912,40.7722 L71.8912,40.7722"/>
            <path d="M73.2755,40.7722 L73.2755,40.4261"/>
            <path d="M73.2755,40.7722 L73.2755,40.7722"/>
            <path d="M71.8912,40.4261 L71.8912,40.4261"/>
            <path d="M71.8912,40.7722 L71.8912,40.7722"/>
            <path d="M71.8912,40.7722 L71.8912,40.7722"/>
            <path d="M72.5833,60.6769 L72.5833,60.6769"/>
            <path d="M72.5833,60.6769 L72.9294,59.9848"/>
            <path d="M72.9294,59.9848 L72.9294,40.7722"/>
            <path d="M72.2373,59.9848 L72.2373,40.7722"/>
            <path d="M72.5833,60.6769 L72.5833,60.6769"/>
            <path d="M72.2373,59.9848 L72.5833,60.6769"/>
            <path d="M72.5833,60.6769 L72.5833,60.6769"/>
            <path d="M80.7142,40.7722 L79.3299,40.7722"/>
            <path d="M79.3299,40.4261 L80.7142,40.4261"/>
            <path d="M79.3299,40.4261 L79.3299,40.4261"/>
            <path d="M79.3299,40.7722 L79.3299,40.4261"/>
            <path d="M79.3299,40.7722 L79.3299,40.7722"/>
            <path d="M80.7142,40.7722 L80.7142,40.4261"/>
            <path d="M80.7142,40.7722 L80.7142,40.7722"/>
            <path d="M79.3299,40.4261 L79.3299,40.4261"/>
            <path d="M79.3299,40.7722 L79.3299,40.7722"/>
            <path d="M79.3299,40.7722 L79.3299,40.7722"/>
            <path d="M80.022,60.6769 L80.022,60.6769"/>
            <path d="M80.022,60.6769 L80.3681,59.9848"/>
            <path d="M80.3681,59.9848 L80.3681,40.7722"/>
            <path d="M79.6759,59.9848 L79.6759,40.7722"/>
            <path d="M80.022,60.6769 L80.022,60.6769"/>
            <path d="M79.6759,59.9848 L80.022,60.6769"/>
            <path d="M80.022,60.6769 L80.022,60.6769"/>
            <path d="M163.299,-91.9383 L163.299,-91.9382"/>
            <path d="M185.519,50.9367 L163.299,50.9367"/>
            <path d="M163.299,-101.463 L163.299,-101.463"/>
            <path d="M163.299,-101.463 L163.299,-101.463"/>
            <path d="M163.299,50.9367 L163.299,50.9367"/>
            <path d="M163.299,50.9367 L163.299,50.9367"/>
            <path d="M163.299,41.4117 L163.299,50.9367"/>
            <path d="M185.519,-101.463 L163.299,-101.463"/>
            <path d="M163.299,-91.9383 L163.299,-101.463"/>
            <path d="M185.519,-91.9383 L185.519,-101.463"/>
            <path d="M163.299,-91.9382 L163.299,41.4117"/>
            <path d="M163.299,41.4117 L163.299,41.4117"/>
            <path d="M185.519,41.4117 L163.299,41.4117"/>
            <path d="M185.519,41.4117 L185.519,50.9367"/>
            <path d="M185.519,50.9367 L185.519,50.9367"/>
            <path d="M163.299,41.4117 L163.299,41.4117"/>
            <path d="M163.299,41.4117 L163.299,41.4117"/>
            <path d="M163.299,-91.9382 L163.299,-91.9382"/>
            <path d="M163.299,41.4117 L163.299,41.4117"/>
            <path d="M163.299,-91.9382 L163.299,-91.9382"/>
            <path d="M163.299,-91.9382 L163.299,-91.9382"/>
            <path d="M163.299,-91.9382 L163.299,-91.9383"/>
            <path d="M163.299,-91.9383 L185.519,-91.9383"/>
            <path d="M10.902,-91.9383 L10.902,-91.9382"/>
            <path d="M33.1217,50.9367 L10.9021,50.9367"/>
            <path d="M10.902,-101.463 L10.9021,-101.463"/>
            <path d="M10.9021,-101.463 L10.902,-101.463"/>
            <path d="M10.902,50.9367 L10.902,50.9367"/>
            <path d="M10.9021,50.9367 L10.9021,50.9367"/>
            <path d="M10.9021,41.4117 L10.9021,50.9367"/>
            <path d="M33.1217,-101.463 L10.9021,-101.463"/>
            <path d="M10.9021,-91.9383 L10.9021,-101.463"/>
            <path d="M33.1217,-91.9383 L33.1217,-101.463"/>
            <path d="M10.902,-91.9382 L10.902,41.4117"/>
            <path d="M10.902,41.4117 L10.9021,41.4117"/>
            <path d="M33.1217,41.4117 L10.9021,41.4117"/>
            <path d="M33.1217,41.4117 L33.1217,50.9367"/>
            <path d="M10.902,41.4117 L10.902,41.4117"/>
            <path d="M10.9021,41.4117 L10.902,41.4117"/>
            <path d="M10.902,-91.9382 L10.902,-91.9382"/>
            <path d="M10.902,41.4117 L10.902,41.4117"/>
            <path d="M10.902,-91.9382 L10.902,-91.9382"/>
            <path d="M10.9021,-91.9382 L10.902,-91.9382"/>
            <path d="M10.902,-91.9382 L10.9021,-91.9383"/>
            <path d="M10.9021,-91.9383 L33.1217,-91.9383"/>
            <path d="M185.523,49.887 L185.523,43.1518"/>
            <path d="M185.523,-100.578 L185.523,43.1518"/>
            <path d="M185.519,43.1518 L185.523,43.1518"/>
            <path d="M163.303,-91.9383 L163.303,41.4117"/>
            <path d="M185.519,-100.578 L185.523,-100.578"/>
            <path d="M185.523,49.887 L185.519,49.887"/>
            <path d="M185.523,43.1518 L185.523,49.887"/>
            <path d="M33.1259,49.887 L33.1258,43.1518"/>
            <path d="M33.1258,-100.578 L33.1258,43.1518"/>
            <path d="M33.1217,43.1518 L33.1258,43.1518"/>
            <path d="M10.9056,-91.9383 L10.9056,41.4117"/>
            <path d="M33.1217,-100.578 L33.1258,-100.578"/>
            <path d="M33.1259,49.887 L33.1217,49.887"/>
            <path d="M33.1259,43.1518 L33.1259,49.887"/>
            <path d="M11096.7,-8131.92 L11096.7,5888.88"/>
            <path d="M-1476.28,-8131.91 L-1476.28,5888.89"/>
            <path d="M11096.7,5888.88 L11096.7,5888.89"/>
            <path d="M-1476.28,5888.88 L11096.7,5888.88"/>
            <path d="M11096.7,5888.89 L11096.7,-8131.91"/>
            <path d="M-1476.28,5888.89 L11096.7,5888.89"/>
            <path d="M-1476.28,5888.88 L-1476.28,5888.89"/>
            <path d="M-1476.28,-8131.92 L-1476.28,5888.88"/>
            <path d="M11096.7,-8131.92 L-1476.28,-8131.92"/>
            <path d="M11096.7,-8131.91 L11096.7,-8131.92"/>
            <path d="M-1476.28,-8131.91 L11096.7,-8131.91"/>
            <path d="M-1476.28,-8131.92 L-1476.28,-8131.91"/>
        </g>
    </g>
</svg>